<svg width="34" height="34" viewBox="0 0 34 34" fill="none" xmlns="http://www.w3.org/2000/svg">
<circle cx="17" cy="17" r="17" fill="white"/>
<path d="M14 22.6451L23.5833 17.1951L14 11.7451V22.6451Z" fill="#D92429"/>
</svg>
