<svg width="122" height="245" viewBox="0 0 122 245" fill="none" xmlns="http://www.w3.org/2000/svg">
<path fill-rule="evenodd" clip-rule="evenodd" d="M122 82.6163L122 -5.33279e-06C54.6214 -2.38758e-06 -8.31193e-06 54.8452 -5.35465e-06 122.5C-2.39735e-06 190.155 54.6214 245 122 245L122 162.384C100.062 162.384 82.279 144.527 82.279 122.5C82.279 100.473 100.062 82.6163 122 82.6163Z" fill="#F6D51F"/>
</svg>
