<svg width="27" height="27" viewBox="0 0 27 27" fill="none" xmlns="http://www.w3.org/2000/svg">
<path d="M2.60156 0.5L26.001 23.8994L23.401 26.4994L0.00162714 3.09994L2.60156 0.5Z" fill="#51362D"/>
<path d="M23.4023 0.5L0.00292906 23.8994L2.60286 26.4994L26.0023 3.09994L23.4023 0.5Z" fill="#51362D"/>
</svg>
