<svg width="151" height="150" viewBox="0 0 151 150" fill="none" xmlns="http://www.w3.org/2000/svg">
<g opacity="0.1">
<path d="M37.0297 88.8395C36.898 88.7291 36.7456 88.6463 36.5813 88.5958C36.4171 88.5453 36.2444 88.5283 36.0734 88.5457C35.9025 88.563 35.7367 88.6145 35.586 88.6969C35.4352 88.7794 35.3026 88.8912 35.1957 89.0258C29.3583 96.3826 25.4662 105.352 24.2982 115.158C24.2074 115.921 24.8065 116.592 25.5746 116.592H57.2484C57.5203 116.591 57.785 116.505 58.0044 116.344C58.2237 116.183 58.3865 115.957 58.4692 115.698C59.0643 113.86 59.9452 112.127 61.0795 110.563C61.4712 110.022 61.3687 109.269 60.8575 108.839L37.0297 88.8395Z" fill="#004C56"/>
<path d="M139.093 120.683H135.821C135.689 114.492 134.626 108.527 132.767 102.921L135.736 101.841C135.919 101.777 136.088 101.677 136.232 101.547C136.377 101.418 136.494 101.261 136.577 101.085C136.66 100.91 136.708 100.72 136.717 100.526C136.726 100.332 136.697 100.139 136.63 99.9563C136.564 99.7739 136.462 99.6066 136.331 99.464C136.199 99.3214 136.04 99.2063 135.864 99.1255C135.687 99.0447 135.497 98.9998 135.303 98.9933C135.109 98.9868 134.915 99.019 134.734 99.0878L131.777 100.164C130.478 96.8034 128.882 93.5653 127.008 90.4883C131.261 87.2243 134.005 82.0921 134.005 76.3168C134.005 66.4546 126.01 58.4598 116.148 58.4598C109.688 58.4598 104.031 61.8899 100.895 67.0277C96.5193 64.9662 91.9111 63.4396 87.17 62.4808L87.676 59.6012C87.7432 59.2185 87.6556 58.8248 87.4326 58.5067C87.2095 58.1886 86.8692 57.9721 86.4865 57.9049C86.1038 57.8377 85.7102 57.9253 85.392 58.1483C85.0739 58.3714 84.8574 58.7117 84.7902 59.0944L84.2851 61.9696C81.2975 61.5155 78.2392 61.2793 75.1267 61.2793C72.0142 61.2793 68.9559 61.5157 65.9682 61.9696L65.4631 59.0944C65.3906 58.7166 65.1725 58.3826 64.8559 58.1642C64.5393 57.9459 64.1495 57.8608 63.7707 57.9274C63.3919 57.9939 63.0545 58.2067 62.8312 58.5199C62.6079 58.833 62.5168 59.2214 62.5773 59.6012L63.0833 62.4808C57.0679 63.6973 51.2735 65.8255 45.9007 68.7916L44.4121 66.2132C44.3166 66.0453 44.1889 65.8979 44.0362 65.7795C43.8835 65.6612 43.7089 65.5742 43.5225 65.5235C43.3361 65.4729 43.1415 65.4597 42.9499 65.4846C42.7583 65.5095 42.5736 65.572 42.4063 65.6686C42.239 65.7652 42.0924 65.894 41.9751 66.0474C41.8577 66.2009 41.7719 66.376 41.7225 66.5628C41.6731 66.7496 41.6612 66.9443 41.6874 67.1357C41.7135 67.3271 41.7773 67.5114 41.875 67.6781L43.3703 70.2679C38.1548 73.4833 33.4521 77.4641 29.4194 82.0769L27.0672 80.1031C26.92 79.9778 26.7496 79.8829 26.5656 79.8238C26.3816 79.7647 26.1877 79.7426 25.9951 79.7587C25.8026 79.7748 25.6151 79.8289 25.4435 79.9178C25.2719 80.0068 25.1196 80.1288 24.9954 80.2768C24.8712 80.4248 24.7774 80.596 24.7197 80.7804C24.6619 80.9648 24.6411 81.1588 24.6587 81.3513C24.6762 81.5438 24.7316 81.7309 24.8218 81.9018C24.912 82.0727 25.0351 82.2241 25.184 82.3473L27.5444 84.3278C23.7411 89.1196 20.6839 94.4587 18.4762 100.164L15.5189 99.0878C15.3382 99.022 15.1463 98.9924 14.9541 99.0008C14.7619 99.0092 14.5733 99.0554 14.3989 99.1366C14.2246 99.2179 14.068 99.3328 13.9381 99.4746C13.8081 99.6164 13.7074 99.7824 13.6416 99.9632C13.5758 100.144 13.5462 100.336 13.5545 100.528C13.5629 100.72 13.609 100.909 13.6903 101.083C13.7716 101.258 13.8865 101.414 14.0283 101.544C14.1702 101.674 14.3362 101.775 14.517 101.841L17.4865 102.921C15.6273 108.527 14.5639 114.492 14.4326 120.683H11.1602C10.7717 120.683 10.3991 120.837 10.1244 121.112C9.84964 121.387 9.69531 121.759 9.69531 122.148C9.69531 122.536 9.84964 122.909 10.1244 123.183C10.3991 123.458 10.7717 123.613 11.1602 123.613H15.5641C15.8693 123.613 16.1526 123.519 16.3873 123.359C16.9454 123.152 17.3453 122.619 17.3453 121.989C17.3453 90.1288 43.2657 64.2084 75.1264 64.2084C83.8633 64.2084 92.1514 66.1613 99.5828 69.6477C98.8703 71.4162 98.4471 73.2879 98.3295 75.1909C92.7439 72.2684 86.6713 70.3909 80.4109 69.6509C79.6477 69.5604 78.9763 70.1589 78.9763 70.9274V81.2252H71.2759V70.9274C71.2759 70.1589 70.6044 69.5604 69.8412 69.6509C59.5185 70.8738 50.1218 75.1133 42.5559 81.4649C41.9462 81.9767 41.9503 82.9177 42.5603 83.4295L67.3677 104.252C67.5491 104.404 67.7695 104.503 68.0041 104.538C68.2387 104.572 68.4783 104.541 68.696 104.447C68.8064 104.399 68.9195 104.357 69.0311 104.312V116.255C67.6211 117.753 66.7557 119.77 66.7557 121.989C66.7557 126.613 70.5036 130.36 75.1267 130.36C79.7497 130.36 83.4976 126.613 83.4976 121.989C83.4976 119.77 82.6319 117.753 81.2222 116.255V104.312C81.3335 104.357 81.4469 104.399 81.5573 104.447C81.775 104.541 82.0145 104.573 82.2491 104.538C82.4837 104.504 82.704 104.404 82.8853 104.252L102.481 87.8044C104.196 89.8437 106.345 91.4745 108.771 92.5778L89.3939 108.842C88.8827 109.271 88.7799 110.024 89.1719 110.565C90.3063 112.129 91.1872 113.862 91.7822 115.7C91.8649 115.959 92.0276 116.186 92.247 116.346C92.4664 116.507 92.7311 116.594 93.003 116.594H124.677C125.445 116.594 126.044 115.924 125.953 115.161C125.037 107.469 122.438 100.296 118.546 94.0083C120.646 93.7277 122.678 93.0733 124.546 92.0762C129.851 100.807 132.908 111.048 132.908 121.989C132.908 122.619 133.308 123.152 133.866 123.359C134.108 123.524 134.395 123.612 134.689 123.612H139.093C139.478 123.607 139.845 123.45 140.115 123.176C140.385 122.902 140.537 122.532 140.537 122.147C140.537 121.762 140.385 121.393 140.115 121.119C139.845 120.845 139.477 120.688 139.093 120.683Z" fill="#004C56"/>
<path d="M43.031 123.413H25.3945C25.006 123.413 24.6334 123.567 24.3587 123.842C24.084 124.117 23.9297 124.489 23.9297 124.878C23.9297 125.266 24.084 125.639 24.3587 125.914C24.6334 126.188 25.006 126.343 25.3945 126.343H43.0307C43.4192 126.343 43.7918 126.188 44.0665 125.914C44.3412 125.639 44.4956 125.267 44.4957 124.878C44.4957 124.49 44.3414 124.117 44.0667 123.842C43.792 123.567 43.4195 123.413 43.031 123.413ZM34.2126 129.577H25.3945C25.006 129.577 24.6334 129.732 24.3587 130.006C24.084 130.281 23.9297 130.654 23.9297 131.042C23.9297 131.431 24.084 131.803 24.3587 132.078C24.6334 132.353 25.006 132.507 25.3945 132.507H34.2126C34.6011 132.507 34.9737 132.353 35.2484 132.078C35.5231 131.803 35.6774 131.431 35.6774 131.042C35.6774 130.654 35.5231 130.281 35.2484 130.006C34.9737 129.732 34.6011 129.577 34.2126 129.577ZM124.854 123.413H107.218C106.83 123.413 106.457 123.567 106.183 123.842C105.908 124.117 105.754 124.489 105.754 124.878C105.754 125.266 105.908 125.639 106.183 125.914C106.457 126.188 106.83 126.343 107.218 126.343H124.854C125.243 126.343 125.616 126.188 125.89 125.914C126.165 125.639 126.319 125.266 126.319 124.878C126.319 124.489 126.165 124.117 125.89 123.842C125.616 123.567 125.243 123.413 124.854 123.413ZM124.854 129.577H116.036C115.648 129.577 115.275 129.732 115.001 130.006C114.726 130.281 114.572 130.654 114.572 131.042C114.572 131.431 114.726 131.803 115.001 132.078C115.275 132.353 115.648 132.507 116.036 132.507H124.854C125.243 132.507 125.616 132.353 125.89 132.078C126.165 131.803 126.319 131.431 126.319 131.042C126.319 130.654 126.165 130.281 125.89 130.006C125.616 129.732 125.243 129.577 124.854 129.577ZM33.2906 51.6187C33.528 52.037 33.8455 52.4044 34.225 52.7C34.6045 52.9955 35.0385 53.2134 35.5022 53.341C35.9659 53.4687 36.4503 53.5038 36.9275 53.4442C37.4048 53.3845 37.8656 53.2314 38.2837 52.9936C40.0421 51.9946 40.6579 49.7589 39.6586 48.0005L39.2637 47.3053C49.9181 49.9019 61.9764 51.2622 74.618 51.2622C87.1954 51.2622 99.1951 49.9148 109.81 47.3437L109.437 48.0005C108.438 49.7589 109.053 51.9946 110.812 52.9936C111.23 53.2314 111.691 53.3844 112.168 53.444C112.645 53.5036 113.129 53.4685 113.593 53.3408C114.057 53.2131 114.491 52.9952 114.87 52.6997C115.25 52.4042 115.567 52.0367 115.805 51.6184L120.56 43.2474C121.559 41.489 120.944 39.2534 119.186 38.2543L110.815 33.4983C109.055 32.499 106.821 33.1148 105.821 34.8732C104.822 36.6316 105.438 38.8672 107.196 39.8663L107.897 40.2644C97.8999 42.6498 86.3637 43.9376 74.6177 43.9376C62.833 43.9376 51.2593 42.641 41.2392 40.2407L41.8983 39.8663C43.6567 38.8672 44.2726 36.6316 43.2732 34.8732C42.2742 33.1148 40.0389 32.499 38.2802 33.4983L29.9092 38.2543C29.491 38.4918 29.1237 38.8094 28.8282 39.1889C28.5328 39.5684 28.315 40.0024 28.1873 40.466C28.0596 40.9297 28.0246 41.414 28.0841 41.8912C28.1436 42.3685 28.2966 42.8293 28.5343 43.2474L33.2906 51.6187Z" fill="#004C56"/>
</g>
<path d="M78.9766 63.8949V95.5604C78.9771 95.8326 79.0642 96.0976 79.2251 96.3171C79.3861 96.5366 79.6127 96.6992 79.8722 96.7815C80.4438 96.9648 81.0061 97.1761 81.557 97.4146C81.7747 97.5086 82.0142 97.5401 82.2488 97.5055C82.4834 97.471 82.7037 97.3719 82.8851 97.2192L107.692 76.3971C108.302 75.8852 108.307 74.9442 107.697 74.4324C100.131 68.0808 90.7343 63.8413 80.4115 62.6184C79.648 62.5279 78.9766 63.1265 78.9766 63.8949Z" fill="#F2E85A"/>
<path d="M107.69 76.3984L99.6455 83.1514C98.7695 81.0449 98.2891 78.7363 98.2891 76.3164C98.2891 73.7061 98.8486 71.2275 99.8564 68.9922C102.64 70.5654 105.262 72.3906 107.693 74.4326C108.303 74.9453 108.3 75.8857 107.69 76.3984Z" fill="#F2E85A"/>
<path d="M93.2002 88.5615L82.8848 97.2187C82.7037 97.3717 82.4836 97.4711 82.2491 97.5058C82.0147 97.5404 81.7752 97.509 81.5576 97.415C81.0067 97.1768 80.4445 96.9656 79.873 96.7822C79.3398 96.6094 78.9766 96.1201 78.9766 95.5605V82.6289C84.2939 83.3206 89.1631 85.4268 93.2002 88.5615Z" fill="#FFD7A7"/>
<path d="M125.953 108.131C124.785 98.3249 120.893 89.3554 115.056 81.9986C114.949 81.864 114.816 81.7521 114.665 81.6696C114.515 81.5871 114.349 81.5357 114.178 81.5183C114.007 81.5009 113.834 81.518 113.67 81.5685C113.506 81.619 113.353 81.7019 113.222 81.8123L89.3942 101.812C88.883 102.241 88.7802 102.995 89.1722 103.535C90.3066 105.099 91.1875 106.832 91.7825 108.67C91.8652 108.93 92.0279 109.156 92.2473 109.316C92.4667 109.477 92.7314 109.564 93.0033 109.565H124.677C125.445 109.565 126.044 108.894 125.953 108.131Z" fill="#F2E85A"/>
<path d="M121.862 93.24C120.021 93.8609 118.09 94.1766 116.146 94.1746C111.497 94.1746 107.261 92.3962 104.082 89.4812L113.22 81.8113C113.773 81.3484 114.605 81.4304 115.054 81.9988C117.789 85.4434 120.076 89.2205 121.862 93.24Z" fill="#C8BA3B"/>
<path d="M104.553 109.563H93.0008C92.4412 109.563 91.9519 109.2 91.7791 108.67C91.1837 106.832 90.3028 105.099 89.1687 103.534C88.7761 102.995 88.8787 102.239 89.3914 101.812L98.6345 94.0508C101.963 98.4277 104.098 103.757 104.553 109.563Z" fill="#F2E85A"/>
<path d="M119.379 109.562H124.676C125.445 109.562 126.044 108.891 125.953 108.128C124.785 98.322 120.892 89.3524 115.055 81.9957C114.949 81.8611 114.816 81.7492 114.665 81.6667C114.514 81.5842 114.349 81.5327 114.178 81.5154C114.007 81.498 113.834 81.5151 113.67 81.5656C113.506 81.6161 113.353 81.699 113.221 81.8094L89.3939 101.809C88.8827 102.238 88.7799 102.992 89.1719 103.532C90.3063 105.097 91.1872 106.83 91.7822 108.668C91.8649 108.927 92.0276 109.153 92.247 109.314C92.4664 109.474 92.7311 109.561 93.003 109.562H111.311M78.9766 63.8949V95.5604C78.9771 95.8326 79.0642 96.0976 79.2251 96.3171C79.3861 96.5366 79.6127 96.6992 79.8722 96.7815C80.4438 96.9648 81.0061 97.1761 81.557 97.4146C81.7747 97.5086 82.0142 97.5401 82.2488 97.5055C82.4834 97.471 82.7037 97.3719 82.8851 97.2192L107.692 76.3971C108.302 75.8852 108.307 74.9442 107.697 74.4324C100.131 68.0808 90.7343 63.8413 80.4115 62.6184C79.648 62.5279 78.9766 63.1265 78.9766 63.8949Z" stroke="#004C56" stroke-width="2.92969" stroke-miterlimit="10" stroke-linecap="round" stroke-linejoin="round"/>
<path d="M71.2769 63.8949V95.5604C71.2764 95.8326 71.1893 96.0976 71.0283 96.3171C70.8674 96.5366 70.6408 96.6992 70.3813 96.7815C69.8097 96.9648 69.2474 97.1761 68.6965 97.4146C68.4788 97.5086 68.2393 97.5401 68.0047 97.5055C67.7701 97.471 67.5498 97.3719 67.3684 97.2192L42.561 76.3971C41.9513 75.8852 41.947 74.9442 42.5566 74.4324C50.1225 68.0808 59.5192 63.8413 69.842 62.6184C70.6055 62.5279 71.2769 63.1265 71.2769 63.8949Z" fill="#00ACB4"/>
<path d="M71.2783 82.6289V95.5605C71.2783 96.1201 70.915 96.6094 70.3818 96.7822C69.8103 96.9656 69.2481 97.1768 68.6973 97.415C68.2549 97.6084 67.7393 97.5293 67.3701 97.2187L57.0547 88.5615C61.0918 85.4268 65.9609 83.3206 71.2783 82.6289Z" fill="#82EEFD"/>
<path d="M24.2982 108.131C25.4665 98.3249 29.3586 89.3554 35.1957 81.9986C35.3025 81.864 35.4352 81.7521 35.586 81.6696C35.7367 81.5871 35.9024 81.5357 36.0734 81.5183C36.2444 81.5009 36.4171 81.518 36.5813 81.5685C36.7456 81.619 36.898 81.7019 37.0297 81.8123L60.8572 101.812C61.3684 102.241 61.4712 102.995 61.0792 103.535C59.9448 105.099 59.0639 106.832 58.4689 108.67C58.3862 108.93 58.2235 109.156 58.0041 109.316C57.7847 109.477 57.52 109.564 57.2481 109.565H25.5746C24.8065 109.565 24.2074 108.894 24.2982 108.131Z" fill="#01CBD4"/>
<path d="M61.083 103.534C59.9489 105.099 59.068 106.832 58.4727 108.67C58.3896 108.929 58.2266 109.155 58.0071 109.315C57.7876 109.476 57.5229 109.563 57.251 109.563H45.6992C46.1533 103.757 48.2891 98.4277 51.6172 94.0508L60.8604 101.812C61.373 102.239 61.4756 102.995 61.083 103.534Z" fill="#82E8FF"/>
<path d="M53.3715 85.4726L67.3661 97.2192C67.5475 97.3719 67.7679 97.471 68.0025 97.5055C68.2371 97.54 68.4766 97.5086 68.6944 97.4146C69.2452 97.176 69.8076 96.9647 70.3792 96.7815C70.6387 96.6992 70.8653 96.5366 71.0263 96.3171C71.1872 96.0976 71.2743 95.8326 71.2748 95.5604V63.8949C71.2748 63.1265 70.6034 62.5279 69.8402 62.6184C59.5174 63.8413 50.1207 68.0808 42.5548 74.4324C41.9452 74.9442 41.9493 75.8852 42.5592 76.3971L47.1805 80.276M24.2982 108.129C25.4665 98.3223 29.3586 89.3527 35.1957 81.996C35.3025 81.8614 35.4352 81.7495 35.586 81.667C35.7367 81.5845 35.9024 81.533 36.0734 81.5157C36.2444 81.4983 36.4171 81.5154 36.5813 81.5659C36.7456 81.6164 36.898 81.6993 37.0297 81.8097L60.8572 101.809C61.3684 102.238 61.4712 102.992 61.0792 103.532C59.9448 105.097 59.0639 106.83 58.4689 108.668C58.3862 108.927 58.2235 109.153 58.0041 109.314C57.7847 109.474 57.52 109.561 57.2481 109.562H25.5746C24.8065 109.562 24.2074 108.891 24.2982 108.129Z" stroke="#004C56" stroke-width="2.92969" stroke-miterlimit="10" stroke-linecap="round" stroke-linejoin="round"/>
<path d="M15.8805 114.959C15.8805 82.2382 42.4059 55.7128 75.1264 55.7128C107.847 55.7128 134.372 82.2382 134.372 114.959M11.1602 115.117H15.5641M134.689 115.117H139.093M131.097 94.9393L135.235 93.4331M120.754 77.0248L124.127 74.1941M104.908 63.7284L107.109 59.9146M86.2328 52.3164L85.4778 56.614M64.7749 56.614L64.0199 52.3164M45.3452 63.7284L43.1433 59.9146M29.4988 77.0248L26.1253 74.1941M19.1559 94.9393L15.0177 93.4331" stroke="#004C56" stroke-width="2.92969" stroke-miterlimit="10" stroke-linecap="round" stroke-linejoin="round"/>
<path d="M81.222 114.96H69.0312V75.5201C69.0312 75.1688 69.1708 74.8318 69.4193 74.5833C69.6677 74.3349 70.0047 74.1953 70.3561 74.1953H79.8975C80.2488 74.1953 80.5858 74.3349 80.8342 74.5833C81.0827 74.8318 81.2223 75.1688 81.2223 75.5201V114.96H81.222Z" fill="#82E8FF"/>
<path d="M75.125 80.0664V106.588" stroke="#D1DDFF" stroke-width="2.92969" stroke-miterlimit="10" stroke-linecap="round" stroke-linejoin="round"/>
<path d="M81.222 114.96H69.0312V75.5201C69.0312 75.1688 69.1708 74.8318 69.4193 74.5833C69.6677 74.3349 70.0047 74.1953 70.3561 74.1953H79.8975C80.2488 74.1953 80.5858 74.3349 80.8342 74.5833C81.0827 74.8318 81.2223 75.1688 81.2223 75.5201V114.96H81.222Z" stroke="#004C56" stroke-width="2.92969" stroke-miterlimit="10" stroke-linecap="round" stroke-linejoin="round"/>
<path d="M75.1249 123.328C79.7481 123.328 83.4959 119.58 83.4959 114.957C83.4959 110.334 79.7481 106.586 75.1249 106.586C70.5017 106.586 66.7539 110.334 66.7539 114.957C66.7539 119.58 70.5017 123.328 75.1249 123.328Z" fill="#82EEFD"/>
<path d="M75.1257 118.458C77.0591 118.458 78.6264 116.891 78.6264 114.958C78.6264 113.024 77.0591 111.457 75.1257 111.457C73.1923 111.457 71.625 113.024 71.625 114.958C71.625 116.891 73.1923 118.458 75.1257 118.458Z" fill="#9EFDFD"/>
<path d="M75.1249 123.328C79.7481 123.328 83.4959 119.58 83.4959 114.957C83.4959 110.334 79.7481 106.586 75.1249 106.586C70.5017 106.586 66.7539 110.334 66.7539 114.957C66.7539 119.58 70.5017 123.328 75.1249 123.328Z" stroke="#004C56" stroke-width="2.92969" stroke-miterlimit="10" stroke-linecap="round" stroke-linejoin="round"/>
<path d="M134.006 69.2881C134.006 79.1494 126.011 87.1445 116.149 87.1445C106.288 87.1445 98.293 79.1494 98.293 69.2881V69.2852L110.507 55.8086H122.029L134.006 69.2881Z" fill="#FFF066"/>
<path d="M116.15 51.4258L117.495 56.6585L116.15 59.7256C115.292 59.4824 114.39 59.3535 113.455 59.3535C111.401 59.3535 109.494 59.9775 107.909 61.0439L104.259 60.3555L103.523 56.6582C106.752 53.4268 111.217 51.4258 116.15 51.4258Z" fill="#EBDA3B"/>
<path d="M134.005 69.2871H124.229C123.766 69.2871 123.391 68.9268 123.353 68.4668C123.212 66.7266 122.62 65.1123 121.691 63.7412L123.722 58.459L128.775 56.6602C132.007 59.8916 134.005 64.3564 134.005 69.2871Z" fill="#F2E85A"/>
<path d="M107.904 61.0456C105.473 62.6883 103.806 65.3754 103.552 68.4636C103.514 68.9259 103.139 69.2871 102.676 69.2871H98.2891C98.2891 64.3594 100.287 59.8945 103.519 56.6602L107.904 61.0456Z" fill="#EBDA3B"/>
<path d="M128.775 56.6582L121.691 63.7422C120.379 61.7877 118.414 60.3639 116.148 59.7256V51.4258C121.082 51.4258 125.547 53.4268 128.775 56.6582Z" fill="#FFD7A7"/>
<path d="M116.146 87.1437C126.008 87.1437 134.003 79.1489 134.003 69.2867C134.003 59.4246 126.008 51.4297 116.146 51.4297C106.284 51.4297 98.2891 59.4246 98.2891 69.2867C98.2891 79.1489 106.284 87.1437 116.146 87.1437Z" stroke="#004C56" stroke-width="2.92969" stroke-miterlimit="10" stroke-linecap="round" stroke-linejoin="round"/>
<path d="M116.148 69.2847L116.149 56.6562" stroke="white" stroke-width="2.92969" stroke-miterlimit="10" stroke-linecap="round" stroke-linejoin="round"/>
<path d="M116.149 73.4348C118.44 73.4348 120.298 71.5772 120.298 69.2857C120.298 66.9943 118.44 65.1367 116.149 65.1367C113.858 65.1367 112 66.9943 112 69.2857C112 71.5772 113.858 73.4348 116.149 73.4348Z" fill="#9EFDFD"/>
<path d="M116.149 71.0324C117.114 71.0324 117.896 70.2504 117.896 69.2857C117.896 68.3211 117.114 67.5391 116.149 67.5391C115.184 67.5391 114.402 68.3211 114.402 69.2857C114.402 70.2504 115.184 71.0324 116.149 71.0324Z" fill="white"/>
<path d="M110.266 78.0156H122.03" stroke="#00ACB4" stroke-width="2.92969" stroke-miterlimit="10" stroke-linecap="round" stroke-linejoin="round"/>
<path d="M107.906 69.2695V69.3032" stroke="white" stroke-width="2.92969" stroke-miterlimit="10" stroke-linecap="round" stroke-linejoin="round"/>
<path d="M25.3945 117.848H43.0307M25.3945 124.012H34.2126M124.854 117.848H107.218M124.854 124.012H116.036" stroke="#004C56" stroke-width="2.92969" stroke-miterlimit="10" stroke-linecap="round" stroke-linejoin="round"/>
<path d="M119.188 31.227L110.817 26.4709C109.058 25.4716 106.823 26.0875 105.824 27.8458C104.825 29.6042 105.44 31.8399 107.199 32.8389L107.9 33.2371C97.9026 35.6224 86.3663 36.9103 74.6203 36.9103C62.8357 36.9103 51.2619 35.6139 41.2418 33.2133L41.901 32.8389C43.6594 31.8399 44.2752 29.6042 43.2759 27.8458C42.2769 26.0875 40.0415 25.4716 38.2828 26.4709L29.9118 31.227C29.4936 31.4645 29.1263 31.7821 28.8309 32.1615C28.5354 32.541 28.3177 32.975 28.19 33.4387C28.0623 33.9024 28.0272 34.3867 28.0868 34.8639C28.1463 35.3411 28.2993 35.802 28.5369 36.2201L33.293 44.5911C33.5304 45.0094 33.8479 45.3768 34.2274 45.6723C34.6068 45.9679 35.0408 46.1857 35.5046 46.3134C35.9683 46.4411 36.4526 46.4761 36.9299 46.4165C37.4072 46.3569 37.868 46.2038 38.2861 45.966C40.0445 44.9669 40.6603 42.7313 39.661 40.9729L39.266 40.2777C49.9204 42.8743 61.9787 44.2345 74.6203 44.2345C87.1978 44.2345 99.1975 42.8872 109.812 40.3161L109.439 40.9729C108.44 42.7313 109.056 44.9669 110.814 45.966C111.232 46.2037 111.693 46.3568 112.17 46.4164C112.647 46.4759 113.132 46.4409 113.596 46.3132C114.059 46.1854 114.493 45.9676 114.873 45.6721C115.252 45.3765 115.57 45.0091 115.807 44.5908L120.563 36.2198C121.562 34.4614 120.947 32.226 119.188 31.227Z" fill="#F2E85A"/>
<path d="M119.188 31.227L110.817 26.4709C109.058 25.4716 106.823 26.0875 105.824 27.8458C104.825 29.6042 105.44 31.8399 107.199 32.8389L107.9 33.2371C97.9026 35.6224 86.3663 36.9103 74.6203 36.9103C62.8357 36.9103 51.2619 35.6139 41.2418 33.2133L41.901 32.8389C43.6594 31.8399 44.2752 29.6042 43.2759 27.8458C42.2769 26.0875 40.0415 25.4716 38.2828 26.4709L29.9118 31.227C29.4936 31.4645 29.1263 31.7821 28.8309 32.1615C28.5354 32.541 28.3177 32.975 28.19 33.4387C28.0623 33.9024 28.0272 34.3867 28.0868 34.8639C28.1463 35.3411 28.2993 35.802 28.5369 36.2201L33.293 44.5911C33.5304 45.0094 33.8479 45.3768 34.2274 45.6723C34.6068 45.9679 35.0408 46.1857 35.5046 46.3134C35.9683 46.4411 36.4526 46.4761 36.9299 46.4165C37.4072 46.3569 37.868 46.2038 38.2861 45.966C40.0445 44.9669 40.6603 42.7313 39.661 40.9729L39.266 40.2777C49.9204 42.8743 61.9787 44.2345 74.6203 44.2345C87.1978 44.2345 99.1975 42.8872 109.812 40.3161L109.439 40.9729C108.44 42.7313 109.056 44.9669 110.814 45.966C111.232 46.2037 111.693 46.3568 112.17 46.4164C112.647 46.4759 113.132 46.4409 113.596 46.3132C114.059 46.1854 114.493 45.9676 114.873 45.6721C115.252 45.3765 115.57 45.0091 115.807 44.5908L120.563 36.2198C121.562 34.4614 120.947 32.226 119.188 31.227Z" stroke="#004C56" stroke-width="2.92969" stroke-miterlimit="10" stroke-linecap="round" stroke-linejoin="round"/>
<path d="M134.004 43.7969C135.622 43.7969 136.934 42.4852 136.934 40.8672C136.934 39.2492 135.622 37.9375 134.004 37.9375C132.386 37.9375 131.074 39.2492 131.074 40.8672C131.074 42.4852 132.386 43.7969 134.004 43.7969Z" stroke="#82EEFD" stroke-width="2.92969" stroke-miterlimit="10" stroke-linecap="round" stroke-linejoin="round"/>
<path d="M40.6602 15.9805C42.2782 15.9805 43.5898 14.6688 43.5898 13.0508C43.5898 11.4328 42.2782 10.1211 40.6602 10.1211C39.0421 10.1211 37.7305 11.4328 37.7305 13.0508C37.7305 14.6688 39.0421 15.9805 40.6602 15.9805Z" stroke="#01CBD4" stroke-width="2.92969" stroke-miterlimit="10" stroke-linecap="round" stroke-linejoin="round"/>
<path d="M57.0527 27.0273C58.7517 27.0273 60.1289 25.6501 60.1289 23.9512C60.1289 22.2522 58.7517 20.875 57.0527 20.875C55.3538 20.875 53.9766 22.2522 53.9766 23.9512C53.9766 25.6501 55.3538 27.0273 57.0527 27.0273Z" stroke="#F2E85A" stroke-width="2.92969" stroke-miterlimit="10" stroke-linecap="round" stroke-linejoin="round"/>
<path d="M53.9746 130.523C55.6735 130.523 57.0508 129.146 57.0508 127.447C57.0508 125.748 55.6735 124.371 53.9746 124.371C52.2757 124.371 50.8984 125.748 50.8984 127.447C50.8984 129.146 52.2757 130.523 53.9746 130.523Z" stroke="#F2E85A" stroke-width="2.92969" stroke-miterlimit="10" stroke-linecap="round" stroke-linejoin="round"/>
<path d="M103.1 136.512C104.799 136.512 106.176 135.134 106.176 133.436C106.176 131.737 104.799 130.359 103.1 130.359C101.401 130.359 100.023 131.737 100.023 133.436C100.023 135.134 101.401 136.512 103.1 136.512Z" stroke="#01CBD4" stroke-width="2.92969" stroke-miterlimit="10" stroke-linecap="round" stroke-linejoin="round"/>
</svg>
