<svg width="120" height="120" viewBox="0 0 120 120" fill="none" xmlns="http://www.w3.org/2000/svg">
<mask id="mask0_42_4541" style="mask-type:alpha" maskUnits="userSpaceOnUse" x="0" y="0" width="120" height="120">
<rect width="120" height="120" fill="#D9D9D9"/>
</mask>
<g mask="url(#mask0_42_4541)">
</g>
<g clip-path="url(#clip0_42_4541)">
<path d="M80 64C80 75.046 71.046 84 60 84C48.954 84 40 75.046 40 64C40 62.6 40.12 61.2 40.36 59.82C42.58 47.02 54.24 35.82 58.46 30.72C58.6477 30.4935 58.883 30.3112 59.1492 30.1861C59.4154 30.061 59.7059 29.9961 60 29.9961C60.2941 29.9961 60.5846 30.061 60.8508 30.1861C61.117 30.3112 61.3523 30.4935 61.54 30.72C65.76 35.82 77.42 47.02 79.64 59.82C79.88 61.2 80 62.6 80 64Z" fill="#00AEEF"/>
<path d="M61.538 30.7254C61.3503 30.4996 61.1152 30.3179 60.8494 30.1932C60.5836 30.0685 60.2936 30.0039 60 30.0039C59.7064 30.0039 59.4164 30.0685 59.1506 30.1932C58.8848 30.3179 58.6497 30.4996 58.462 30.7254C58.048 31.2254 57.542 31.8034 57 32.4154C62.574 38.7234 74 50.7834 74 64.0014C73.9972 68.7826 72.2805 73.4043 69.1614 77.028C66.0423 80.6517 61.7275 83.0371 57 83.7514C59.8493 84.2084 62.7639 84.0389 65.541 83.2546C68.3181 82.4703 70.8908 81.0902 73.0801 79.2102C75.2694 77.3303 77.0226 74.9957 78.2177 72.3691C79.4128 69.7425 80.021 66.887 80 64.0014C80 49.4994 66.222 36.3674 61.538 30.7254Z" fill="#034EA2"/>
<path d="M60 78C60.5304 78 61.0391 77.7893 61.4142 77.4142C61.7893 77.0391 62 76.5304 62 76C62 75.4696 61.7893 74.9609 61.4142 74.5858C61.0391 74.2107 60.5304 74 60 74C57.3488 73.9968 54.8071 72.9422 52.9324 71.0676C51.0578 69.1929 50.0032 66.6512 50 64C50 63.4696 49.7893 62.9609 49.4142 62.5858C49.0391 62.2107 48.5304 62 48 62C47.4696 62 46.9609 62.2107 46.5858 62.5858C46.2107 62.9609 46 63.4696 46 64C46.0042 67.7117 47.4806 71.2702 50.1052 73.8948C52.7298 76.5194 56.2883 77.9958 60 78Z" fill="#F5F5F5"/>
<path d="M81.318 58.1284C78.944 47.3564 70.718 38.0704 65.454 32.1684C64.53 31.1284 63.714 30.2164 63.076 29.4464C62.6893 29.013 62.2154 28.6661 61.6853 28.4286C61.1552 28.1911 60.5809 28.0684 60 28.0684C59.4191 28.0684 58.8448 28.1911 58.3147 28.4286C57.7846 28.6661 57.3107 29.013 56.924 29.4464C56.286 30.2164 55.47 31.1284 54.546 32.1684C49.292 38.0704 41.056 47.3564 38.682 58.1284C15.148 62.8224 0 74.4664 0 88.0304C0 105.958 26.356 120 60 120C93.644 120 120 105.958 120 88.0304C120 74.4664 104.852 62.8224 81.318 58.1284ZM57.534 34.8284C58.494 33.7504 59.334 32.8004 59.998 32.0004C60.662 32.8004 61.506 33.7504 62.466 34.8284C68.276 41.3544 78 52.2784 78 64.0004C78 68.7743 76.1036 73.3527 72.7279 76.7284C69.3523 80.104 64.7739 82.0004 60 82.0004C55.2261 82.0004 50.6477 80.104 47.2721 76.7284C43.8964 73.3527 42 68.7743 42 64.0004C42 52.2784 51.724 41.3544 57.534 34.8284ZM60 116C29.122 116 4 103.454 4 88.0304C4 76.8904 17.6 66.7504 38.08 62.3384C38.044 62.8904 38 63.4424 38 64.0004C38.002 64.7944 38.046 65.5864 38.134 66.3764C21.972 70.0744 12 77.5024 12 86.0004C12 91.3404 15.818 96.2484 23.042 100.2C23.2729 100.334 23.5282 100.419 23.7927 100.452C24.0572 100.486 24.3257 100.466 24.5824 100.393C24.8391 100.321 25.0787 100.199 25.2872 100.032C25.4958 99.8663 25.669 99.6602 25.7968 99.4262C25.9245 99.1922 26.0042 98.935 26.0311 98.6698C26.058 98.4046 26.0316 98.1366 25.9534 97.8817C25.8753 97.6268 25.747 97.3901 25.576 97.1856C25.4051 96.981 25.1949 96.8126 24.958 96.6904C19.182 93.5284 16 89.7344 16 86.0004C16 79.6804 25.142 73.4804 38.928 70.2944C39.322 71.6004 39.836 72.8664 40.466 74.0764C31.238 76.4424 26 80.3264 26 84.9204C26 93.4164 43.518 98.0004 60 98.0004C64.802 98.0204 69.598 97.6364 74.336 96.8524C74.859 96.7633 75.3252 96.4701 75.632 96.0373C75.9388 95.6044 76.0611 95.0674 75.972 94.5444C75.8829 94.0214 75.5897 93.5552 75.1568 93.2484C74.724 92.9416 74.187 92.8193 73.664 92.9084C69.148 93.6544 64.5772 94.0197 60 94.0004C41.412 94.0004 30 88.7124 30 84.9204C30 82.7764 34.014 79.6484 42.764 77.6324C44.8166 80.2405 47.4343 82.3487 50.4199 83.7983C53.4055 85.2479 56.6811 86.001 60 86.001C63.3189 86.001 66.5945 85.2479 69.5801 83.7983C72.5657 82.3487 75.1834 80.2405 77.236 77.6324C85.986 79.6484 90 82.7764 90 84.9204C90 86.4044 88.226 88.1084 85.132 89.5984C84.6763 89.8414 84.3323 90.2512 84.1719 90.7421C84.0116 91.2329 84.0473 91.7668 84.2716 92.2319C84.4959 92.6971 84.8914 93.0574 85.3753 93.2376C85.8593 93.4177 86.3941 93.4037 86.868 93.1984C92.762 90.3644 94 87.1304 94 84.9204C94 80.3204 88.762 76.4424 79.534 74.0764C80.164 72.8664 80.678 71.6004 81.072 70.2944C94.858 73.4804 104 79.6804 104 86.0004C104 95.7564 83.85 104 60 104C52.0814 104.049 44.1891 103.084 36.516 101.126C36.0033 100.99 35.4573 101.062 34.998 101.328C34.5388 101.593 34.2039 102.031 34.067 102.543C33.9301 103.056 34.0026 103.602 34.2683 104.061C34.534 104.521 34.9713 104.856 35.484 104.992C43.494 107.038 51.7331 108.049 60 108C86.916 108 108 98.3364 108 86.0004C108 77.5024 98.028 70.0744 81.866 66.3764C81.954 65.5864 81.998 64.7944 82 64.0004C82 63.4424 81.956 62.8904 81.92 62.3384C102.4 66.7504 116 76.8904 116 88.0304C116 103.454 90.878 116 60 116Z" fill="#6CB57C"/>
<path d="M119.116 12.0005C116.769 10.2617 113.958 9.26087 111.04 9.12552C108.122 8.99018 105.23 9.72644 102.732 11.2405C102.04 8.40345 100.521 5.836 98.3666 3.86401C96.2127 1.89202 93.5214 0.604382 90.6344 0.164516C90.1944 0.124516 89.7524 0.230516 89.3764 0.464516C87.0004 2.16272 85.1827 4.52883 84.1542 7.26231C83.1258 9.99578 82.933 12.9733 83.6004 15.8165C80.6883 15.5975 77.7767 16.2482 75.2348 17.6859C72.6929 19.1237 70.6351 21.2838 69.3224 23.8925C69.1464 24.3005 69.1124 24.7525 69.2204 25.1825C70.1005 27.9652 71.7867 30.424 74.0653 32.2476C76.344 34.0712 79.1125 35.1776 82.0204 35.4265C80.9101 38.1283 80.6293 41.0995 81.2138 43.9614C81.7983 46.8233 83.2216 49.4465 85.3024 51.4965C85.6364 51.79 86.0586 51.9638 86.5024 51.9905H86.9024C89.7517 51.9351 92.5239 51.0554 94.8838 49.4578C97.2438 47.8603 99.0904 45.6133 100.2 42.9885C102.893 45.2112 106.263 46.4493 109.754 46.4985C112.102 46.5101 114.416 45.9383 116.488 44.8345C116.868 44.6098 117.163 44.266 117.326 43.8565C118.259 41.0879 118.346 38.1041 117.576 35.2859C116.805 32.4678 115.212 29.9432 113 28.0345C115.485 26.5007 117.457 24.2635 118.668 21.6068C119.878 18.9501 120.273 15.9936 119.8 13.1125C119.703 12.6758 119.462 12.2842 119.116 12.0005ZM90.9504 4.27652C93.0066 4.80559 94.8676 5.91411 96.3121 7.47025C97.7565 9.02638 98.7237 10.9646 99.0984 13.0545C99.2322 13.6044 99.3311 14.1622 99.3944 14.7245C99.6318 16.2522 99.5405 17.8129 99.1266 19.3025C98.7127 20.7921 97.9858 22.1762 96.9944 23.3625C96.0085 21.6516 94.6901 20.1552 93.1169 18.9616C91.5438 17.768 89.7477 16.9013 87.8344 16.4125C87.7744 16.2125 87.7004 16.0125 87.6484 15.7905C87.0338 13.757 87.0183 11.5894 87.604 9.54729C88.1896 7.50521 89.3515 5.67523 90.9504 4.27652ZM73.3224 24.8625C74.4643 23.0712 76.0962 21.6452 78.0244 20.7536C79.9525 19.862 82.096 19.5423 84.2004 19.8325C84.8004 19.8805 85.3764 19.9625 85.8744 20.0485C87.395 20.2995 88.8454 20.8694 90.1301 21.7209C91.4147 22.5723 92.5047 23.6859 93.3284 24.9885C91.3947 25.3949 89.5629 26.1874 87.9428 27.3188C86.3228 28.4502 84.9478 29.897 83.9004 31.5725C83.6864 31.5725 83.4844 31.5725 83.2644 31.5605C81.1389 31.517 79.071 30.8622 77.3079 29.6744C75.5448 28.4865 74.1611 26.816 73.3224 24.8625ZM96.8904 40.6125C96.1945 42.6182 94.9346 44.3804 93.2619 45.6877C91.5892 46.995 89.5748 47.7918 87.4604 47.9825C86.1037 46.3458 85.2471 44.3529 84.9932 42.2422C84.7392 40.1315 85.0986 37.9923 86.0284 36.0805C86.239 35.5565 86.4835 35.0467 86.7604 34.5545C87.4676 33.1842 88.457 31.9791 89.6636 31.0187C90.8701 30.0583 92.2663 29.3644 93.7604 28.9825C93.5442 30.9502 93.7296 32.9412 94.3054 34.8351C94.8812 36.729 95.8355 38.4863 97.1104 40.0005C97.0344 40.2005 96.9804 40.4005 96.8904 40.6125ZM113.806 41.6945C111.831 42.4757 109.672 42.6721 107.588 42.2604C105.504 41.8487 103.583 40.8462 102.052 39.3725C101.627 39.0052 101.221 38.6167 100.834 38.2085C99.7451 37.1115 98.9022 35.7949 98.3618 34.3464C97.8214 32.898 97.5959 31.351 97.7004 29.8085C99.5875 30.6562 101.632 31.0977 103.7 31.1045C105.575 31.0858 107.43 30.7211 109.172 30.0285C109.352 30.1705 109.526 30.2865 109.708 30.4445C111.402 31.7262 112.689 33.4698 113.415 35.4656C114.141 37.4614 114.275 39.6244 113.8 41.6945H113.806ZM110.132 25.1485C109.648 25.4451 109.144 25.709 108.624 25.9385C107.251 26.6314 105.747 27.0252 104.21 27.0942C102.674 27.1631 101.14 26.9056 99.7104 26.3385C101.039 24.8771 102.057 23.1608 102.702 21.2939C103.347 19.427 103.606 17.4485 103.462 15.4785C103.644 15.3565 103.806 15.2305 103.996 15.1145C105.74 13.8981 107.798 13.2107 109.923 13.1348C112.048 13.0589 114.15 13.5977 115.976 14.6865C116.107 16.807 115.626 18.9204 114.59 20.7752C113.554 22.63 112.007 24.148 110.132 25.1485ZM43.9384 34.2725C44.0477 33.8429 44.0111 33.3891 43.8344 32.9825C42.9072 31.1008 41.464 29.5215 39.6732 28.4291C37.8824 27.3366 35.8178 26.7759 33.7204 26.8125C34.0741 24.7451 33.8351 22.6198 33.0309 20.6826C32.2267 18.7454 30.8903 17.0756 29.1764 15.8665C28.8021 15.6293 28.3596 15.523 27.9184 15.5645C25.843 15.8695 23.8964 16.7559 22.3037 18.121C20.711 19.4861 19.5373 21.2742 18.9184 23.2785C17.0641 22.3028 14.971 21.8732 12.8823 22.0396C10.7935 22.2059 8.79485 22.9615 7.1184 24.2185C6.77691 24.5014 6.53912 24.8898 6.4424 25.3225C6.09314 27.3897 6.33579 29.5135 7.14233 31.4487C7.94887 33.3838 9.28639 35.0513 11.0004 36.2585C9.4997 37.7235 8.44515 39.584 7.95911 41.6241C7.47307 43.6642 7.57546 45.8003 8.2544 47.7845C8.41826 48.194 8.71288 48.5378 9.0924 48.7625C10.6757 49.6091 12.445 50.0477 14.2404 50.0385C16.6375 50.0196 18.9671 49.2432 20.8964 47.8205C21.8035 49.6523 23.1982 51.1985 24.9272 52.2888C26.6563 53.3792 28.6525 53.9714 30.6964 54.0005H31.0084C31.4524 53.9732 31.8747 53.7987 32.2084 53.5045C33.7109 52.0411 34.7674 50.1815 35.2552 48.1416C35.743 46.1018 35.6422 43.9654 34.9644 41.9805C37.0346 41.6721 38.9756 40.7849 40.5633 39.4211C42.1511 38.0573 43.3211 36.2725 43.9384 34.2725ZM22.4244 25.5365C22.6661 24.1815 23.2773 22.9195 24.1906 21.8897C25.104 20.8599 26.2839 20.1023 27.6004 19.7005C28.5938 20.6524 29.3046 21.8605 29.6544 23.1911C30.0042 24.5217 29.9793 25.9232 29.5824 27.2405C29.5684 27.2985 29.5464 27.3505 29.5324 27.4105C27.0175 28.106 24.8297 29.6689 23.3564 31.8225C22.3564 30.2905 21.9564 28.4425 22.2344 26.6325C22.2744 26.2625 22.3384 25.8965 22.4244 25.5365ZM18.0624 27.3605C18.0964 27.3805 18.1244 27.4025 18.1584 27.4245C18.0432 30.0423 18.8674 32.615 20.4824 34.6785C18.7396 35.1622 16.8792 34.9812 15.2624 34.1705L15.1524 34.1245C14.8354 33.9781 14.5269 33.8138 14.2284 33.6325C13.013 32.9839 12.0003 32.0122 11.302 30.8247C10.6036 29.6372 10.2466 28.28 10.2704 26.9025C11.485 26.2523 12.8558 25.951 14.231 26.0318C15.6063 26.1126 16.9324 26.5725 18.0624 27.3605ZM11.7724 45.6005C11.526 44.2435 11.6612 42.8447 12.163 41.5601C12.6648 40.2754 13.5135 39.1553 14.6144 38.3245C14.6464 38.2965 14.6784 38.2765 14.7104 38.2485C15.9547 38.6991 17.2671 38.9325 18.5904 38.9385C19.8644 38.9385 21.1284 38.7205 22.3284 38.2965C22.2484 40.1084 21.4986 41.826 20.2244 43.1165C19.9589 43.3994 19.6771 43.6665 19.3804 43.9165C18.3912 44.8719 17.1568 45.5349 15.814 45.8321C14.4713 46.1294 13.0724 46.0492 11.7724 45.6005ZM30.0124 49.9565C28.6488 49.7705 27.3634 49.2102 26.2989 48.3378C25.2344 47.4654 24.4326 46.3151 23.9824 45.0145L23.9464 44.9085C25.5838 42.8514 26.4303 40.2759 26.3324 37.6485C28.0358 38.2934 29.4415 39.5439 30.2804 41.1605C30.4684 41.4945 30.6344 41.8405 30.7764 42.1985C31.3796 43.4367 31.6275 44.8179 31.4926 46.1886C31.3577 47.5593 30.8453 48.8657 30.0124 49.9625V49.9565ZM33.2324 38.1565H33.1264C31.6693 35.9702 29.4836 34.3721 26.9584 33.6465C28.0816 32.2377 29.6869 31.295 31.4644 31.0005C31.8344 30.9365 32.2324 30.8805 32.6464 30.8465C34.0092 30.6566 35.3979 30.846 36.66 31.394C37.9221 31.9419 39.0087 32.8272 39.8004 33.9525C39.1995 35.1914 38.2684 36.2404 37.1095 36.9839C35.9506 37.7274 34.609 38.1367 33.2324 38.1665V38.1565Z" fill="#6CB57C"/>
</g>
<defs>
<clipPath id="clip0_42_4541">
<rect width="120" height="120" fill="white"/>
</clipPath>
</defs>
</svg>
