<svg width="120" height="120" viewBox="0 0 120 120" fill="none" xmlns="http://www.w3.org/2000/svg">
<mask id="mask0_42_4542" style="mask-type:alpha" maskUnits="userSpaceOnUse" x="0" y="0" width="120" height="120">
<rect width="120" height="120" fill="#D9D9D9"/>
</mask>
<g mask="url(#mask0_42_4542)">
</g>
<g clip-path="url(#clip0_42_4542)">
<path d="M66 15.86V44C66 46.1217 65.1572 48.1566 63.6569 49.6569C62.1566 51.1571 60.1217 52 58 52H56C55.4696 52 54.9609 52.2107 54.5858 52.5858C54.2107 52.9609 54 53.4696 54 54V66L39.14 52.98C38.4015 52.355 37.4675 52.0083 36.5 52H10C8.94885 52.0021 7.90761 51.7966 6.93606 51.3953C5.9645 50.994 5.08175 50.4048 4.33846 49.6616C3.59517 48.9183 3.00598 48.0355 2.60468 47.064C2.20339 46.0924 1.99791 45.0512 2.00002 44V16C2.00002 13.8783 2.84287 11.8434 4.34316 10.3431C5.84345 8.84285 7.87828 8 10 8H58.14C62.48 8 66 11.52 66 15.86Z" fill="#00AEEF"/>
<path d="M58.14 8H52.14C56.48 8 60 11.52 60 15.86V44C60 46.1217 59.1571 48.1566 57.6569 49.6569C56.1566 51.1571 54.1217 52 52 52H50C49.4696 52 48.9609 52.2107 48.5858 52.5858C48.2107 52.9609 48 53.4696 48 54V60.742L54 66V54C54 53.4696 54.2107 52.9609 54.5858 52.5858C54.9609 52.2107 55.4696 52 56 52H58C60.1217 52 62.1566 51.1571 63.6569 49.6569C65.1571 48.1566 66 46.1217 66 44V15.86C66 11.52 62.48 8 58.14 8Z" fill="#003D96"/>
<path d="M6.49 53.346C3.96993 63.029 4.74393 73.2754 8.69 82.47C12.9091 91.5077 19.5945 99.1703 27.9765 104.576C36.3586 109.982 46.0967 112.911 56.07 113.026C75.63 113.026 93.944 101.88 106.334 86C113.734 89.978 114.15 90.4 115.534 90.4C116.101 90.3996 116.662 90.2786 117.178 90.0451C117.695 89.8115 118.156 89.4708 118.531 89.0454C118.906 88.6201 119.187 88.1198 119.354 87.5779C119.521 87.0359 119.571 86.4647 119.5 85.902L114.316 44.4C114.239 43.7832 114.019 43.1928 113.674 42.6757C113.329 42.1587 112.868 41.7292 112.328 41.4213C111.788 41.1134 111.184 40.9357 110.563 40.9021C109.942 40.8686 109.322 40.9801 108.752 41.228L101.736 44.278C94.106 29.5 83.936 18.426 67.838 14.26C67.4614 11.9578 66.28 9.86388 64.504 8.35125C62.728 6.83861 60.4728 6.00541 58.14 6L10 6C7.34881 6.00318 4.80712 7.05776 2.93244 8.93244C1.05776 10.8071 0.00317572 13.3488 0 16L0 44C0.00808863 46.0318 0.632925 48.0132 1.79182 49.6821C2.95072 51.351 4.58905 52.6286 6.49 53.346ZM110.346 44.9L115.536 86.4C106.676 81.636 106.682 81.578 106.122 81.486C105.618 81.408 105.104 81.5222 104.68 81.806C104.514 81.9441 104.353 82.0889 104.198 82.24C92.456 97.96 76.104 107.678 59.334 108.906C40.174 110.338 20.42 98.506 12.334 80.806C8.72193 72.334 8.05574 62.8953 10.442 54H26.974C23.4 71.666 38.018 87.762 54.888 87.762C63.782 87.762 74.948 82.126 82.4 71.058C82.42 71.028 82.42 70.994 82.438 70.964C82.456 70.934 82.484 70.918 82.5 70.888C82.5374 70.7969 82.5662 70.7025 82.586 70.606C82.6397 70.4822 82.6793 70.3527 82.704 70.22C82.718 69.968 82.704 69.714 82.666 69.464C82.376 68.294 82.212 68.464 70.574 62.192L110.346 44.9ZM56 54H58C60.6512 53.9968 63.1929 52.9422 65.0676 51.0676C66.9422 49.1929 67.9968 46.6512 68 44V36.76C75.2 40.146 78.978 45.336 82.856 52.49L68.98 58.524C68.2914 58.8231 67.7009 59.31 67.276 59.9289C66.8511 60.5478 66.609 61.2738 66.5773 62.0238C66.5455 62.7739 66.7256 63.5177 67.0967 64.1703C67.4678 64.8229 68.0151 65.3578 68.676 65.714L77.766 70.61C73.2439 76.8368 66.7092 81.3098 59.268 83.272C50.812 85.238 40.942 81.272 35.268 73.624C33.1757 70.8592 31.7166 67.6683 30.994 64.2772C30.2713 60.8861 30.3027 57.3776 31.086 54C36.872 54 37.062 53.836 37.814 54.494C53.876 68.548 52.936 68 54 68C54.5304 68 55.0391 67.7893 55.4142 67.4142C55.7893 67.0391 56 66.5304 56 66V54ZM98.06 45.88L86.536 50.892C81.85 42.2 77.112 36.076 68 32.4V18.494C79.262 21.748 89.272 28.972 98.06 45.88ZM4 16C4 14.4087 4.63214 12.8826 5.75736 11.7574C6.88258 10.6321 8.4087 10 10 10H58.14C58.92 10.0049 59.6913 10.1645 60.4092 10.4695C61.1271 10.7745 61.7773 11.2189 62.3223 11.7769C62.8673 12.3349 63.2962 12.9955 63.5842 13.7204C63.8722 14.4453 64.0135 15.2201 64 16V44C64 45.5913 63.3679 47.1174 62.2426 48.2426C61.1174 49.3679 59.5913 50 58 50H56C54.9391 50 53.9217 50.4214 53.1716 51.1716C52.4214 51.9217 52 52.9391 52 54V61.6L40.448 51.492C39.3556 50.5325 37.952 50.0023 36.498 50C7.952 50 9.698 50.03 9.154 49.938C7.72405 49.7343 6.41557 49.0217 5.46879 47.9309C4.52201 46.8401 4.0005 45.4444 4 44V16Z" fill="#6CB57C"/>
<path d="M12 41.9863C12 42.5167 12.2107 43.0254 12.5858 43.4005C12.9609 43.7756 13.4696 43.9863 14 43.9863H30C30.5304 43.9863 31.0391 43.7756 31.4142 43.4005C31.7893 43.0254 32 42.5167 32 41.9863C32 41.4558 31.7893 40.9471 31.4142 40.5721C31.0391 40.197 30.5304 39.9863 30 39.9863H16.558C17.986 37.3003 21.814 34.6563 24.33 32.9263C26.7833 31.5218 28.9038 29.6033 30.546 27.3023C31.4423 25.8947 31.9158 24.2595 31.9105 22.5909C31.9052 20.9222 31.4212 19.2901 30.516 17.8883C25.926 11.1763 12.224 13.0343 12 23.9863C12 24.5167 12.2107 25.0254 12.5858 25.4005C12.9609 25.7755 13.4696 25.9863 14 25.9863C14.5304 25.9863 15.0391 25.7755 15.4142 25.4005C15.7893 25.0254 16 24.5167 16 23.9863C15.9814 22.6362 16.4287 21.3211 17.2666 20.2624C18.1046 19.2037 19.2818 18.4662 20.6 18.1743C21.7788 17.8582 23.0221 17.8752 24.1918 18.2233C25.3616 18.5714 26.4119 19.2371 27.226 20.1463C28.186 21.7143 28.152 23.6983 27.134 25.2303C24.57 29.4463 12 33.8703 12 41.9863Z" fill="white"/>
<path d="M33.9994 35.9998H45.9994V41.9998C45.9994 42.5303 46.2102 43.039 46.5852 43.414C46.9603 43.7891 47.469 43.9998 47.9994 43.9998C48.5299 43.9998 49.0386 43.7891 49.4137 43.414C49.7887 43.039 49.9994 42.5303 49.9994 41.9998V35.9998H53.9994C54.5299 35.9998 55.0386 35.7891 55.4137 35.414C55.7887 35.039 55.9994 34.5303 55.9994 33.9998C55.9994 33.4694 55.7887 32.9607 55.4137 32.5856C55.0386 32.2105 54.5299 31.9998 53.9994 31.9998H49.9994V15.9998C49.9998 15.5827 49.8698 15.1759 49.6275 14.8364C49.3852 14.4969 49.0429 14.2416 48.6484 14.1062C48.2538 13.9709 47.8268 13.9623 47.4272 14.0817C47.0275 14.201 46.6752 14.4423 46.4194 14.7718L32.4194 32.7718C32.1895 33.0675 32.0471 33.4217 32.0086 33.7943C31.9701 34.1668 32.037 34.5427 32.2017 34.8791C32.3663 35.2155 32.6222 35.4989 32.94 35.697C33.2578 35.8952 33.6249 36.0001 33.9994 35.9998ZM45.9994 21.8298V31.9998H38.0874L45.9994 21.8298Z" fill="white"/>
</g>
<defs>
<clipPath id="clip0_42_4542">
<rect width="120" height="120" fill="white"/>
</clipPath>
</defs>
</svg>
