<svg width="147" height="100" viewBox="0 0 147 100" fill="none" xmlns="http://www.w3.org/2000/svg">
<mask id="mask0_534_6093" style="mask-type:alpha" maskUnits="userSpaceOnUse" x="0" y="0" width="147" height="100">
<rect width="147" height="100" fill="#D9D9D9"/>
</mask>
<g mask="url(#mask0_534_6093)">
</g>
<g clip-path="url(#clip0_534_6093)">
<path d="M107.08 42.178L106.754 41.8535" stroke="#25A0E5" stroke-width="4" stroke-linecap="round" stroke-linejoin="round"/>
<path d="M111.724 46.8089L111.398 46.4844" stroke="#25A0E5" stroke-width="4" stroke-linecap="round" stroke-linejoin="round"/>
<path d="M107.08 46.4844L106.754 46.8089" stroke="#25A0E5" stroke-width="4" stroke-linecap="round" stroke-linejoin="round"/>
<path d="M111.724 41.8535L111.398 42.178" stroke="#25A0E5" stroke-width="4" stroke-linecap="round" stroke-linejoin="round"/>
<path d="M114.975 21.0162L116.011 19.9805" stroke="#25A0E5" stroke-width="4" stroke-linecap="round" stroke-linejoin="round"/>
<path d="M120.582 15.4322L121.622 14.3965" stroke="#25A0E5" stroke-width="4" stroke-linecap="round" stroke-linejoin="round"/>
<path d="M121.622 21.0162L120.582 19.9805" stroke="#25A0E5" stroke-width="4" stroke-linecap="round" stroke-linejoin="round"/>
<path d="M116.011 15.4322L114.975 14.3965" stroke="#25A0E5" stroke-width="4" stroke-linecap="round" stroke-linejoin="round"/>
<path d="M35.6264 8.81278L35.3008 8.48828" stroke="#25A0E5" stroke-width="4" stroke-linecap="round" stroke-linejoin="round"/>
<path d="M40.271 13.4417L39.9453 13.1172" stroke="#25A0E5" stroke-width="4" stroke-linecap="round" stroke-linejoin="round"/>
<path d="M35.6264 13.1172L35.3008 13.4417" stroke="#25A0E5" stroke-width="4" stroke-linecap="round" stroke-linejoin="round"/>
<path d="M40.271 8.48828L39.9453 8.81278" stroke="#25A0E5" stroke-width="4" stroke-linecap="round" stroke-linejoin="round"/>
<path d="M25.2559 46.9928L26.2953 45.957" stroke="#25A0E5" stroke-width="4" stroke-linecap="round" stroke-linejoin="round"/>
<path d="M30.8652 41.4069L31.9014 40.3711" stroke="#25A0E5" stroke-width="4" stroke-linecap="round" stroke-linejoin="round"/>
<path d="M31.9014 46.9928L30.8652 45.957" stroke="#25A0E5" stroke-width="4" stroke-linecap="round" stroke-linejoin="round"/>
<path d="M26.2953 41.4069L25.2559 40.3711" stroke="#25A0E5" stroke-width="4" stroke-linecap="round" stroke-linejoin="round"/>
<path d="M24.7266 85.9967C31.5687 86.7112 39.3452 89.5793 46.2762 93.3978C52.2894 96.7083 57.5592 97.9341 63.7468 98.2881C71.3522 98.7208 84.7997 93.3322 95.1386 88.573C115.027 79.415 126.155 73.5217 120.935 69.3754C116.001 65.465 100.635 73.3873 87.5102 78.9365" stroke="#25A0E5" stroke-width="4" stroke-linecap="round" stroke-linejoin="round"/>
<path d="M51.2254 79.2384C58.9492 80.0611 63.8736 82.3097 70.5809 84.7089C77.4429 87.1607 81.8278 88.7274 83.0811 85.1514C84.4166 81.3886 76.308 75.3183 67.6993 71.739C61.4986 69.1561 57.2123 64.3117 51.3866 63.4038C46.6135 62.6597 42.2121 63.607 38.7121 64.5739C35.9818 65.3278 29.6002 67.006 24.6758 66.9994" stroke="#25A0E5" stroke-width="4" stroke-linecap="round" stroke-linejoin="round"/>
<path d="M105.575 64.4727C93.6706 66.8424 83.6211 74.3943 83.6211 74.3943" stroke="#25A0E5" stroke-width="4" stroke-linecap="round" stroke-linejoin="round"/>
<path d="M94.9147 61.291C86.1284 63.9132 78.4375 70.1573 78.4375 70.1573" stroke="#25A0E5" stroke-width="4" stroke-linecap="round" stroke-linejoin="round"/>
<path d="M84.129 59.5195C80.006 61.3419 76.1567 63.7257 72.6914 66.6027" stroke="#25A0E5" stroke-width="4" stroke-linecap="round" stroke-linejoin="round"/>
<path d="M99.6043 31.9029V24.2232C99.6048 23.9431 99.5498 23.6657 99.4425 23.4069C99.3353 23.148 99.1778 22.9127 98.9792 22.7145C98.7806 22.5164 98.5448 22.3591 98.2852 22.2519C98.0255 22.1446 97.7472 22.0894 97.4662 22.0894H93.9792C93.5308 20.5242 92.9062 19.0145 92.1174 17.5891L94.578 15.1406C94.9789 14.7405 95.2041 14.1982 95.2041 13.6328C95.2041 13.0674 94.9789 12.5252 94.578 12.1251L89.1272 6.69392C88.7257 6.29441 88.1815 6.07 87.6141 6.07C87.0467 6.07 86.5024 6.29441 86.1009 6.69392L83.6634 9.12596C82.2289 8.3255 80.7068 7.69206 79.1271 7.23803V3.81607C79.1271 3.53601 79.0717 3.2587 78.964 3C78.8564 2.7413 78.6986 2.50628 78.4997 2.3084C78.3008 2.11052 78.0647 1.95367 77.8049 1.84679C77.5451 1.73992 77.2667 1.68512 76.9857 1.68555H69.2816C69.0006 1.68512 68.7222 1.73992 68.4624 1.84679C68.2026 1.95367 67.9664 2.11052 67.7675 2.3084C67.5687 2.50628 67.4109 2.7413 67.3032 3C67.1955 3.2587 67.1402 3.53601 67.1402 3.81607V7.19542C65.5379 7.64212 63.9926 8.27121 62.5348 9.07027L60.15 6.69392C59.7484 6.29441 59.2042 6.07 58.6367 6.07C58.0693 6.07 57.5251 6.29441 57.1236 6.69392L51.6729 12.1251C51.2719 12.5252 51.0467 13.0674 51.0467 13.6328C51.0467 14.1982 51.2719 14.7405 51.6729 15.1406L54.038 17.4973C53.2248 18.9484 52.5824 20.4882 52.1235 22.0861H48.7847C48.5036 22.0861 48.2253 22.1413 47.9657 22.2486C47.706 22.3558 47.4701 22.5131 47.2715 22.7113C47.073 22.9094 46.9156 23.1447 46.8083 23.4036C46.7011 23.6624 46.6461 23.9398 46.6465 24.2199V31.8963C46.6461 32.1764 46.7011 32.4538 46.8083 32.7126C46.9156 32.9715 47.073 33.2068 47.2715 33.4049C47.4701 33.6031 47.706 33.7604 47.9657 33.8676C48.2253 33.9749 48.5036 34.0301 48.7847 34.0301H52.1498C52.6082 35.6282 53.2506 37.1681 54.0644 38.6189L51.6991 40.9756C51.2982 41.3757 51.073 41.9179 51.073 42.4833C51.073 43.0487 51.2982 43.591 51.6991 43.9911L57.1499 49.4223C57.5514 49.8218 58.0957 50.0462 58.6631 50.0462C59.2305 50.0462 59.7747 49.8218 60.1762 49.4223L62.5611 47.0459C64.0189 47.845 65.5642 48.4741 67.1664 48.9208V52.3001C67.1664 52.5802 67.2219 52.8575 67.3295 53.1162C67.4372 53.3749 67.595 53.6099 67.7939 53.8078C67.9928 54.0057 68.2289 54.1625 68.4887 54.2694C68.7485 54.3763 69.0268 54.4311 69.3079 54.4307H77.012C77.2931 54.4311 77.5714 54.3763 77.8312 54.2694C78.091 54.1625 78.3271 54.0057 78.526 53.8078C78.7249 53.6099 78.8827 53.3749 78.9904 53.1162C79.098 52.8575 79.1535 52.5802 79.1535 52.3001V48.8782C80.7332 48.4242 82.2552 47.7907 83.6896 46.9902L86.1272 49.4223C86.5287 49.8218 87.0729 50.0462 87.6403 50.0462C88.2078 50.0462 88.752 49.8218 89.1536 49.4223L94.6043 43.9911C95.0053 43.591 95.2304 43.0487 95.2304 42.4833C95.2304 41.9179 95.0053 41.3757 94.6043 40.9756L92.1438 38.5271C92.9325 37.1017 93.5571 35.592 94.0056 34.0268H97.4925C98.0539 34.02 98.5899 33.7933 98.9851 33.3959C99.3802 32.9986 99.6027 32.4623 99.6043 31.9029Z" stroke="#25A0E5" stroke-width="4" stroke-linecap="round" stroke-linejoin="round"/>
<path d="M73.1349 12.3711C70.0199 12.3711 66.9747 13.2915 64.3846 15.016C61.7945 16.7404 59.7758 19.1914 58.5837 22.0591C57.3916 24.9268 57.0797 28.0822 57.6874 31.1265C58.2951 34.1708 59.7952 36.9672 61.9979 39.162C64.2006 41.3568 67.007 42.8515 70.0622 43.457C73.1174 44.0626 76.2843 43.7518 79.1622 42.5639C82.0402 41.3761 84.5001 39.3646 86.2308 36.7838C87.9614 34.203 88.8851 31.1688 88.8851 28.0648" stroke="#25A0E5" stroke-width="4" stroke-linecap="round" stroke-linejoin="round"/>
<path d="M87.9612 22.7616C87.1244 20.4473 85.7546 18.3608 83.9619 16.6696C82.1692 14.9784 80.0035 13.7296 77.6387 13.0234" stroke="#25A0E5" stroke-width="4" stroke-linecap="round" stroke-linejoin="round" stroke-dasharray="1.56 18.66"/>
</g>
<defs>
<clipPath id="clip0_534_6093">
<rect width="100.909" height="100" fill="white" transform="translate(23)"/>
</clipPath>
</defs>
</svg>
