<svg width="147" height="100" viewBox="0 0 147 100" fill="none" xmlns="http://www.w3.org/2000/svg">
<mask id="mask0_534_6103" style="mask-type:alpha" maskUnits="userSpaceOnUse" x="0" y="0" width="147" height="100">
<rect width="147" height="100" fill="#D9D9D9"/>
</mask>
<g mask="url(#mask0_534_6103)">
</g>
<g clip-path="url(#clip0_534_6103)">
<path d="M39.4922 92.5098H106.512" stroke="#25A0E5" stroke-width="4" stroke-linecap="round" stroke-linejoin="round"/>
<path d="M82.8558 98.2812H46.25" stroke="#25A0E5" stroke-width="4" stroke-linecap="round" stroke-linejoin="round"/>
<path d="M99.7496 98.2812H90.3496" stroke="#25A0E5" stroke-width="4" stroke-linecap="round" stroke-linejoin="round"/>
<path d="M52.3883 50.3657H47.9061C47.7077 50.3657 47.5174 50.4448 47.3771 50.5857C47.2368 50.7265 47.158 50.9175 47.158 51.1167V55.72C47.1583 55.8985 47.1076 56.0732 47.0119 56.2236C46.9161 56.3739 46.7794 56.4934 46.6179 56.568C46.4564 56.6425 46.277 56.6689 46.101 56.6441C45.925 56.6192 45.7599 56.5441 45.6251 56.4277L39.0415 50.7729C38.7326 50.5111 38.3418 50.3669 37.9376 50.3657H30.516C29.6223 50.3657 28.7374 50.1889 27.9118 49.8455C27.0862 49.502 26.3361 48.9987 25.7043 48.3641C25.0725 47.7295 24.5715 46.9762 24.2298 46.1472C23.8881 45.3182 23.7125 44.4297 23.7129 43.5326V23.0265C23.7125 22.1293 23.8881 21.2408 24.2298 20.4118C24.5715 19.5828 25.0725 18.8295 25.7043 18.1949C26.3361 17.5604 27.0862 17.057 27.9118 16.7136C28.7374 16.3701 29.6223 16.1934 30.516 16.1934H56.0858C57.891 16.1934 59.6222 16.9133 60.8987 18.1947C62.1751 19.4762 62.8922 21.2142 62.8922 23.0265" stroke="#25A0E5" stroke-width="4" stroke-linecap="round" stroke-linejoin="round"/>
<path d="M93.6133 46.9337H96.8652C97.0636 46.9337 97.2539 47.0128 97.3942 47.1537C97.5345 47.2945 97.6134 47.4856 97.6134 47.6848V52.2947C97.6138 52.4732 97.6652 52.6477 97.7614 52.7978C97.8576 52.9479 97.9945 53.0672 98.1561 53.1416C98.3176 53.216 98.4971 53.2425 98.6731 53.2178C98.8491 53.1931 99.0145 53.1184 99.1495 53.0024L105.733 47.3476C106.04 47.0845 106.43 46.9401 106.834 46.9404H115.479C116.373 46.9404 117.258 46.7636 118.084 46.4202C118.91 46.0768 119.66 45.5735 120.292 44.939C120.924 44.3045 121.425 43.5512 121.767 42.7222C122.109 41.8931 122.285 41.0046 122.285 40.1072V19.5812C122.285 17.7689 121.568 16.0309 120.292 14.7494C119.015 13.4679 117.284 12.748 115.479 12.748H89.9091C88.1051 12.7498 86.3756 13.4705 85.1006 14.7518C83.8255 16.033 83.1094 17.7701 83.1094 19.5812V23.9841" stroke="#25A0E5" stroke-width="4" stroke-linecap="round" stroke-linejoin="round"/>
<path d="M32.6855 37.0666V42.4076C32.6855 42.8018 32.8413 43.18 33.1187 43.4591C33.3961 43.7382 33.7725 43.8955 34.1652 43.8964H36.5726C36.9653 43.8955 37.3417 43.7382 37.6191 43.4591C37.8964 43.18 38.0522 42.8018 38.0522 42.4076V30.7609C38.0522 30.3669 37.8963 29.9891 37.6189 29.7105C37.3414 29.4319 36.965 29.2754 36.5726 29.2754H34.1652C33.7728 29.2754 33.3964 29.4319 33.1189 29.7105C32.8414 29.9891 32.6855 30.3669 32.6855 30.7609V31.5286" stroke="#25A0E5" stroke-width="4" stroke-linecap="round" stroke-linejoin="round"/>
<path d="M38.0527 42.3272H50.1759C51.0328 42.3277 51.8616 42.0204 52.5123 41.4608C53.163 40.9012 53.5928 40.1262 53.7238 39.2761L54.6349 33.1674C54.6993 32.7347 54.6702 32.2932 54.5496 31.8728C54.4289 31.4524 54.2194 31.063 53.9355 30.7311C53.6516 30.3992 53.2999 30.1326 52.9042 29.9493C52.5084 29.7661 52.0781 29.6705 51.6423 29.669H47.0371C46.9638 29.6694 46.8914 29.6532 46.8252 29.6214C46.7591 29.5897 46.701 29.5434 46.6552 29.4859C46.6095 29.4284 46.5773 29.3612 46.5611 29.2895C46.5448 29.2177 46.545 29.1432 46.5616 29.0715L47.6256 24.3748C47.6988 23.9927 47.6367 23.597 47.4501 23.2561C47.2635 22.9151 46.9642 22.6502 46.6037 22.5073C46.2433 22.3644 45.8444 22.3524 45.4761 22.4733C45.1078 22.5943 44.7931 22.8406 44.5865 23.1697C43.313 25.3729 41.2615 28.8445 40.5665 29.6924C40.0345 30.3333 39.3628 30.8407 38.5282 30.8407H38.0627" stroke="#25A0E5" stroke-width="4" stroke-linecap="round" stroke-linejoin="round"/>
<path d="M104.656 21.2797L106.348 24.7246C106.446 24.9238 106.591 25.0962 106.77 25.227C106.949 25.3578 107.156 25.4431 107.375 25.4757L111.163 26.0264C111.565 26.0859 111.942 26.2569 112.252 26.5202C112.563 26.7835 112.794 27.1286 112.919 27.5166C113.045 27.9046 113.06 28.3201 112.963 28.7162C112.866 29.1123 112.66 29.4733 112.37 29.7585L109.63 32.429C109.471 32.5844 109.353 32.7762 109.284 32.9879C109.216 33.1995 109.2 33.4247 109.237 33.644L109.902 37.4294C109.971 37.8321 109.926 38.246 109.772 38.6243C109.619 39.0026 109.363 39.3302 109.034 39.5702C108.704 39.8101 108.315 39.9528 107.909 39.9822C107.503 40.0115 107.097 39.9262 106.737 39.7361L103.352 37.9469C103.156 37.845 102.938 37.7918 102.717 37.7918C102.496 37.7918 102.278 37.845 102.082 37.9469L98.697 39.7361C98.3369 39.9262 97.9309 40.0115 97.5251 39.9822C97.1192 39.9528 96.7297 39.8101 96.4004 39.5702C96.0711 39.3302 95.8152 39.0026 95.6616 38.6243C95.5081 38.246 95.463 37.8321 95.5315 37.4294L96.1965 33.644C96.2333 33.4248 96.2169 33.1998 96.1486 32.9882C96.0803 32.7767 95.9621 32.5849 95.8042 32.429L93.0643 29.7585C92.7726 29.4738 92.566 29.1128 92.4682 28.7163C92.3704 28.3198 92.3851 27.9038 92.5108 27.5153C92.6364 27.1268 92.8679 26.7814 93.1791 26.5183C93.4902 26.2551 93.8686 26.0848 94.2713 26.0264L98.0586 25.4757C98.2773 25.4426 98.485 25.357 98.6638 25.2263C98.8427 25.0955 98.9875 24.9234 99.086 24.7246L100.778 21.2797C100.962 20.9224 101.24 20.6228 101.582 20.4136C101.924 20.2044 102.317 20.0937 102.717 20.0938C103.117 20.0937 103.51 20.2044 103.852 20.4136C104.194 20.6228 104.472 20.9224 104.656 21.2797Z" stroke="#25A0E5" stroke-width="4" stroke-linecap="round" stroke-linejoin="round"/>
<path d="M56.6777 88.541V92.51" stroke="#25A0E5" stroke-width="4" stroke-linecap="round" stroke-linejoin="round"/>
<path d="M89.3223 88.541V92.51" stroke="#25A0E5" stroke-width="4" stroke-linecap="round" stroke-linejoin="round"/>
<path d="M78.0024 64.1562C78.0024 67.1772 80.8486 70.4019 80.8486 70.4019C79.876 71.5345 78.6715 72.4432 77.3173 73.0661C75.9631 73.689 74.491 74.0115 73.0015 74.0115C71.5119 74.0115 70.0398 73.689 68.6856 73.0661C67.3315 72.4432 66.127 71.5345 65.1543 70.4019C65.1543 70.4019 68.0006 67.0638 68.0006 64.1562" stroke="#25A0E5" stroke-width="4" stroke-linecap="round" stroke-linejoin="round"/>
<path d="M60.2981 45.7656C59.0678 45.8825 58.303 46.9874 58.4128 48.5963C58.6223 52.0446 60.5175 55.3393 61.7378 55.4028C64.1585 61.7686 69.0763 66.1215 73.0099 66.1215C76.9434 66.1215 81.8612 61.7819 84.2819 55.4028C85.4922 55.3393 87.3908 52.0446 87.6069 48.5963C87.7034 46.9874 86.9419 45.8825 85.7183 45.7656" stroke="#25A0E5" stroke-width="4" stroke-linecap="round" stroke-linejoin="round"/>
<path d="M85.7023 45.7662C89.7954 27.8138 77.2699 28.5849 77.2433 28.5715C68.1824 23.314 55.2047 30.7046 60.2854 45.7662" stroke="#25A0E5" stroke-width="4" stroke-linecap="round" stroke-linejoin="round"/>
<path d="M85.7005 45.7651C84.1003 43.4737 82.7838 40.9953 81.7802 38.3846C81.7802 38.3846 73.8 41.0317 64.3368 36.0078C63.166 39.3308 61.8174 42.588 60.2969 45.7651" stroke="#25A0E5" stroke-width="4" stroke-linecap="round" stroke-linejoin="round"/>
<path d="M99.4446 92.5087V89.9284C99.4446 77.4972 93.812 73.141 80.8242 70.4004" stroke="#25A0E5" stroke-width="4" stroke-linecap="round" stroke-linejoin="round"/>
<path d="M65.1536 70.4004C52.1858 73.141 46.5332 77.4972 46.5332 89.9284V92.5087" stroke="#25A0E5" stroke-width="4" stroke-linecap="round" stroke-linejoin="round"/>
<path d="M115.971 69.129L119.004 67.7938C119.131 67.7352 119.239 67.6412 119.314 67.5228C119.39 67.4045 119.43 67.2668 119.43 67.1262C119.43 66.9856 119.39 66.8479 119.314 66.7296C119.239 66.6112 119.131 66.5171 119.004 66.4586L115.971 65.1233C113.817 64.163 112.095 62.4331 111.14 60.2697L109.793 57.2253C109.735 57.0975 109.641 56.9891 109.523 56.9132C109.405 56.8372 109.268 56.7969 109.128 56.7969C108.988 56.7969 108.851 56.8372 108.733 56.9132C108.615 56.9891 108.521 57.0975 108.463 57.2253L107.133 60.2697C106.178 62.4331 104.456 64.163 102.302 65.1233L99.2659 66.4586C99.1397 66.5181 99.033 66.6125 98.9582 66.7308C98.8834 66.849 98.8438 66.9861 98.8438 67.1262C98.8438 67.2662 98.8834 67.4034 98.9582 67.5216C99.033 67.6398 99.1397 67.7342 99.2659 67.7938L102.302 69.129C104.45 70.0952 106.164 71.8287 107.11 73.9927L108.44 77.0404C108.498 77.1682 108.592 77.2766 108.71 77.3525C108.828 77.4285 108.965 77.4688 109.105 77.4688C109.245 77.4688 109.382 77.4285 109.5 77.3525C109.618 77.2766 109.712 77.1682 109.77 77.0404L111.116 73.9927C112.074 71.8204 113.805 70.0857 115.971 69.129Z" stroke="#25A0E5" stroke-width="4" stroke-linecap="round" stroke-linejoin="round"/>
<path d="M75.3299 9.591L77.2618 8.7331C77.3442 8.69644 77.4142 8.63656 77.4634 8.56071C77.5125 8.48486 77.5387 8.3963 77.5387 8.30581C77.5387 8.21532 77.5125 8.12677 77.4634 8.05093C77.4142 7.97508 77.3442 7.91519 77.2618 7.87854L75.3299 7.0173C73.9598 6.40777 72.8647 5.30831 72.2575 3.93288L71.403 1.99678C71.3665 1.91404 71.3068 1.84373 71.2312 1.79438C71.1557 1.74502 71.0675 1.71875 70.9774 1.71875C70.8872 1.71875 70.799 1.74502 70.7235 1.79438C70.6479 1.84373 70.5882 1.91404 70.5517 1.99678L69.6972 3.93288C69.089 5.30872 67.9926 6.40818 66.6215 7.0173L64.693 7.87854C64.6105 7.91519 64.5405 7.97508 64.4913 8.05093C64.4422 8.12677 64.416 8.21532 64.416 8.30581C64.416 8.3963 64.4422 8.48486 64.4913 8.56071C64.5405 8.63656 64.6105 8.69644 64.693 8.7331L66.6215 9.591C67.9919 10.2012 69.0879 11.3003 69.6972 12.6754L70.5517 14.6149C70.5882 14.6976 70.6479 14.7679 70.7235 14.8173C70.799 14.8666 70.8872 14.8929 70.9774 14.8929C71.0675 14.8929 71.1557 14.8666 71.2312 14.8173C71.3068 14.7679 71.3665 14.6976 71.403 14.6149L72.2575 12.6754C72.8655 11.3005 73.9604 10.2013 75.3299 9.591Z" stroke="#25A0E5" stroke-width="4" stroke-linecap="round" stroke-linejoin="round"/>
<path d="M39.3649 74.1988L41.5861 73.1973C41.6814 73.1554 41.7625 73.0866 41.8195 72.9991C41.8765 72.9117 41.9068 72.8094 41.9068 72.705C41.9068 72.6005 41.8765 72.4982 41.8195 72.4108C41.7625 72.3233 41.6814 72.2545 41.5861 72.2126L39.3649 71.2111C37.7873 70.5064 36.5257 69.2399 35.8237 67.656L34.8262 65.4262C34.7871 65.3254 34.7185 65.2388 34.6295 65.1777C34.5405 65.1167 34.4352 65.084 34.3274 65.084C34.2197 65.084 34.1144 65.1167 34.0254 65.1777C33.9364 65.2388 33.8678 65.3254 33.8287 65.4262L32.8312 67.656C32.1292 69.2399 30.8676 70.5064 29.29 71.2111L27.0688 72.2126C26.9734 72.2545 26.8923 72.3233 26.8354 72.4108C26.7784 72.4982 26.748 72.6005 26.748 72.705C26.748 72.8094 26.7784 72.9117 26.8354 72.9991C26.8923 73.0866 26.9734 73.1554 27.0688 73.1973L29.29 74.1988C30.8676 74.9034 32.1292 76.17 32.8312 77.7539L33.8287 79.9837C33.8678 80.0845 33.9364 80.1711 34.0254 80.2322C34.1144 80.2932 34.2197 80.3259 34.3274 80.3259C34.4352 80.3259 34.5405 80.2932 34.6295 80.2322C34.7185 80.1711 34.7871 80.0845 34.8262 79.9837L35.8237 77.7539C36.5257 76.17 37.7873 74.9034 39.3649 74.1988Z" stroke="#25A0E5" stroke-width="4" stroke-linecap="round" stroke-linejoin="round"/>
</g>
<defs>
<clipPath id="clip0_534_6103">
<rect width="102" height="100" fill="white" transform="translate(22)"/>
</clipPath>
</defs>
</svg>
