<svg width="10" height="15" viewBox="0 0 10 15" fill="none" xmlns="http://www.w3.org/2000/svg">
<path id="Vector" d="M6.4547 7.50279L0.683915 1.95491C0.525015 1.80252 0.437601 1.59876 0.437601 1.38151C0.437601 1.16413 0.525015 0.960499 0.683914 0.807865L1.18958 0.321991C1.34823 0.169116 1.56031 0.0849623 1.7863 0.0849623C2.0123 0.0849622 2.22412 0.169116 2.38289 0.321991L9.25394 6.92721C9.41334 7.08033 9.50062 7.28493 9.5 7.50242C9.50063 7.72089 9.41346 7.92524 9.25394 8.07848L2.38929 14.6773C2.23052 14.8302 2.0187 14.9143 1.79257 14.9143C1.56658 14.9143 1.35475 14.8302 1.19585 14.6773L0.690312 14.1914C0.361352 13.8752 0.361352 13.3604 0.690312 13.0443L6.4547 7.50279Z" fill="#FA5457"/>
</svg>
