<svg width="150" height="150" viewBox="0 0 150 150" fill="none" xmlns="http://www.w3.org/2000/svg">
<g opacity="0.1">
<path d="M54.9168 26.6719C55.3053 26.6719 55.6778 26.5175 55.9526 26.2428C56.2273 25.9681 56.3816 25.5955 56.3816 25.207V21.668C56.3816 21.2795 56.2273 20.9069 55.9526 20.6322C55.6778 20.3575 55.3053 20.2031 54.9168 20.2031C54.5283 20.2031 54.1557 20.3575 53.881 20.6322C53.6062 20.9069 53.4519 21.2795 53.4519 21.668V25.207C53.4519 25.5955 53.6062 25.9681 53.881 26.2428C54.1557 26.5175 54.5283 26.6719 54.9168 26.6719ZM28.9987 35.1735C29.1361 35.3377 29.3079 35.4696 29.502 35.56C29.696 35.6505 29.9076 35.6971 30.1216 35.6968C30.4004 35.6967 30.6734 35.617 30.9085 35.4671C31.1435 35.3172 31.331 35.1034 31.4487 34.8507C31.5665 34.598 31.6097 34.317 31.5733 34.0406C31.5369 33.7642 31.4223 33.5039 31.2431 33.2903L28.9682 30.5789C28.7185 30.2813 28.3608 30.095 27.9737 30.0612C27.5867 30.0273 27.202 30.1486 26.9044 30.3983C26.6068 30.648 26.4205 31.0058 26.3867 31.3928C26.3528 31.7798 26.4741 32.1645 26.7238 32.4621L28.9987 35.1735ZM17.7118 43.9937L20.7768 45.7635C20.9434 45.8599 21.1273 45.9224 21.3181 45.9477C21.5089 45.9729 21.7027 45.9602 21.8886 45.9104C22.0745 45.8606 22.2487 45.7747 22.4014 45.6575C22.554 45.5402 22.682 45.3941 22.7781 45.2273C22.8743 45.0608 22.9368 44.8769 22.9619 44.6861C22.987 44.4954 22.9743 44.3016 22.9245 44.1158C22.8747 43.93 22.7888 43.7558 22.6717 43.6032C22.5546 43.4506 22.4086 43.3225 22.2419 43.2264L19.1769 41.4565C18.841 41.2708 18.4456 41.2243 18.0757 41.327C17.7058 41.4298 17.3911 41.6736 17.1991 42.006C17.0071 42.3384 16.9533 42.7329 17.0492 43.1046C17.145 43.4763 17.383 43.7955 17.7118 43.9937ZM13.1875 57.912L16.6729 58.5267C17.0545 58.5917 17.4463 58.5031 17.7627 58.2801C18.0791 58.0572 18.2944 57.7181 18.3616 57.3369C18.4288 56.9558 18.3424 56.5635 18.1213 56.2458C17.9002 55.9281 17.5623 55.7109 17.1815 55.6415L13.6961 55.0269C13.3145 54.9618 12.9227 55.0504 12.6063 55.2734C12.2898 55.4963 12.0745 55.8354 12.0073 56.2166C11.9401 56.5978 12.0265 56.99 12.2477 57.3077C12.4688 57.6254 12.8067 57.8427 13.1875 57.912ZM96.6458 69.653L93.1606 69.0384C92.9707 69.0038 92.7758 69.0071 92.5871 69.0481C92.3984 69.0891 92.2197 69.167 92.0613 69.2773C91.9028 69.3876 91.7677 69.5281 91.6638 69.6908C91.5598 69.8535 91.4891 70.0351 91.4556 70.2252C91.422 70.4153 91.4264 70.6102 91.4685 70.7987C91.5106 70.9871 91.5894 71.1653 91.7006 71.3232C91.8118 71.481 91.9531 71.6153 92.1164 71.7183C92.2797 71.8214 92.4617 71.8911 92.652 71.9235L96.1372 72.5382C96.5145 72.5935 96.8985 72.4996 97.2077 72.2764C97.5168 72.0532 97.7268 71.7182 97.793 71.3427C97.8592 70.9671 97.7764 70.5806 97.5622 70.2651C97.348 69.9496 97.0192 69.73 96.6458 69.653ZM18.3698 70.2267C18.302 69.8442 18.0853 69.5043 17.7672 69.2815C17.449 69.0587 17.0555 68.9713 16.6729 69.0384L13.1875 69.653C12.9971 69.6855 12.8151 69.7552 12.6518 69.8582C12.4886 69.9613 12.3473 70.0956 12.2361 70.2534C12.1249 70.4112 12.046 70.5895 12.0039 70.7779C11.9619 70.9663 11.9575 71.1612 11.991 71.3513C12.0245 71.5415 12.0953 71.7231 12.1992 71.8858C12.3032 72.0485 12.4383 72.189 12.5967 72.2993C12.7552 72.4096 12.9339 72.4875 13.1225 72.5285C13.3112 72.5695 13.5061 72.5728 13.6961 72.5382L17.1815 71.9235C17.5641 71.8561 17.9042 71.6394 18.1271 71.3212C18.3499 71.003 18.4372 70.6093 18.3698 70.2267ZM91.4634 57.3384C91.531 57.7209 91.7477 58.0609 92.0659 58.2837C92.3841 58.5066 92.7777 58.5939 93.1603 58.5267L96.6455 57.912C96.8358 57.8796 97.0178 57.8098 97.1811 57.7068C97.3444 57.6038 97.4856 57.4695 97.5968 57.3116C97.708 57.1538 97.7869 56.9756 97.829 56.7871C97.871 56.5987 97.8755 56.4038 97.8419 56.2137C97.8084 56.0236 97.7376 55.8419 97.6337 55.6792C97.5297 55.5166 97.3946 55.376 97.2362 55.2657C97.0777 55.1554 96.899 55.0775 96.7104 55.0366C96.5217 54.9956 96.3268 54.9923 96.1369 55.0269L92.6517 55.6415C92.2691 55.709 91.929 55.9256 91.7061 56.2438C91.4833 56.5621 91.396 56.9558 91.4634 57.3384ZM20.7768 81.8016L17.7118 83.5714C17.3753 83.7657 17.1299 84.0857 17.0293 84.4609C16.9288 84.8362 16.9815 85.2361 17.1758 85.5725C17.3701 85.909 17.6901 86.1544 18.0653 86.2549C18.4406 86.3555 18.8405 86.3028 19.1769 86.1085L22.2419 84.3387C22.5784 84.1444 22.8239 83.8244 22.9244 83.4491C23.0249 83.0738 22.9722 82.674 22.7779 82.3375C22.5836 82.0011 22.2637 81.7556 21.8884 81.6551C21.5131 81.5546 21.1133 81.6073 20.7768 81.8016ZM88.3251 45.9598C88.5736 45.9598 88.8256 45.8965 89.0561 45.7632L92.1214 43.9937C92.2881 43.8975 92.4341 43.7695 92.5512 43.6168C92.6683 43.4642 92.7542 43.29 92.804 43.1042C92.8538 42.9184 92.8665 42.7246 92.8414 42.5339C92.8163 42.3432 92.7538 42.1593 92.6576 41.9927C92.5615 41.826 92.4334 41.68 92.2808 41.5628C92.1282 41.4457 91.954 41.3598 91.7682 41.31C91.5824 41.2602 91.3885 41.2475 91.1978 41.2726C91.0071 41.2978 90.8232 41.3603 90.6566 41.4565L87.5913 43.2261C87.3115 43.3872 87.0929 43.6362 86.9693 43.9343C86.8456 44.2325 86.824 44.5632 86.9077 44.8749C86.9914 45.1867 87.1757 45.4621 87.4321 45.6583C87.6884 45.8544 88.0024 45.9604 88.3251 45.9598ZM28.9987 92.3912L26.7238 95.1026C26.5446 95.3162 26.43 95.5765 26.3936 95.8529C26.3572 96.1293 26.4004 96.4103 26.5182 96.663C26.6359 96.9157 26.8234 97.1295 27.0584 97.2794C27.2935 97.4293 27.5665 97.509 27.8453 97.5091C28.0593 97.5094 28.2709 97.4628 28.4649 97.3723C28.659 97.2819 28.8308 97.15 28.9682 96.9858L31.2431 94.2744C31.4928 93.9768 31.614 93.5921 31.5801 93.2051C31.5462 92.8181 31.36 92.4604 31.0624 92.2107C30.915 92.087 30.7448 91.9935 30.5613 91.9356C30.3779 91.8778 30.1848 91.8566 29.9931 91.8734C29.8015 91.8901 29.615 91.9445 29.4444 92.0333C29.2737 92.1222 29.1223 92.2438 28.9987 92.3912ZM79.7116 35.6968C79.9257 35.6971 80.1372 35.6505 80.3312 35.56C80.5253 35.4696 80.6971 35.3377 80.8345 35.1735L83.1097 32.4624C83.3561 32.1644 83.4747 31.7811 83.4397 31.396C83.4046 31.0109 83.2187 30.6554 82.9225 30.4068C82.6263 30.1582 82.2438 30.0369 81.8585 30.0692C81.4732 30.1015 81.1163 30.2848 80.8656 30.5792L78.5904 33.2903C78.4112 33.5039 78.2967 33.7641 78.2602 34.0405C78.2238 34.3169 78.267 34.5979 78.3847 34.8506C78.5024 35.1033 78.6898 35.3171 78.9249 35.467C79.1599 35.6169 79.4328 35.6966 79.7116 35.6968ZM40.5124 104.822C40.813 104.822 41.1064 104.73 41.3526 104.557C41.5989 104.385 41.7861 104.141 41.889 103.858L43.0996 100.533C43.1654 100.352 43.195 100.16 43.1867 99.9676C43.1783 99.7755 43.1321 99.5868 43.0509 99.4125C42.9696 99.2381 42.8547 99.0815 42.7129 98.9516C42.571 98.8216 42.405 98.7209 42.2242 98.6552C42.0434 98.5893 41.8515 98.5597 41.6593 98.5681C41.4671 98.5764 41.2785 98.6226 41.1041 98.7039C40.9298 98.7852 40.7732 98.9 40.6432 99.0419C40.5133 99.1837 40.4126 99.3498 40.3468 99.5306L39.1363 102.856C39.0556 103.078 39.0294 103.315 39.06 103.549C39.0907 103.782 39.1772 104.005 39.3122 104.198C39.4473 104.391 39.6269 104.548 39.8358 104.657C40.0448 104.766 40.2768 104.823 40.5124 104.822ZM67.6093 28.9099C67.7697 28.9686 67.9392 28.9986 68.11 28.9986C68.4107 28.9985 68.704 28.9059 68.9503 28.7335C69.1965 28.561 69.3838 28.317 69.4867 28.0345L70.6972 24.7087C70.7631 24.5279 70.7927 24.336 70.7843 24.1438C70.7759 23.9516 70.7298 23.763 70.6485 23.5886C70.5672 23.4143 70.4524 23.2577 70.3105 23.1277C70.1687 22.9978 70.0026 22.8971 69.8218 22.8313C69.6411 22.7655 69.4491 22.7358 69.2569 22.7442C69.0648 22.7525 68.8761 22.7987 68.7017 22.88C68.5274 22.9613 68.3708 23.0761 68.2408 23.218C68.1109 23.3598 68.0102 23.5259 67.9445 23.7067L66.7339 27.0325C66.6011 27.3976 66.6187 27.8004 66.7829 28.1525C66.947 28.5045 67.2443 28.777 67.6093 28.9099ZM40.3465 28.0342C40.4796 28.3991 40.752 28.6963 41.104 28.8604C41.4561 29.0246 41.8588 29.0422 42.2239 28.9096C42.4047 28.8438 42.5707 28.7431 42.7126 28.6132C42.8544 28.4832 42.9693 28.3266 43.0506 28.1523C43.1319 27.9779 43.178 27.7893 43.1864 27.5971C43.1947 27.4049 43.1651 27.213 43.0993 27.0322L41.8887 23.7064C41.8231 23.5256 41.7224 23.3595 41.5925 23.2176C41.4626 23.0756 41.306 22.9607 41.1316 22.8794C40.9572 22.7981 40.7685 22.752 40.5763 22.7437C40.3841 22.7354 40.1921 22.7651 40.0114 22.8311C39.8306 22.8968 39.6645 22.9975 39.5227 23.1275C39.3809 23.2574 39.266 23.414 39.1847 23.5883C39.1034 23.7627 39.0573 23.9513 39.0489 24.1435C39.0406 24.3357 39.0701 24.5277 39.136 24.7084L40.3465 28.0342Z" fill="#004C56"/>
<path d="M131.474 135.611L122.266 125.481V95.904C130.306 94.9978 136.556 88.1784 136.556 79.8962C136.556 70.997 129.342 63.7829 120.443 63.7829C112.39 63.7829 105.718 69.69 104.521 77.4071H84.5208C86.4318 73.2616 87.4994 68.6474 87.4994 63.7829C87.4994 45.7876 72.9113 31.1992 54.9157 31.1992C36.9201 31.1992 22.332 45.7876 22.332 63.7832C22.332 78.6903 32.3425 91.259 46.008 95.1341V125.481H46.0077L36.8018 135.611C36.6215 135.809 36.4767 136.037 36.3737 136.284C36.2525 136.572 36.1902 136.88 36.1903 137.192V141.164C36.1901 141.489 36.3191 141.801 36.549 142.031C36.7788 142.262 37.0907 142.391 37.4161 142.392H130.858C131.184 142.391 131.496 142.262 131.726 142.032C131.957 141.801 132.086 141.489 132.086 141.164V137.192C132.086 136.88 132.024 136.572 131.903 136.284C131.8 136.037 131.655 135.809 131.474 135.611Z" fill="#004C56"/>
</g>
<path d="M54.9157 89.3354C72.9112 89.3354 87.4994 74.7471 87.4994 56.7517C87.4994 38.7562 72.9112 24.168 54.9157 24.168C36.9202 24.168 22.332 38.7562 22.332 56.7517C22.332 74.7471 36.9202 89.3354 54.9157 89.3354Z" fill="#FFDE33"/>
<path d="M54.918 83.4453C69.6614 83.4453 81.6133 71.4934 81.6133 56.75C81.6133 42.0066 69.6614 30.0547 54.918 30.0547C40.1746 30.0547 28.2227 42.0066 28.2227 56.75C28.2227 71.4934 40.1746 83.4453 54.918 83.4453Z" fill="#FFF066"/>
<path d="M46.0106 60.4979C52.1175 60.4979 57.0682 55.5472 57.0682 49.4403C57.0682 43.3334 52.1175 38.3828 46.0106 38.3828C39.9037 38.3828 34.9531 43.3334 34.9531 49.4403C34.9531 55.5472 39.9037 60.4979 46.0106 60.4979Z" fill="#FFE898"/>
<path d="M63.6407 64.3713C66.4216 64.3713 68.676 62.1169 68.676 59.336C68.676 56.5551 66.4216 54.3008 63.6407 54.3008C60.8598 54.3008 58.6055 56.5551 58.6055 59.336C58.6055 62.1169 60.8598 64.3713 63.6407 64.3713Z" fill="#FFE898"/>
<path d="M22.5899 60.8625C24.6111 76.9172 38.3133 89.3353 54.9161 89.3353C72.9114 89.3353 87.4998 74.7472 87.4998 56.7516C87.4998 38.756 72.9117 24.1679 54.9164 24.1679C38.3458 24.1679 24.6647 36.5376 22.6022 52.5469M54.9164 14.6367V18.1761M54.9164 95.3268V98.8661M27.8455 24.4898L30.1204 27.201M79.7121 86.3019L81.987 89.013M18.4438 35.6941L21.5089 37.4637M88.3236 76.0392L91.3887 77.8087M13.4414 49.4385L16.9269 50.0528M92.9057 63.45L96.3911 64.0646M13.4414 64.0646L16.9269 63.45M92.9057 50.0528L96.3911 49.4382M18.4438 77.8087L21.5089 76.0392M88.3236 37.4637L91.3887 35.6941M27.8455 89.0133L30.1204 86.3019M79.7121 27.201L81.987 24.4898M40.5123 96.3264L41.7229 93.0006M68.11 20.5025L69.3205 17.1768M40.5123 17.1768L41.7229 20.5025M68.11 93.0006L69.3202 96.3264" stroke="#004C56" stroke-width="2.92969" stroke-miterlimit="10" stroke-linecap="round" stroke-linejoin="round"/>
<path d="M122.266 72.9628V118.449H46.0078V72.9628C46.0078 72.2765 46.2805 71.6183 46.7658 71.1329C47.2511 70.6476 47.9093 70.375 48.5956 70.375H119.678C121.106 70.375 122.266 71.5325 122.266 72.9628Z" fill="#01B1BC"/>
<path d="M119.681 70.375H107.447C105.419 73.1344 104.327 76.4706 104.332 79.8953C104.332 88.7945 111.546 96.0086 120.445 96.0086C121.055 96.0076 121.663 95.9724 122.269 95.9031V72.9628C122.269 72.2765 121.996 71.6183 121.511 71.133C121.025 70.6477 120.367 70.3751 119.681 70.375Z" fill="#018FBC"/>
<path d="M79.44 112.015C79.6003 105.755 84.7202 100.73 91.0182 100.73C97.3144 100.73 102.434 105.755 102.595 112.015L108.725 112.894L114.884 112.015C114.884 112.015 114.884 112.015 114.885 112.014C114.885 112.014 114.885 112.014 114.885 112.014V109.161C114.885 108.843 114.766 108.536 114.552 108.301C114.339 108.065 114.045 107.918 113.728 107.888L110.375 107.566C109.894 105.599 109.114 103.717 108.062 101.986L110.206 99.3881C110.409 99.1427 110.512 98.8308 110.497 98.5131C110.482 98.1954 110.349 97.8948 110.124 97.6698L105.663 93.2085C105.438 92.9836 105.137 92.8506 104.82 92.8354C104.502 92.8202 104.19 92.924 103.945 93.1265L101.346 95.2701C99.6157 94.2189 97.7338 93.4394 95.7666 92.9589L95.4449 89.6062C95.4145 89.2896 95.2673 88.9957 95.032 88.7818C94.7966 88.5678 94.49 88.4493 94.172 88.4492H87.8629C87.5448 88.4492 87.2381 88.5677 87.0028 88.7816C86.7674 88.9955 86.6202 89.2895 86.5899 89.6062L86.2683 92.9589C84.301 93.4392 82.4191 94.2187 80.6884 95.2701L78.0906 93.1265C77.8453 92.9241 77.5333 92.8203 77.2156 92.8355C76.898 92.8507 76.5973 92.9836 76.3724 93.2085L71.911 97.6698C71.6861 97.8947 71.5531 98.1954 71.5379 98.5131C71.5228 98.8308 71.6265 99.1428 71.829 99.3881L73.9727 101.986C72.9208 103.717 72.1408 105.599 71.66 107.566L68.309 107.888C67.9924 107.918 67.6986 108.065 67.4847 108.301C67.2708 108.536 67.1523 108.843 67.1523 109.161V112.014C67.1523 112.014 67.1529 112.015 67.1535 112.015L73.5142 112.894L79.44 112.015Z" fill="#FFF066"/>
<path d="M106.99 111.903C106.883 107.721 105.175 103.807 102.181 100.882C99.1802 97.9505 95.2169 96.3359 91.021 96.3359C86.8248 96.3359 82.8606 97.9505 79.8595 100.882C76.865 103.807 75.1567 107.721 75.0498 111.903L75.0469 112.015H79.4429C79.6031 105.756 84.723 100.731 91.021 100.731C97.3172 100.731 102.437 105.756 102.597 112.015H106.993L106.99 111.903Z" fill="#FFE898"/>
<path d="M46.0078 112.016H122.265V118.447H46.0078V112.016Z" fill="#82E9FF"/>
<path d="M88.5635 75.3542H79.7126C79.0616 75.3541 78.4372 75.0955 77.9769 74.6351C77.5165 74.1748 77.2579 73.5504 77.2578 72.8994V70.3752H91.0183V72.8994C91.0183 73.2218 90.9548 73.541 90.8315 73.8389C90.7081 74.1367 90.5273 74.4073 90.2994 74.6353C90.0714 74.8632 89.8008 75.0441 89.5029 75.1674C89.2051 75.2908 88.8859 75.3542 88.5635 75.3542Z" fill="#82E9FF"/>
<path d="M131.904 129.253H36.375C36.4781 129.005 36.623 128.778 36.8033 128.58L46.0093 118.449H122.267L131.476 128.58C131.656 128.778 131.801 129.006 131.904 129.253Z" fill="#D8FAFF"/>
<path d="M120.865 124.837L116.338 118.449H51.9358L47.4086 124.837C47.0772 125.304 47.4115 125.951 47.9846 125.951H120.29C120.862 125.951 121.197 125.304 120.865 124.837Z" fill="#82E9FF"/>
<path d="M132.087 130.158V134.129C132.087 134.455 131.958 134.767 131.727 134.998C131.497 135.228 131.185 135.357 130.859 135.358H37.4172C37.2561 135.357 37.0965 135.325 36.9477 135.264C36.7989 135.202 36.6638 135.111 36.5499 134.997C36.4361 134.883 36.3459 134.748 36.2844 134.599C36.2228 134.45 36.1913 134.291 36.1914 134.129V130.158C36.1914 129.843 36.255 129.535 36.3748 129.25H131.903C132.024 129.535 132.087 129.843 132.087 130.158Z" fill="#01CBD4"/>
<path d="M36.375 129.252H131.904M96.2033 70.375H48.5979C47.9116 70.375 47.2534 70.6476 46.7681 71.1329C46.2828 71.6183 46.0102 72.2765 46.0102 72.9628V118.448H122.267V72.9628" stroke="#004C56" stroke-width="2.92969" stroke-miterlimit="10" stroke-linecap="round" stroke-linejoin="round"/>
<path d="M132.087 130.161V134.132C132.087 134.458 131.958 134.77 131.727 135C131.497 135.231 131.185 135.36 130.859 135.36H37.4172C37.2561 135.36 37.0965 135.328 36.9477 135.266C36.7989 135.205 36.6638 135.114 36.5499 135C36.4361 134.886 36.3459 134.751 36.2844 134.602C36.2228 134.453 36.1913 134.293 36.1914 134.132V130.161C36.1914 129.846 36.255 129.538 36.3748 129.253C36.4779 129.005 36.6228 128.778 36.8031 128.58L46.0091 118.449H122.267L131.476 128.58C131.656 128.778 131.801 129.006 131.904 129.253C132.024 129.538 132.087 129.846 132.087 130.161Z" stroke="#004C56" stroke-width="2.92969" stroke-miterlimit="10" stroke-linecap="round" stroke-linejoin="round"/>
<path d="M120.441 88.9805C129.341 88.9805 136.555 81.7663 136.555 72.8672C136.555 63.9681 129.341 56.7539 120.441 56.7539C111.542 56.7539 104.328 63.9681 104.328 72.8672C104.328 81.7663 111.542 88.9805 120.441 88.9805Z" fill="#FFF066"/>
<path d="M120.445 84.5859C126.917 84.5859 132.164 79.3393 132.164 72.8672C132.164 66.3951 126.917 61.1484 120.445 61.1484C113.973 61.1484 108.727 66.3951 108.727 72.8672C108.727 79.3393 113.973 84.5859 120.445 84.5859Z" fill="white"/>
<path d="M120.441 88.9805C129.341 88.9805 136.555 81.7663 136.555 72.8672C136.555 63.9681 129.341 56.7539 120.441 56.7539C111.542 56.7539 104.328 63.9681 104.328 72.8672C104.328 81.7663 111.542 88.9805 120.441 88.9805Z" stroke="#004C56" stroke-width="2.92969" stroke-miterlimit="10" stroke-linecap="round" stroke-linejoin="round"/>
<path d="M120.445 72.866V64.3711" stroke="#FF6C6C" stroke-width="2.92969" stroke-miterlimit="10" stroke-linecap="round" stroke-linejoin="round"/>
<path d="M116.941 77.7053L120.442 72.8672" stroke="#82E9FF" stroke-width="2.92969" stroke-miterlimit="10" stroke-linecap="round" stroke-linejoin="round"/>
<path d="M55.1289 78.4531H58.6073" stroke="#FF6C6C" stroke-width="2.92969" stroke-miterlimit="10" stroke-linecap="round" stroke-linejoin="round"/>
<path d="M55.1289 86.207H65.4033M55.1289 92.0354H65.4033M55.1289 97.8634H60.2661" stroke="#01CBD4" stroke-width="2.92969" stroke-miterlimit="10" stroke-linecap="round" stroke-linejoin="round"/>
<path d="M86.5469 108.074V108.027M91.3908 108.074V108.027M96.2348 108.074V108.027" stroke="white" stroke-width="2.92969" stroke-miterlimit="10" stroke-linecap="round" stroke-linejoin="round"/>
<path d="M15.8984 97.0938C17.5165 97.0938 18.8281 95.7821 18.8281 94.1641C18.8281 92.546 17.5165 91.2344 15.8984 91.2344C14.2804 91.2344 12.9688 92.546 12.9688 94.1641C12.9688 95.7821 14.2804 97.0938 15.8984 97.0938Z" stroke="#FF6C6C" stroke-width="2.92969" stroke-miterlimit="10" stroke-linecap="round" stroke-linejoin="round"/>
<path d="M136.555 50.0234C138.173 50.0234 139.484 48.7118 139.484 47.0938C139.484 45.4757 138.173 44.1641 136.555 44.1641C134.937 44.1641 133.625 45.4757 133.625 47.0938C133.625 48.7118 134.937 50.0234 136.555 50.0234Z" stroke="#FFDE33" stroke-width="2.92969" stroke-miterlimit="10" stroke-linecap="round" stroke-linejoin="round"/>
<path d="M27.8477 105.008L28.6085 107.349H31.0703L29.0787 108.796L29.8393 111.138L27.8477 109.691L25.8561 111.138L26.6166 108.796L24.625 107.349H27.0868L27.8477 105.008Z" stroke="#FFDE33" stroke-width="2.92969" stroke-miterlimit="10" stroke-linecap="round" stroke-linejoin="round"/>
<path d="M108.723 41.0977L109.483 43.4391H111.945L109.953 44.886L110.714 47.2274L108.723 45.7805L106.731 47.2274L107.492 44.886L105.5 43.4391H107.962L108.723 41.0977Z" stroke="#01CBD4" stroke-width="2.92969" stroke-miterlimit="10" stroke-linecap="round" stroke-linejoin="round"/>
<path d="M106.988 22.7812L107.749 25.1227H110.211L108.219 26.5696L108.98 28.911L106.988 27.4641L104.997 28.911L105.758 26.5696L103.766 25.1227H106.228L106.988 22.7812Z" stroke="#FF6C6C" stroke-width="2.92969" stroke-miterlimit="10" stroke-linecap="round" stroke-linejoin="round"/>
</svg>
