<svg width="30" height="31" viewBox="0 0 30 31" fill="none" xmlns="http://www.w3.org/2000/svg">
<path d="M25.0004 25.5004L19.9379 20.4379M19.9379 20.4379C20.7505 19.6254 21.3951 18.6607 21.8348 17.5991C22.2746 16.5374 22.5009 15.3996 22.5009 14.2504C22.5009 13.1013 22.2746 11.9634 21.8348 10.9018C21.3951 9.84014 20.7505 8.8755 19.9379 8.06295C19.1254 7.25039 18.1607 6.60584 17.0991 6.16609C16.0374 5.72634 14.8996 5.5 13.7504 5.5C12.6013 5.5 11.4634 5.72634 10.4018 6.16609C9.34014 6.60584 8.3755 7.25039 7.56295 8.06295C5.92192 9.70397 5 11.9297 5 14.2504C5 16.5712 5.92192 18.7969 7.56295 20.4379C9.20397 22.079 11.4297 23.0009 13.7504 23.0009C16.0712 23.0009 18.2969 22.079 19.9379 20.4379Z" stroke="#414142" stroke-width="2" stroke-linecap="round" stroke-linejoin="round"/>
</svg>
