<svg width="74" height="74" viewBox="0 0 74 74" fill="none" xmlns="http://www.w3.org/2000/svg">
<path d="M37.0002 11.8399C50.9122 11.8399 62.1602 23.0879 62.1602 36.9999C62.1602 50.9119 50.9122 62.1599 37.0002 62.1599C23.0882 62.1599 11.8401 50.9119 11.8401 36.9999C11.8402 23.0879 23.0882 11.8399 37.0002 11.8399ZM37.0002 59.1999C49.2842 59.1999 59.2002 49.2839 59.2002 36.9999C59.2002 24.7159 49.2842 14.7999 37.0002 14.7999C24.7162 14.7999 14.8002 24.7159 14.8002 36.9999C14.8001 49.2839 24.7161 59.1999 37.0002 59.1999Z" fill="white"/>
<path d="M36.5561 22.644L50.9121 37L36.5561 51.356L34.4841 49.284L46.7681 37L34.4841 24.716L36.5561 22.644Z" fill="white"/>
<path d="M48.8398 38.48L23.6798 38.48L23.6798 35.52L48.8398 35.52L48.8398 38.48Z" fill="white"/>
</svg>
