<svg width="121" height="120" viewBox="0 0 121 120" fill="none" xmlns="http://www.w3.org/2000/svg">
<path d="M70.8265 9.28918H14.0339C12.1373 9.28918 10.6001 10.8266 10.6001 12.723V107.276C10.6001 109.173 12.1375 110.71 14.0339 110.71H84.6348C86.5312 110.71 88.0686 109.173 88.0686 107.276V26.5312C88.0686 26.1463 87.9928 25.7652 87.8455 25.4096C87.6982 25.054 87.4823 24.7309 87.2101 24.4587L72.8992 10.1477C72.627 9.8755 72.3039 9.65958 71.9482 9.51228C71.5926 9.36497 71.2114 9.28917 70.8265 9.28918Z" fill="white"/>
<path d="M87.2103 24.4591L81.9366 19.1856C81.9413 19.2534 81.9466 19.3211 81.9466 19.3895V91.3866C81.9466 98.1144 76.4926 103.569 69.7648 103.569H10.6001V107.277C10.6001 109.173 12.1375 110.711 14.0339 110.711H84.6348C86.5312 110.711 88.0686 109.173 88.0686 107.277V26.5316C88.0686 26.1467 87.9929 25.7656 87.8456 25.41C87.6983 25.0544 87.4824 24.7313 87.2103 24.4591Z" fill="#F4E7E7"/>
<path d="M75.4753 25.3176C73.5789 25.3176 72.0415 23.7802 72.0415 21.8838L72.9 10.1481L87.2109 24.4591L75.4753 25.3176Z" fill="#00AEEF"/>
<path d="M102.548 58.6248L71.7017 92.8784L62.1253 100.011C60.4946 101.225 58.3764 99.3178 59.4141 97.5693L65.5079 87.3007L96.3544 53.047L102.548 58.6248Z" fill="#00AEEF"/>
<path d="M65.4424 87.4114L59.4141 97.5699C58.3764 99.3186 60.4946 101.226 62.1253 100.011L71.5991 92.9555L65.4424 87.4114ZM108.662 45.6087C111.064 47.7725 111.258 51.4744 109.094 53.8773L96.6415 67.7057C96.5619 67.7942 96.4656 67.8661 96.3581 67.9173C96.2507 67.9686 96.1341 67.9982 96.0153 68.0044C95.8964 68.0106 95.7774 67.9933 95.6652 67.9536C95.553 67.9138 95.4497 67.8523 95.3612 67.7727L88.0073 61.1503C87.9189 61.0706 87.847 60.9743 87.7957 60.8668C87.7445 60.7594 87.7149 60.6429 87.7087 60.524C87.7025 60.4051 87.7197 60.2861 87.7595 60.1739C87.7992 60.0617 87.8607 59.9584 87.9404 59.87L100.393 46.0416C102.557 43.6387 106.259 43.445 108.662 45.6087Z" fill="#418EFF"/>
<path d="M57.0995 74.1309C60.5402 74.1309 63.3295 71.3417 63.3295 67.901C63.3295 64.4603 60.5402 61.671 57.0995 61.671C53.6589 61.671 50.8696 64.4603 50.8696 67.901C50.8696 71.3417 53.6589 74.1309 57.0995 74.1309Z" fill="#418EFF"/>
<path d="M10.6001 40.4307V107.277C10.6001 109.173 12.1375 110.711 14.0339 110.711H84.6348C86.5312 110.711 88.0686 109.173 88.0686 107.277V83.185M75.4747 25.3175C73.5783 25.3175 72.0409 23.78 72.0409 21.8836L72.8994 10.1479L87.2103 24.459L75.4747 25.3175Z" stroke="#414142" stroke-width="3.06099" stroke-miterlimit="10" stroke-linecap="round" stroke-linejoin="round"/>
<path d="M88.0686 59.0068V26.5312C88.0686 26.1463 87.9928 25.7652 87.8455 25.4096C87.6982 25.054 87.4823 24.7308 87.2101 24.4587L72.8992 10.1477C72.627 9.87551 72.3039 9.65961 71.9483 9.5123C71.5927 9.365 71.2116 9.28918 70.8267 9.28918H14.0339C12.1373 9.28918 10.6001 10.8266 10.6001 12.723V33.2879M94.1963 67.9013L71.703 92.8789L62.1266 100.011C60.4959 101.226 58.3777 99.3182 59.4154 97.5698L65.5092 87.3011L88.0684 62.2501M71.6003 92.9552L65.4439 87.4111M108.663 45.6084C111.066 47.7721 111.26 51.4741 109.096 53.877L96.643 67.7054C96.5633 67.7939 96.467 67.8658 96.3596 67.917C96.2521 67.9683 96.1356 67.9978 96.0167 68.0041C95.8978 68.0103 95.7789 67.993 95.6667 67.9533C95.5544 67.9135 95.4512 67.852 95.3627 67.7723L88.0088 61.1499C87.9203 61.0703 87.8484 60.974 87.7972 60.8665C87.7459 60.759 87.7164 60.6426 87.7101 60.5237C87.7039 60.4048 87.7212 60.2858 87.761 60.1736C87.8007 60.0614 87.8622 59.9581 87.9419 59.8696L100.395 46.0412C102.558 43.6384 106.26 43.4447 108.663 45.6084Z" stroke="#414142" stroke-width="3.06099" stroke-miterlimit="10" stroke-linecap="round" stroke-linejoin="round"/>
<path d="M23.5278 100.333C24.8126 94.9184 27.3177 89.7967 30.8033 85.4582C31.3914 84.7263 32.4393 83.9649 33.1533 84.5748C33.3715 84.7611 33.4882 85.0401 33.5598 85.318C33.9141 86.6941 33.3329 88.1136 32.8705 89.4569C31.8471 92.435 31.3708 95.5737 31.4647 98.7214C31.4804 99.2373 31.5912 99.866 32.0781 100.037C32.3563 100.134 32.6642 100.037 32.9287 99.907C33.8161 99.4711 34.4787 98.6916 35.2687 98.0967C36.0586 97.5021 37.1373 97.0894 38.0256 97.5237C38.6086 97.809 38.9774 98.3957 39.4859 98.7993C40.3081 99.4521 41.4186 99.5762 42.465 99.6603C48.0812 100.111 53.7235 100.131 59.3427 99.7195M20.8423 19.3409H44.733M20.8423 25.7252H53.6839M20.8423 38.2084H77.6024M20.8423 46.1719H77.6024M20.8423 54.1356H77.6024M20.8423 61.9401H42.2461M20.8423 69.7447H42.2461M20.8423 76.7207H42.2461" stroke="#414142" stroke-width="3.06099" stroke-miterlimit="10" stroke-linecap="round" stroke-linejoin="round"/>
<path d="M57.0995 74.1309C60.5402 74.1309 63.3295 71.3417 63.3295 67.901C63.3295 64.4603 60.5402 61.671 57.0995 61.671C53.6589 61.671 50.8696 64.4603 50.8696 67.901C50.8696 71.3417 53.6589 74.1309 57.0995 74.1309Z" stroke="#414142" stroke-width="3.06099" stroke-miterlimit="10" stroke-linecap="round" stroke-linejoin="round"/>
</svg>
