<svg width="100" height="100" viewBox="0 0 100 100" fill="none" xmlns="http://www.w3.org/2000/svg">
<path d="M33.0227 82.541L33.0053 82.5302L33.0227 82.541ZM33.0227 82.541L33.0333 82.5477L33.0227 82.541ZM31.9813 81.9257L31.9786 81.924L31.9813 81.9257Z" stroke="#00AEEF" stroke-width="28.51"/>
<path d="M66.9908 82.5411L67.0081 82.5304L66.9908 82.5411ZM66.9908 82.5411L66.9802 82.5475L66.9908 82.5411Z" stroke="#00AEEF" stroke-width="28.51"/>
<mask id="path-3-inside-1_437_7390" fill="white">
<path d="M50.0177 79.745C49.7988 79.7449 49.5841 79.6866 49.3959 79.5762L40.6504 74.4522L30.4907 74.5728C30.2736 74.567 30.0614 74.5078 29.8734 74.4004C29.6853 74.293 29.5274 74.1409 29.4138 73.9579L24.4355 65.1889L15.5681 60.2658C15.3768 60.1595 15.218 60.004 15.1085 59.8159C14.9991 59.6277 14.9431 59.4139 14.9463 59.1968L15.0683 49.1498L9.87867 40.5054C9.76631 40.3188 9.70703 40.1056 9.70703 39.8885C9.70703 39.6713 9.76631 39.4582 9.87867 39.2716L15.0683 30.6231L14.9463 20.5761C14.9438 20.3597 15.0002 20.1467 15.1096 19.9593C15.219 19.7719 15.3774 19.6171 15.5681 19.5111L24.4274 14.572L29.4057 5.80295C29.5119 5.61612 29.6665 5.46067 29.8536 5.35259C30.0408 5.24451 30.2536 5.18772 30.4703 5.18807L40.6301 5.30863L49.404 0.168581C49.5922 0.0582304 49.807 0 50.0258 0C50.2446 0 50.4594 0.0582304 50.6476 0.168581L59.3931 5.30059L69.5528 5.18003C69.7723 5.1768 69.9885 5.23222 70.1787 5.34045C70.369 5.44867 70.5262 5.60568 70.6337 5.79491L75.612 14.572L84.4794 19.495C84.6702 19.601 84.8285 19.7558 84.9379 19.9432C85.0473 20.1306 85.1037 20.3437 85.1012 20.56L84.9793 30.607L90.1689 39.2555C90.2812 39.4421 90.3405 39.6552 90.3405 39.8724C90.3405 40.0896 90.2812 40.3027 90.1689 40.4893L84.9793 49.1337L85.1012 59.1808C85.1045 59.3978 85.0484 59.6117 84.939 59.7998C84.8296 59.988 84.6708 60.1434 84.4794 60.2498L75.612 65.1728L70.6337 73.9418C70.5262 74.1311 70.369 74.2881 70.1787 74.3963C69.9885 74.5045 69.7723 74.5599 69.5528 74.5567L59.3931 74.4361L50.6232 79.5762C50.4397 79.6839 50.231 79.7421 50.0177 79.745ZM40.9796 72.0409C41.1986 72.0398 41.4137 72.0982 41.6014 72.2097L50.0177 77.1488L58.434 72.2097C58.6289 72.1013 58.8484 72.0432 59.072 72.0409L68.8618 72.1575L73.6532 63.718C73.7624 63.5263 73.9227 63.3679 74.1165 63.2598L82.6507 58.5217L82.5328 48.8404C82.5282 48.6183 82.5873 48.3995 82.7035 48.2094L87.7021 39.8905L82.7279 31.5474C82.6107 31.3578 82.5514 31.1387 82.5572 30.9165L82.6751 21.2392L74.1409 16.501C73.9466 16.3919 73.7863 16.232 73.6776 16.0388L68.8863 7.59935L59.0964 7.7159C58.8727 7.71416 58.6531 7.65607 58.4584 7.54711L50.0421 2.60799L41.6258 7.54711C41.4317 7.6576 41.2117 7.7158 40.9877 7.7159L31.2019 7.59935L26.4105 16.0388C26.3007 16.2325 26.1391 16.3925 25.9432 16.501L17.4091 21.2392L17.5269 30.9165C17.5298 31.1383 17.4707 31.3567 17.3562 31.5474L12.3373 39.8905L17.3319 48.2134C17.4464 48.4042 17.5054 48.6225 17.5025 48.8444L17.3847 58.5257L25.9188 63.2639C26.1141 63.3713 26.2758 63.5298 26.3862 63.722L31.1775 72.1615L40.9633 72.045L40.9796 72.0409Z"/>
</mask>
<path d="M50.0177 79.745L50.0094 108.255L50.2079 108.255L50.4064 108.252L50.0177 79.745ZM49.3959 79.5762L63.8245 54.9869L63.8164 54.9821L63.8083 54.9774L49.3959 79.5762ZM40.6504 74.4522L55.0628 49.8534L48.2304 45.8503L40.3121 45.9442L40.6504 74.4522ZM30.4907 74.5728L29.7355 103.073L30.2822 103.087L30.829 103.081L30.4907 74.5728ZM29.4138 73.9579L4.62055 88.0333L4.8952 88.517L5.18851 88.9897L29.4138 73.9579ZM24.4355 65.1889L49.2288 51.1135L45.2753 44.1497L38.2741 40.2627L24.4355 65.1889ZM15.5681 60.2658L1.71958 85.1865L1.72953 85.192L15.5681 60.2658ZM14.9463 59.1968L43.4531 59.6259L43.4537 59.5844L43.4542 59.5428L14.9463 59.1968ZM15.0683 49.1498L43.5762 49.4958L43.6743 41.4092L39.5117 34.4755L15.0683 49.1498ZM9.87867 40.5054L34.3222 25.831L34.3121 25.8142L34.302 25.7975L9.87867 40.5054ZM9.87867 39.2716L34.302 53.9795L34.3136 53.9602L34.3252 53.9409L9.87867 39.2716ZM15.0683 30.6231L39.5148 45.2924L43.6743 38.3606L43.5762 30.2771L15.0683 30.6231ZM14.9463 20.5761L-13.5617 20.9097L-13.5616 20.9221L14.9463 20.5761ZM15.5681 19.5111L29.4179 44.431L29.4344 44.4219L29.4509 44.4127L15.5681 19.5111ZM24.4274 14.572L38.3102 39.4736L45.2807 35.5875L49.2206 28.6473L24.4274 14.572ZM29.4057 5.80295L4.61986 -8.28551L4.61613 -8.27895L4.61241 -8.27239L29.4057 5.80295ZM30.4703 5.18807L30.8086 -23.3199L30.6622 -23.3217L30.5157 -23.3219L30.4703 5.18807ZM40.6301 5.30863L40.2917 33.8166L48.2092 33.9106L55.0412 29.9082L40.6301 5.30863ZM49.404 0.168581L63.8152 24.7681L63.8243 24.7628L49.404 0.168581ZM50.6476 0.168581L65.0768 -24.4204L65.0678 -24.4257L50.6476 0.168581ZM59.3931 5.30059L44.9638 29.8895L51.8026 33.9027L59.7314 33.8086L59.3931 5.30059ZM69.5528 5.18003L69.8911 33.688L69.9317 33.6875L69.9724 33.6869L69.5528 5.18003ZM70.6337 5.79491L95.4325 -8.27067L95.4269 -8.28054L95.4213 -8.29041L70.6337 5.79491ZM75.612 14.572L50.8132 28.6376L54.7669 35.6083L61.7734 39.4982L75.612 14.572ZM84.4794 19.495L98.3292 -5.42492L98.318 -5.43114L84.4794 19.495ZM85.1012 20.56L113.609 20.906L113.609 20.8937L85.1012 20.56ZM84.9793 30.607L56.4714 30.261L56.3733 38.3445L60.5328 45.2763L84.9793 30.607ZM90.1689 39.2555L65.7224 53.9248L65.7339 53.9441L65.7455 53.9634L90.1689 39.2555ZM90.1689 40.4893L65.7455 25.7814L65.7354 25.7982L65.7254 25.8149L90.1689 40.4893ZM84.9793 49.1337L60.5358 34.4594L56.3732 41.3931L56.4714 49.4797L84.9793 49.1337ZM85.1012 59.1808L56.5933 59.5267L56.5938 59.5683L56.5944 59.6098L85.1012 59.1808ZM84.4794 60.2498L98.318 85.1759L98.328 85.1704L84.4794 60.2498ZM75.612 65.1728L61.7734 40.2466L54.7722 44.1336L50.8188 51.0975L75.612 65.1728ZM70.6337 73.9418L95.4213 88.0272L95.427 88.0172L70.6337 73.9418ZM69.5528 74.5567L69.9724 46.0498L69.9317 46.0492L69.8911 46.0487L69.5528 74.5567ZM59.3931 74.4361L59.7314 45.9282L51.8108 45.8342L44.9769 49.8395L59.3931 74.4361ZM50.6232 79.5762L36.207 54.9796L36.1985 54.9846L36.19 54.9895L50.6232 79.5762ZM40.9796 72.0409L40.83 43.5313L37.434 43.5492L34.1372 44.3642L40.9796 72.0409ZM41.6014 72.2097L27.036 96.7183L27.1037 96.7585L27.1715 96.7983L41.6014 72.2097ZM50.0177 77.1488L35.5878 101.737L50.0177 110.206L64.4475 101.737L50.0177 77.1488ZM58.434 72.2097L44.5714 47.2969L44.2859 47.4558L44.0041 47.6211L58.434 72.2097ZM59.072 72.0409L59.4114 43.533L59.0971 43.5292L58.7827 43.5324L59.072 72.0409ZM68.8618 72.1575L68.5225 100.665L85.3476 100.866L93.6549 86.2332L68.8618 72.1575ZM73.6532 63.718L48.8853 49.598L48.8727 49.6201L48.8601 49.6423L73.6532 63.718ZM74.1165 63.2598L60.2776 38.3339L60.2555 38.3461L60.2335 38.3584L74.1165 63.2598ZM82.6507 58.5217L96.4896 83.4476L111.366 75.1884L111.159 58.1746L82.6507 58.5217ZM82.5328 48.8404L111.041 48.4933L111.039 48.3696L111.037 48.246L82.5328 48.8404ZM82.7035 48.2094L107.033 63.0713L107.088 62.9825L107.141 62.8933L82.7035 48.2094ZM87.7021 39.8905L112.14 54.5744L120.929 39.9475L112.19 25.2905L87.7021 39.8905ZM82.7279 31.5474L107.216 16.9475L107.1 16.7539L106.982 16.5623L82.7279 31.5474ZM82.5572 30.9165L111.058 31.6564L111.063 31.4601L111.065 31.2637L82.5572 30.9165ZM82.6751 21.2392L111.183 21.5864L111.39 4.57249L96.514 -3.68679L82.6751 21.2392ZM74.1409 16.501L60.1802 41.359L60.241 41.3931L60.302 41.427L74.1409 16.501ZM73.6776 16.0388L98.5245 2.0584L98.4976 2.01073L98.4706 1.96316L73.6776 16.0388ZM68.8863 7.59935L93.6793 -6.47634L85.372 -21.1089L68.5469 -20.9086L68.8863 7.59935ZM59.0964 7.7159L58.8741 36.225L59.155 36.2272L59.4358 36.2239L59.0964 7.7159ZM58.4584 7.54711L44.0285 32.1357L44.2812 32.284L44.537 32.4271L58.4584 7.54711ZM50.0421 2.60799L64.4719 -21.9806L50.0421 -30.4488L35.6122 -21.9806L50.0421 2.60799ZM41.6258 7.54711L55.7301 32.3239L55.8935 32.2309L56.0557 32.1357L41.6258 7.54711ZM40.9877 7.7159L40.6482 36.2239L40.8247 36.226L41.0011 36.2259L40.9877 7.7159ZM31.2019 7.59935L31.5414 -20.9086L14.7162 -21.109L6.40882 -6.47634L31.2019 7.59935ZM26.4105 16.0388L1.61748 1.96316L1.61274 1.97151L1.608 1.97987L26.4105 16.0388ZM25.9432 16.501L12.1209 -8.43415L12.1126 -8.42956L12.1043 -8.42496L25.9432 16.501ZM17.4091 21.2392L3.57014 -3.68679L-11.306 4.57249L-11.0988 21.5864L17.4091 21.2392ZM17.5269 30.9165L-10.981 31.2637L-10.9808 31.276L-10.9806 31.2884L17.5269 30.9165ZM17.3562 31.5474L41.7865 46.2437L41.7936 46.2319L41.8007 46.2201L17.3562 31.5474ZM12.3373 39.8905L-12.093 25.1942L-20.9228 39.8725L-12.1088 54.5604L12.3373 39.8905ZM17.3319 48.2134L-7.11427 62.8833L-7.11262 62.8861L17.3319 48.2134ZM17.5025 48.8444L-11.005 48.4725L-11.0052 48.4849L-11.0054 48.4973L17.5025 48.8444ZM17.3847 58.5257L-11.1232 58.1786L-11.3304 75.1924L3.54572 83.4517L17.3847 58.5257ZM25.9188 63.2639L12.0799 88.1898L12.1271 88.2161L12.1745 88.2421L25.9188 63.2639ZM26.3862 63.722L51.1794 49.6465L51.1445 49.5851L51.1093 49.5238L26.3862 63.722ZM31.1775 72.1615L6.38429 86.237L14.6916 100.87L31.5169 100.669L31.1775 72.1615ZM40.9633 72.045L41.3028 100.553L44.6024 100.514L47.8058 99.7217L40.9633 72.045ZM50.026 51.235C54.8618 51.2364 59.6269 52.5238 63.8245 54.9869L34.9673 104.166C39.5412 106.849 44.7359 108.253 50.0094 108.255L50.026 51.235ZM63.8083 54.9774L55.0628 49.8534L26.2379 99.051L34.9834 104.175L63.8083 54.9774ZM40.3121 45.9442L30.1524 46.0648L30.829 103.081L40.9887 102.96L40.3121 45.9442ZM31.2458 46.0728C35.7149 46.1912 40.1015 47.4105 44.0094 49.6418L15.7373 99.1591C20.0214 101.605 24.8323 102.943 29.7355 103.073L31.2458 46.0728ZM44.0094 49.6418C47.9211 51.8752 51.239 55.0581 53.6391 58.9261L5.18851 88.9897C7.81572 93.2237 11.4495 96.7109 15.7373 99.1591L44.0094 49.6418ZM54.207 59.8826L49.2288 51.1135L-0.357704 79.2642L4.62055 88.0333L54.207 59.8826ZM38.2741 40.2627L29.4067 35.3397L1.72953 85.192L10.597 90.115L38.2741 40.2627ZM29.4166 35.3452C33.6842 37.7167 37.2668 41.2071 39.753 45.4817L-9.53594 74.1501C-6.83081 78.801 -2.93071 82.6023 1.71958 85.1865L29.4166 35.3452ZM39.753 45.4817C42.2406 49.7585 43.528 54.6465 43.4531 59.6259L-13.5604 58.7678C-13.6419 64.1813 -12.2424 69.497 -9.53594 74.1501L39.753 45.4817ZM43.4542 59.5428L43.5762 49.4958L-13.4396 48.8038L-13.5616 58.8508L43.4542 59.5428ZM39.5117 34.4755L34.3222 25.831L-14.5648 55.1797L-9.37522 63.8241L39.5117 34.4755ZM34.302 25.7975C36.8567 30.0397 38.217 34.9096 38.217 39.8885H-18.803C-18.803 45.3016 -17.3241 50.5978 -14.5446 55.2132L34.302 25.7975ZM38.217 39.8885C38.217 44.8675 36.8566 49.7374 34.302 53.9795L-14.5446 24.5637C-17.324 29.179 -18.803 34.4751 -18.803 39.8885H38.217ZM34.3252 53.9409L39.5148 45.2924L-9.37823 15.9538L-14.5678 24.6023L34.3252 53.9409ZM43.5762 30.2771L43.4542 20.2301L-13.5616 20.9221L-13.4396 30.9691L43.5762 30.2771ZM43.4544 20.2424C43.5125 25.2101 42.2152 30.0781 39.7306 34.3339L-9.51133 5.58474C-12.2148 10.2152 -13.6249 15.5094 -13.5617 20.9097L43.4544 20.2424ZM39.7306 34.3339C37.2465 38.5887 33.6739 42.0657 29.4179 44.431L1.71833 -5.40885C-2.91914 -2.83148 -6.80842 0.955158 -9.51133 5.58474L39.7306 34.3339ZM29.4509 44.4127L38.3102 39.4736L10.5446 -10.3296L1.68532 -5.39047L29.4509 44.4127ZM49.2206 28.6473L54.1989 19.8783L4.61241 -8.27239L-0.365848 0.496655L49.2206 28.6473ZM54.1915 19.8914C51.7785 24.1366 48.2879 27.6295 44.1112 30.0415L15.596 -19.3363C11.045 -16.7081 7.24525 -12.9043 4.61986 -8.28551L54.1915 19.8914ZM44.1112 30.0415C39.9383 32.4513 35.2153 33.7057 30.4249 33.698L30.5157 -23.3219C25.292 -23.3302 20.1432 -21.9623 15.596 -19.3363L44.1112 30.0415ZM30.132 33.6961L40.2917 33.8166L40.9684 -23.1994L30.8086 -23.3199L30.132 33.6961ZM55.0412 29.9082L63.8152 24.7681L34.9928 -24.431L26.2189 -19.2909L55.0412 29.9082ZM63.8243 24.7628C59.6259 27.2244 54.8608 28.51 50.0258 28.51V-28.51C44.7532 -28.51 39.5585 -27.108 34.9838 -24.4257L63.8243 24.7628ZM50.0258 28.51C45.1908 28.51 40.4257 27.2244 36.2273 24.7628L65.0678 -24.4257C60.4931 -27.108 55.2984 -28.51 50.0258 -28.51V28.51ZM36.2183 24.7575L44.9638 29.8895L73.8223 -19.2884L65.0768 -24.4204L36.2183 24.7575ZM59.7314 33.8086L69.8911 33.688L69.2145 -23.328L59.0548 -23.2074L59.7314 33.8086ZM69.9724 33.6869C65.1213 33.7583 60.3241 32.5345 56.0828 30.122L84.2747 -19.4411C79.6528 -22.07 74.4232 -23.4047 69.1332 -23.3269L69.9724 33.6869ZM56.0828 30.122C51.8394 27.7083 48.2906 24.1819 45.8462 19.8802L95.4213 -8.29041C92.7619 -12.9705 88.8986 -16.8109 84.2747 -19.4411L56.0828 30.122ZM45.835 19.8605L50.8132 28.6376L100.411 0.5064L95.4325 -8.27067L45.835 19.8605ZM61.7734 39.4982L70.6408 44.4212L98.318 -5.43114L89.4506 -10.3542L61.7734 39.4982ZM70.6296 44.415C66.3737 42.0496 62.801 38.5726 60.3169 34.3178L109.559 5.56867C106.856 0.939086 102.967 -2.84755 98.3292 -5.42492L70.6296 44.415ZM60.3169 34.3178C57.8324 30.0622 56.535 25.1942 56.5932 20.2264L113.609 20.8937C113.672 15.4931 112.262 10.199 109.559 5.56867L60.3169 34.3178ZM56.5933 20.214L56.4714 30.261L113.487 30.953L113.609 20.906L56.5933 20.214ZM60.5328 45.2763L65.7224 53.9248L114.615 24.5862L109.426 15.9377L60.5328 45.2763ZM65.7455 53.9634C63.1908 49.7211 61.8305 44.8512 61.8305 39.8724H118.851C118.851 34.4592 117.372 29.163 114.592 24.5476L65.7455 53.9634ZM61.8305 39.8724C61.8305 34.8935 63.1908 30.0236 65.7455 25.7814L114.592 55.1971C117.372 50.5818 118.851 45.2856 118.851 39.8724H61.8305ZM65.7254 25.8149L60.5358 34.4594L109.423 63.8081L114.612 55.1636L65.7254 25.8149ZM56.4714 49.4797L56.5933 59.5267L113.609 58.8348L113.487 48.7877L56.4714 49.4797ZM56.5944 59.6098C56.5195 54.6307 57.8068 49.7427 60.2945 45.4656L109.583 74.134C112.29 69.4806 113.689 64.1649 113.608 58.7517L56.5944 59.6098ZM60.2945 45.4656C62.7812 41.1904 66.364 37.7003 70.6309 35.3291L98.328 85.1704C102.978 82.5866 106.878 78.7856 109.583 74.134L60.2945 45.4656ZM70.6408 35.3236L61.7734 40.2466L89.4506 90.099L98.318 85.1759L70.6408 35.3236ZM50.8188 51.0975L45.8405 59.8665L95.427 88.0172L100.405 79.2481L50.8188 51.0975ZM45.8462 59.8565C48.2908 55.5545 51.8397 52.0283 56.0828 49.6148L84.2747 99.1778C88.8983 96.5479 92.7617 92.7076 95.4213 88.0272L45.8462 59.8565ZM56.0828 49.6148C60.3236 47.2025 65.1208 45.9784 69.9724 46.0498L69.1332 103.064C74.4237 103.142 79.6533 101.807 84.2747 99.1778L56.0828 49.6148ZM69.8911 46.0487L59.7314 45.9282L59.0548 102.944L69.2145 103.065L69.8911 46.0487ZM44.9769 49.8395L36.207 54.9796L65.0393 104.173L73.8092 99.0328L44.9769 49.8395ZM36.19 54.9895C40.2815 52.5877 44.9144 51.3019 49.6289 51.2377L50.4064 108.252C55.5475 108.182 60.598 106.78 65.0564 104.163L36.19 54.9895ZM41.1292 100.551C36.1868 100.576 31.3127 99.2599 27.036 96.7183L56.1667 47.7012C51.5147 44.9365 46.2104 43.5031 40.83 43.5313L41.1292 100.551ZM27.1715 96.7983L35.5878 101.737L64.4475 52.5602L56.0312 47.6211L27.1715 96.7983ZM64.4475 101.737L72.8638 96.7983L44.0041 47.6211L35.5878 52.5602L64.4475 101.737ZM72.2965 97.1226C68.3258 99.332 63.8777 100.504 59.3613 100.549L58.7827 43.5324C53.8191 43.5828 48.9319 44.8705 44.5714 47.2969L72.2965 97.1226ZM58.7326 100.549L68.5225 100.665L69.2012 43.6495L59.4114 43.533L58.7326 100.549ZM93.6549 86.2332L98.4462 77.7937L48.8601 49.6423L44.0688 58.0818L93.6549 86.2332ZM98.421 77.838C95.9364 82.1963 92.3192 85.753 87.9995 88.1613L60.2335 38.3584C55.5262 40.9828 51.5885 44.8564 48.8853 49.598L98.421 77.838ZM87.9555 88.1858L96.4896 83.4476L68.8117 33.5957L60.2776 38.3339L87.9555 88.1858ZM111.159 58.1746L111.041 48.4933L54.0249 49.1874L54.1428 58.8687L111.159 58.1746ZM111.037 48.246C111.146 53.4835 109.749 58.6261 107.033 63.0713L58.3735 33.3476C55.426 38.1729 53.9105 43.7531 54.029 49.4347L111.037 48.246ZM107.141 62.8933L112.14 54.5744L63.2643 25.2066L58.2657 33.5255L107.141 62.8933ZM112.19 25.2905L107.216 16.9475L58.2399 46.1474L63.2141 54.4904L112.19 25.2905ZM106.982 16.5623C109.771 21.0769 111.196 26.3203 111.058 31.6564L54.0568 30.1765C53.9067 35.957 55.45 41.6386 58.4737 46.5326L106.982 16.5623ZM111.065 31.2637L111.183 21.5864L54.1672 20.892L54.0493 30.5693L111.065 31.2637ZM96.514 -3.68679L87.9799 -8.42496L60.302 41.427L68.8362 46.1652L96.514 -3.68679ZM88.1016 -8.35697C92.4336 -5.92405 96.0528 -2.33441 98.5245 2.0584L48.8307 30.0193C51.5197 34.7984 55.4596 38.7078 60.1802 41.359L88.1016 -8.35697ZM98.4706 1.96316L93.6793 -6.47634L44.0932 21.675L48.8845 30.1145L98.4706 1.96316ZM68.5469 -20.9086L58.757 -20.7921L59.4358 36.2239L69.2256 36.1073L68.5469 -20.9086ZM59.3187 -20.7932C63.8798 -20.7577 68.374 -19.5743 72.3797 -17.3329L44.537 32.4271C48.9322 34.8864 53.8656 36.186 58.8741 36.225L59.3187 -20.7932ZM72.8882 -17.0415L64.4719 -21.9806L35.6122 27.1966L44.0285 32.1357L72.8882 -17.0415ZM35.6122 -21.9806L27.1959 -17.0415L56.0557 32.1357L64.4719 27.1966L35.6122 -21.9806ZM27.5215 -17.2297C31.6345 -19.571 36.2722 -20.7919 40.9743 -20.7941L41.0011 36.2259C46.1512 36.2235 51.2289 34.8862 55.7301 32.3239L27.5215 -17.2297ZM41.3273 -20.7921L31.5414 -20.9086L30.8623 36.1073L40.6482 36.2239L41.3273 -20.7921ZM6.40882 -6.47634L1.61748 1.96316L51.2036 30.1145L55.9949 21.675L6.40882 -6.47634ZM1.608 1.97987C4.10168 -2.41941 7.75103 -6.01181 12.1209 -8.43415L39.7656 41.4362C44.5271 38.7967 48.4998 34.8845 51.2131 30.0978L1.608 1.97987ZM12.1043 -8.42496L3.57014 -3.68679L31.248 46.1652L39.7821 41.427L12.1043 -8.42496ZM-11.0988 21.5864L-10.981 31.2637L46.0348 30.5693L45.9169 20.892L-11.0988 21.5864ZM-10.9806 31.2884C-11.0471 26.1931 -9.68758 21.2051 -7.08832 16.8748L41.8007 46.2201C44.629 41.5082 46.1068 36.0835 46.0345 30.5446L-10.9806 31.2884ZM-7.07412 16.8512L-12.093 25.1942L36.7676 54.5868L41.7865 46.2437L-7.07412 16.8512ZM-12.1088 54.5604L-7.11427 62.8833L41.778 33.5435L36.7835 25.2206L-12.1088 54.5604ZM-7.11262 62.8861C-9.71625 58.5485 -11.0714 53.5593 -11.005 48.4725L46.0101 49.2163C46.0822 43.6858 44.609 38.26 41.7764 33.5408L-7.11262 62.8861ZM-11.0054 48.4973L-11.1232 58.1786L45.8925 58.8728L46.0104 49.1915L-11.0054 48.4973ZM3.54572 83.4517L12.0799 88.1898L39.7578 38.3379L31.2236 33.5997L3.54572 83.4517ZM12.1745 88.2421C7.82315 85.8478 4.17319 82.291 1.6631 77.9202L51.1093 49.5238C48.3785 44.7687 44.4051 40.8949 39.6631 38.2856L12.1745 88.2421ZM1.59305 77.7975L6.38429 86.237L55.9706 58.086L51.1794 49.6465L1.59305 77.7975ZM31.5169 100.669L41.3028 100.553L40.6238 43.537L30.838 43.6535L31.5169 100.669ZM47.8058 99.7217L47.822 99.7177L34.1372 44.3642L34.1209 44.3682L47.8058 99.7217Z" fill="#00AEEF" mask="url(#path-3-inside-1_437_7390)"/>
<mask id="path-5-inside-2_437_7390" fill="white">
<path d="M50.0186 63.7461C45.2426 63.7461 40.5738 62.3453 36.603 59.7209C32.6322 57.0965 29.5376 53.3665 27.7109 49.0026C25.8841 44.6387 25.4072 39.837 26.3404 35.2051C27.2736 30.5731 29.5752 26.3189 32.9537 22.9806C36.3323 19.6423 40.6362 17.3699 45.3209 16.451C50.0056 15.532 54.8607 16.0077 59.272 17.8178C63.6833 19.628 67.4526 22.6914 70.1031 26.6204C72.7536 30.5493 74.1661 35.1674 74.1621 39.8905C74.1503 46.2173 71.6022 52.2813 67.0764 56.7531C62.5506 61.225 56.4164 63.7397 50.0186 63.7461ZM50.0186 18.4099C45.7255 18.4099 41.5289 19.6689 37.9594 22.0276C34.3899 24.3864 31.6079 27.7389 29.9652 31.6612C28.3225 35.5836 27.8929 39.8996 28.7307 44.0634C29.5686 48.2272 31.6362 52.0518 34.6722 55.0535C37.7081 58.0552 41.576 60.0992 45.7866 60.9269C49.9973 61.7547 54.3616 61.329 58.3276 59.7038C62.2937 58.0786 65.6832 55.3268 68.0678 51.7965C70.4523 48.2661 71.7246 44.1158 71.7238 39.8704C71.7162 34.1803 69.427 28.7255 65.358 24.7024C61.289 20.6792 55.7725 18.4163 50.0186 18.4099Z"/>
</mask>
<path d="M50.0186 63.7461L50.0186 92.2561L50.0328 92.2561L50.047 92.2561L50.0186 63.7461ZM74.1621 39.8905L102.672 39.9438L102.672 39.9293L102.672 39.9147L74.1621 39.8905ZM50.0186 18.4099L50.0502 -10.1L50.0344 -10.1001L50.0186 -10.1001L50.0186 18.4099ZM71.7238 39.8704L100.234 39.865L100.234 39.8488L100.234 39.8327L71.7238 39.8704ZM50.0186 35.2361C50.812 35.2361 51.6132 35.4673 52.3227 35.9363L20.8833 83.5056C29.5345 89.2233 39.6732 92.2561 50.0186 92.2561L50.0186 35.2361ZM52.3227 35.9363C53.0357 36.4075 53.64 37.1107 54.0096 37.9937L1.41214 60.0115C5.4353 69.6223 12.2286 77.7856 20.8833 83.5056L52.3227 35.9363ZM54.0096 37.9937C54.3806 38.88 54.4826 39.8739 54.2888 40.836L-1.60799 29.5741C-3.66829 39.8002 -2.61242 50.3974 1.41214 60.0115L54.0096 37.9937ZM54.2888 40.836C54.0953 41.7963 53.6264 42.634 52.9921 43.2607L12.9154 2.70041C5.52397 10.0037 0.451969 19.3498 -1.60799 29.5741L54.2888 40.836ZM52.9921 43.2607C52.361 43.8843 51.5954 44.2735 50.809 44.4278L39.8328 -11.5258C29.6769 -9.5336 20.3036 -4.59972 12.9154 2.70041L52.9921 43.2607ZM50.809 44.4278C50.0241 44.5817 49.2072 44.5048 48.4487 44.1935L70.0952 -8.55784C60.5141 -12.4895 49.9872 -13.5178 39.8328 -11.5258L50.809 44.4278ZM48.4487 44.1935C47.6873 43.8811 46.9854 43.3311 46.4682 42.5644L93.738 10.6763C87.9197 2.05159 79.6792 -4.62505 70.0952 -8.55784L48.4487 44.1935ZM46.4682 42.5644C45.9483 41.7938 45.6513 40.8542 45.6521 39.8662L102.672 39.9147C102.681 29.4807 99.5588 19.3049 93.738 10.6763L46.4682 42.5644ZM45.6521 39.8372C45.6546 38.514 46.1904 37.3106 47.0381 36.473L87.1147 77.0333C97.014 67.252 102.646 53.9205 102.672 39.9438L45.6521 39.8372ZM47.0381 36.473C47.875 35.6461 48.9425 35.2372 49.9902 35.2361L50.047 92.2561C63.8902 92.2423 77.2262 86.8039 87.1147 77.0333L47.0381 36.473ZM50.0186 -10.1001C40.1569 -10.1001 30.4911 -7.20955 22.2416 -1.75832L53.6772 45.8136C52.5667 46.5474 51.2942 46.9199 50.0186 46.9199L50.0186 -10.1001ZM22.2416 -1.75832C13.9887 3.69519 7.5079 11.4798 3.66824 20.648L56.2621 42.6745C55.7078 43.998 54.7911 45.0775 53.6772 45.8136L22.2416 -1.75832ZM3.66824 20.648C-0.172831 29.8195 -1.18241 39.9301 0.780928 49.6874L56.6805 38.4394C56.9682 39.8691 56.8178 41.3477 56.2621 42.6745L3.66824 20.648ZM0.780928 49.6874C2.74393 59.443 7.58021 68.3596 14.6272 75.3271L54.7171 34.7799C55.6923 35.744 56.3932 37.0114 56.6805 38.4394L0.780928 49.6874ZM14.6272 75.3271C21.6709 82.2914 30.6065 86.9984 40.2872 88.9015L51.286 32.9523C52.5454 33.1999 53.7453 33.819 54.7171 34.7799L14.6272 75.3271ZM40.2872 88.9015C49.9663 90.8043 60.0019 89.8286 69.1381 86.0848L47.5172 33.3229C48.7213 32.8295 50.0283 32.7051 51.286 32.9523L40.2872 88.9015ZM69.1381 86.0848C78.2772 82.3397 86.1391 75.9775 91.6935 67.7541L44.442 35.8389C45.2274 34.6761 46.3102 33.8175 47.5172 33.3229L69.1381 86.0848ZM91.6935 67.7541C97.2505 59.5268 100.236 49.8206 100.234 39.865L43.2138 39.8758C43.2135 38.411 43.654 37.0055 44.442 35.8389L91.6935 67.7541ZM100.234 39.8327C100.216 26.4905 94.8453 13.7646 85.4029 4.42876L45.313 44.976C44.0086 43.6863 43.2164 41.8701 43.2138 39.9081L100.234 39.8327ZM85.4029 4.42876C75.9714 -4.89639 63.2516 -10.0854 50.0502 -10.1L49.987 46.9199C48.2934 46.918 46.6065 46.2549 45.313 44.976L85.4029 4.42876Z" fill="#00AEEF" mask="url(#path-5-inside-2_437_7390)"/>
<path d="M47.1114 46.5181L47.11 46.5168L40.7582 40.2515L40.7461 40.2395L40.7336 40.228C40.7126 40.2086 40.6963 40.1858 40.6853 40.1613C40.6742 40.1367 40.6685 40.1108 40.668 40.0848C40.6675 40.0586 40.6724 40.0325 40.6824 40.0079C40.6925 39.9833 40.7078 39.96 40.7282 39.9399C40.7485 39.9198 40.7733 39.9034 40.8015 39.8921C40.8296 39.8809 40.8602 39.8752 40.8912 39.8758C40.9222 39.8763 40.9524 39.883 40.9801 39.8952C41.0077 39.9074 41.0318 39.9246 41.0513 39.9452L41.0634 39.9581L41.0759 39.9705L46.55 45.3838L47.2531 46.0792L47.9563 45.3838L58.9288 34.533C58.9694 34.4928 59.0269 34.4683 59.0892 34.4683C59.1514 34.4683 59.2089 34.4928 59.2496 34.533C59.2898 34.5728 59.3104 34.6245 59.3104 34.676C59.3104 34.7275 59.2898 34.7792 59.2496 34.819L47.4144 46.5189C47.4141 46.5192 47.4139 46.5194 47.4136 46.5197C47.3753 46.5569 47.3222 46.5803 47.2644 46.5823C47.205 46.5808 47.1503 46.5567 47.1114 46.5181Z" stroke="#00AEEF" stroke-width="2"/>
</svg>
