<svg width="121" height="120" viewBox="0 0 121 120" fill="none" xmlns="http://www.w3.org/2000/svg">
<g clip-path="url(#clip0_260_16211)">
<path d="M80.8667 53.8706V57.899C80.8668 58.2479 80.7696 58.5899 80.5862 58.8867C80.4028 59.1835 80.1403 59.4234 79.8282 59.5795L78.988 59.9995H101.537L99.8556 59.159C99.2315 58.8469 98.7066 58.3673 98.3397 57.7737C97.9728 57.1802 97.7784 56.4963 97.7783 55.7985L97.7757 24.3027H69.5942V39.333C69.5942 46.3338 74.3877 52.1997 80.8667 53.8706Z" fill="white"/>
<path d="M35.7758 63.7568H20.7456C12.4447 63.7568 5.71533 70.4862 5.71533 78.7871V101.333H45.1698V73.1508C45.1698 67.9627 40.9639 63.7568 35.7758 63.7568Z" fill="#418EFF"/>
<path d="M20.7456 69.3931H24.5031V63.7568H20.7456C12.4447 63.7568 5.71533 70.4862 5.71533 78.7871V101.333H11.3516V78.7871C11.3518 73.6071 15.5659 69.3931 20.7456 69.3931Z" fill="#002C54"/>
<path d="M28.2618 71.2723C24.1113 71.2723 20.7466 67.9076 20.7466 63.7573V54.3633H35.7768V63.7573C35.7768 67.9076 32.4124 71.2723 28.2618 71.2723Z" fill="white"/>
<path d="M20.7466 63.1319C23.4993 64.7158 26.6803 65.6359 30.0775 65.6359C32.0118 65.6359 33.9345 65.3358 35.7768 64.7465V56.2422H20.7466V63.1319Z" fill="white"/>
<path d="M52.6859 75.0293H18.8677V101.332H52.6856C54.7608 101.332 56.4431 99.6499 56.4431 97.5748V78.787C56.4434 76.7116 54.761 75.0293 52.6859 75.0293Z" fill="white"/>
<path d="M18.8674 75.0293C16.7922 75.0293 15.1099 76.7116 15.1099 78.7868V97.5745C15.1099 99.6497 16.7922 101.332 18.8674 101.332H52.6853C54.7605 101.332 56.4428 99.6497 56.4428 97.5745H56.4424L56.4428 95.6958H26.3826C23.2696 95.6958 20.7463 93.1723 20.7463 90.0595V75.0293H18.8674Z" fill="#002C54"/>
<path d="M22.5626 29.9395C28.5354 34.1746 37.069 35.5476 41.7375 35.9913C43.6568 36.1736 45.1078 37.7999 45.1078 39.7279V44.9697C45.1078 53.2705 38.3785 59.9999 30.0776 59.9999C21.7767 59.9999 15.0474 53.2705 15.0474 44.9697V44.9664C15.0473 40.6358 16.6572 36.4599 19.5642 33.25L22.5626 29.9395Z" fill="white"/>
<path d="M35.7736 91.9388C37.8488 91.9388 39.5311 90.2565 39.5311 88.1813C39.5311 86.1061 37.8488 84.4238 35.7736 84.4238C33.6984 84.4238 32.0161 86.1061 32.0161 88.1813C32.0161 90.2565 33.6984 91.9388 35.7736 91.9388Z" fill="white"/>
<path d="M108.651 63.5576L101.536 60H78.9878L68.1118 65.438C66.8635 66.0621 65.8137 67.0215 65.0799 68.2087C64.3462 69.3959 63.9575 70.764 63.9575 72.1596V108.848H112.806V70.2795C112.806 68.8838 112.417 67.5157 111.683 66.3284C110.95 65.1412 109.9 64.1817 108.651 63.5576Z" fill="#00AEEF"/>
<path d="M77.1092 81.4239C77.1092 80.0151 76.7924 78.6243 76.1821 77.3546C75.5718 76.0848 74.6837 74.9685 73.5835 74.0885L65.5004 67.6221C64.5252 68.9062 63.9575 70.4864 63.9575 72.1596V108.848H77.109L77.1092 81.4239Z" fill="#00AEEF"/>
<path d="M110.928 82.5449H84.6251C80.4746 82.5449 77.1099 85.9096 77.1099 90.0602L82.7461 108.848H118.443V90.0602C118.443 85.9094 115.078 82.5449 110.928 82.5449Z" fill="#E2E2E2"/>
<path d="M80.867 53.8705V24.3027H69.5942V39.333C69.5945 46.3337 74.3879 52.1997 80.867 53.8705Z" fill="white"/>
<path d="M90.2613 82.5449H84.6251C80.4746 82.5449 77.1099 85.9096 77.1099 90.0602V108.848H82.7461V90.0602C82.7463 85.9094 86.1108 82.5449 90.2613 82.5449Z" fill="#857E87"/>
<path d="M20.7464 44.9697V31.9443L19.564 33.2498C16.6571 36.4597 15.0473 40.6357 15.0474 44.9662V44.9697C15.0474 53.2706 21.7765 60 30.0776 60C31.0528 60 32.0037 59.8994 32.9271 59.722C25.9901 58.3896 20.7464 52.2956 20.7464 44.9697Z" fill="white"/>
<path d="M35.7736 82.666C32.7324 82.666 30.2583 85.1403 30.2583 88.1813C30.2583 91.2226 32.7326 93.6969 35.7736 93.6969C38.8146 93.6969 41.2889 91.2226 41.2889 88.1813C41.2889 85.1403 38.8146 82.666 35.7736 82.666ZM35.7736 90.1812C34.6709 90.1812 33.7739 89.2841 33.7739 88.1813C33.7739 87.0786 34.6711 86.1816 35.7736 86.1816C36.8761 86.1816 37.7733 87.0788 37.7733 88.1813C37.7733 89.2843 36.8761 90.1812 35.7736 90.1812Z" fill="#414142"/>
<path d="M114.563 81.5309V70.279C114.563 66.7439 112.599 63.5658 109.437 61.985L100.641 57.5867C100.308 57.4216 100.028 57.1666 99.8329 56.8506C99.6376 56.5346 99.5346 56.1702 99.5358 55.7986L99.5335 47.862C102.844 46.445 105.169 43.1557 105.169 39.3329V26.1814C105.169 17.9604 98.4811 11.2721 90.2602 11.2721H75.2299C69.0809 11.2721 64.0781 16.2748 64.0781 22.4239C64.0781 24.8504 65.6541 26.9145 67.8356 27.6504V39.3331C67.8356 46.5207 72.4064 52.8502 79.1084 55.1747V57.9736L67.3254 63.8651C64.1637 65.446 62.1994 68.6241 62.1994 72.1592V99.575H57.7643C58.0524 98.8832 58.2004 98.1411 58.1998 97.3918V78.9708C58.1998 75.8286 55.6432 73.272 52.501 73.272H46.927V73.1511C46.927 67.6001 42.8499 62.9846 37.5328 62.1392V60.0045C42.3394 57.6108 45.8449 52.9824 46.6749 47.486C49.2206 44.7945 50.6215 41.2493 50.6215 37.4543C50.6215 31.3763 48.6511 25.7754 45.0734 21.6837C41.3215 17.393 35.9953 15.0298 30.076 15.0298C29.2859 15.0298 28.5056 15.0715 27.7367 15.1514C25.3275 11.5777 21.2691 9.39355 16.9247 9.39355C9.73971 9.39355 3.89416 15.2389 3.89416 22.4241C3.89416 26.1872 5.48369 29.7 8.28096 32.1755C7.86241 33.9039 7.65115 35.676 7.65166 37.4543C7.65166 42.3029 9.93096 46.6768 13.9095 49.4832C14.7949 52.65 16.586 55.4407 18.9872 57.5583V62.0918C10.5537 62.9736 3.95721 70.1243 3.95721 78.7873V99.575H1.95752C1.49132 99.575 1.04421 99.7602 0.714558 100.09C0.384905 100.419 0.199707 100.867 0.199707 101.333C0.199707 101.799 0.384905 102.246 0.714558 102.576C1.04421 102.905 1.49132 103.091 1.95752 103.091H62.1994V108.848C62.1994 109.314 62.3846 109.761 62.7142 110.091C63.0439 110.42 63.491 110.606 63.9572 110.606C64.4234 110.606 64.8705 110.42 65.2002 110.091C65.5298 109.761 65.715 109.314 65.715 108.848V72.1592C65.715 71.4164 65.8578 70.7004 66.1186 70.0383L72.6033 75.4423C73.4643 76.158 74.157 77.0548 74.6319 78.0687C75.1068 79.0826 75.3523 80.1888 75.3509 81.3085V108.848C75.3509 109.314 75.5361 109.761 75.8657 110.091C76.1954 110.42 76.6425 110.606 77.1087 110.606C77.5749 110.606 78.022 110.42 78.3517 110.091C78.6813 109.761 78.8665 109.314 78.8665 108.848V90.06C78.8665 86.8854 81.4493 84.3026 84.6237 84.3026H110.927C114.101 84.3026 116.684 86.8854 116.684 90.06V108.848C116.684 109.314 116.869 109.761 117.199 110.091C117.528 110.42 117.975 110.606 118.442 110.606C118.908 110.606 119.355 110.42 119.685 110.091C120.014 109.761 120.199 109.314 120.199 108.848V90.06C120.2 86.2372 117.874 82.9477 114.563 81.5309ZM7.41002 22.4239C7.41002 17.1774 11.6782 12.9089 16.9249 12.9089C19.5729 12.9089 22.073 14.0239 23.8517 15.9094C17.4422 17.7643 12.2063 22.4079 9.54799 28.4349C8.17291 26.7542 7.41002 24.6495 7.41002 22.4239ZM13.3095 44.067C11.9145 42.1925 11.1675 39.9336 11.1675 37.4543C11.1675 27.0279 19.65 18.5454 30.0762 18.5454C35.0372 18.5454 39.308 20.4307 42.4271 23.9979C45.4444 27.4486 47.1061 32.2275 47.1061 37.4543C47.1061 38.2742 47.0229 39.0692 46.8642 39.8356V39.7275C46.8642 36.8686 44.7312 34.5099 41.9025 34.2411C37.4881 33.8213 29.2374 32.5182 23.5779 28.505C23.2271 28.2562 22.7974 28.1447 22.3699 28.1915C21.9425 28.2382 21.547 28.4401 21.2583 28.7588L18.2602 32.0693C15.2654 35.3714 13.5148 39.6139 13.3095 44.067ZM16.8038 44.9658C16.801 41.0708 18.2492 37.3145 20.866 34.4295L22.8525 32.236C29.052 36.0457 37.1264 37.3184 41.5699 37.7407C42.5841 37.8371 43.3486 38.6911 43.3486 39.7273V44.9691C43.3486 52.2875 37.3946 58.2415 30.0762 58.2415C22.7578 58.2415 16.8038 52.2877 16.8038 44.9658ZM34.0177 61.2856V61.8783C34.0177 65.0529 31.4349 67.6355 28.2603 67.6355C25.0856 67.6355 22.5031 65.0527 22.5031 61.8783V59.9447C24.8491 61.1381 27.4443 61.7592 30.0764 61.7574C31.4337 61.7574 32.7525 61.5912 34.0177 61.2856ZM54.6844 97.3918C54.6844 98.5955 53.7049 99.575 52.5012 99.575H19.05C17.8463 99.575 16.8668 98.5955 16.8668 97.3918V88.1813C16.8668 87.7151 16.6816 87.268 16.352 86.9383C16.0223 86.6087 15.5752 86.4235 15.109 86.4235C14.6428 86.4235 14.1957 86.6087 13.866 86.9383C13.5364 87.268 13.3512 87.7151 13.3512 88.1813V97.3918C13.3512 98.165 13.5066 98.9021 13.7867 99.575H7.47283V78.7873C7.47283 71.8041 12.8949 66.0675 19.7496 65.5561C21.1763 68.8447 24.4533 71.1511 28.2603 71.1511C32.0576 71.1511 35.3276 68.8557 36.7599 65.5803C40.5068 66.065 43.4117 69.274 43.4117 73.1508V73.2718H19.05C15.9078 73.2718 13.3512 75.8283 13.3512 78.9706V80.6658C13.3512 81.132 13.5364 81.5791 13.866 81.9088C14.1957 82.2384 14.6428 82.4236 15.109 82.4236C15.5752 82.4236 16.0223 82.2384 16.352 81.9088C16.6816 81.5791 16.8668 81.132 16.8668 80.6658V78.9706C16.8668 77.7668 17.8463 76.7874 19.05 76.7874H45.1627L45.1695 76.7876L45.1763 76.7874H52.5012C53.7049 76.7874 54.6844 77.7668 54.6844 78.9706V97.3918ZM71.3515 39.3331V27.9394H71.4724C73.6111 27.9394 75.3509 29.6794 75.3509 31.8181V37.4543C75.3509 43.6034 80.3536 48.6061 86.5027 48.6061H88.3812C88.8474 48.6061 89.2945 48.4209 89.6242 48.0913C89.9538 47.7616 90.139 47.3145 90.139 46.8483C90.139 46.3821 89.9538 45.935 89.6242 45.6054C89.2945 45.2757 88.8474 45.0905 88.3812 45.0905H86.5027C82.2921 45.0905 78.8665 41.6649 78.8665 37.4543V31.8181C78.8665 27.7409 75.5496 24.4238 71.4724 24.4238H69.5937C68.491 24.4238 67.594 23.5266 67.594 22.4241C67.594 18.2136 71.0196 14.7879 75.2302 14.7879H90.2604C96.5428 14.7879 101.654 19.8992 101.654 26.1816V39.3331C101.654 42.5077 99.0713 45.0903 95.8969 45.0903C95.4307 45.0903 94.9836 45.2755 94.6539 45.6051C94.3243 45.9348 94.1391 46.3819 94.1391 46.8481C94.1391 47.3143 94.3243 47.7614 94.6539 48.091C94.9836 48.4207 95.4307 48.6059 95.8969 48.6059C95.9377 48.6059 95.9777 48.6033 96.0183 48.6029L96.0204 55.7998C96.0201 56.6467 96.2148 57.4822 96.5892 58.2418H82.6245V53.8707C82.6244 53.4809 82.4949 53.1022 82.2562 52.7941C82.0174 52.486 81.6831 52.266 81.3056 52.1686C75.4446 50.6571 71.3515 45.379 71.3515 39.3331ZM111.048 80.79C111.007 80.7896 110.967 80.787 110.927 80.787H84.6237C82.4496 80.787 80.4492 81.541 78.8665 82.7989V81.3085C78.8686 79.6733 78.51 78.0578 77.8165 76.5771C77.123 75.0963 76.1115 73.7866 74.854 72.7414L68.3527 67.3236C68.5278 67.2111 68.7082 67.1044 68.8976 67.0097L79.4023 61.7574H101.121L107.865 65.1296C109.828 66.1111 111.048 68.0841 111.048 70.279V80.79Z" fill="#414142"/>
</g>
<defs>
<clipPath id="clip0_260_16211">
<rect width="120" height="120" fill="white" transform="translate(0.199707)"/>
</clipPath>
</defs>
</svg>
