<svg width="280" height="280" viewBox="0 0 280 280" fill="none" xmlns="http://www.w3.org/2000/svg">
<path d="M140.003 267.272C210.294 267.272 267.276 210.29 267.276 139.999C267.276 69.7085 210.294 12.7266 140.003 12.7266C69.7124 12.7266 12.7305 69.7085 12.7305 139.999C12.7305 210.29 69.7124 267.272 140.003 267.272Z" fill="#F9D9A4"/>
<path d="M27.9996 17.8176C32.2171 17.8176 35.636 14.3987 35.636 10.1813C35.636 5.96384 32.2171 2.54492 27.9996 2.54492C23.7822 2.54492 20.3633 5.96384 20.3633 10.1813C20.3633 14.3987 23.7822 17.8176 27.9996 17.8176Z" fill="#6CB57C"/>
<path d="M269.82 40.7259C274.037 40.7259 277.456 37.3069 277.456 33.0895C277.456 28.872 274.037 25.4531 269.82 25.4531C265.603 25.4531 262.184 28.872 262.184 33.0895C262.184 37.3069 265.603 40.7259 269.82 40.7259Z" fill="#C67E3B"/>
<path d="M234.183 277.454C238.401 277.454 241.82 274.035 241.82 269.818C241.82 265.601 238.401 262.182 234.183 262.182C229.966 262.182 226.547 265.601 226.547 269.818C226.547 274.035 229.966 277.454 234.183 277.454Z" fill="#6CB57C"/>
<path d="M10.1832 239.273C14.4007 239.273 17.8196 235.854 17.8196 231.636C17.8196 227.419 14.4007 224 10.1832 224C5.96579 224 2.54688 227.419 2.54688 231.636C2.54688 235.854 5.96579 239.273 10.1832 239.273Z" fill="#6CB57C"/>
<path d="M48.3654 50.9082H231.638C234.339 50.9082 236.928 51.9809 238.838 53.8904C240.747 55.7999 241.82 58.3896 241.82 61.09V203.635H38.1836V61.09C38.1836 58.3896 39.2563 55.7999 41.1658 53.8904C43.0752 51.9809 45.665 50.9082 48.3654 50.9082Z" fill="#6CB57C"/>
<path d="M241.82 203.637V216.364C238.454 220.849 234.789 225.101 230.849 229.091H49.1545C45.2149 225.101 41.5495 220.849 38.1836 216.364V203.637H241.82Z" fill="#51362D"/>
<path d="M48.3633 76.3633H231.636V190.909C231.636 191.584 231.368 192.231 230.89 192.709C230.413 193.186 229.766 193.454 229.091 193.454H50.9087C50.2336 193.454 49.5862 193.186 49.1088 192.709C48.6315 192.231 48.3633 191.584 48.3633 190.909V76.3633Z" fill="white"/>
<path d="M168 254.544H112C116.957 247.935 119.636 239.897 119.636 231.635V229.09H160.364V231.635C160.364 239.897 163.043 247.935 168 254.544Z" fill="#D0D5DD"/>
<path d="M185.82 257.091V258.745C156.334 270.123 123.67 270.123 94.1836 258.745V257.091C94.1836 255.741 94.72 254.446 95.6747 253.491C96.6294 252.536 97.9243 252 99.2745 252H180.729C182.079 252 183.374 252.536 184.329 253.491C185.284 254.446 185.82 255.741 185.82 257.091Z" fill="#51362D"/>
<path d="M145.093 221.453H134.911C133.561 221.453 132.266 220.917 131.311 219.962C130.357 219.007 129.82 217.713 129.82 216.362C129.82 215.012 130.357 213.717 131.311 212.763C132.266 211.808 133.561 211.271 134.911 211.271H145.093C146.443 211.271 147.738 211.808 148.693 212.763C149.648 213.717 150.184 215.012 150.184 216.362C150.184 217.713 149.648 219.007 148.693 219.962C147.738 220.917 146.443 221.453 145.093 221.453Z" fill="white"/>
<path d="M76.3633 61.0898H229.091C229.766 61.0898 230.413 61.358 230.89 61.8354C231.368 62.3128 231.636 62.9602 231.636 63.6353V76.3626H76.3633V61.0898Z" fill="#D0D5DD"/>
<path d="M50.9087 61.0898H78.9087C81.6091 61.0898 84.1989 62.1626 86.1084 64.072C88.0178 65.9815 89.0906 68.5713 89.0906 71.2717V76.3626H48.3633V63.6353C48.3633 62.9602 48.6315 62.3128 49.1088 61.8354C49.5862 61.358 50.2336 61.0898 50.9087 61.0898Z" fill="#6CB57C"/>
<path d="M81.4556 71.2725C82.8614 71.2725 84.0011 70.1329 84.0011 68.7271C84.0011 67.3213 82.8614 66.1816 81.4556 66.1816C80.0498 66.1816 78.9102 67.3213 78.9102 68.7271C78.9102 70.1329 80.0498 71.2725 81.4556 71.2725Z" fill="white"/>
<path d="M224.002 71.2725C225.408 71.2725 226.548 70.1329 226.548 68.7271C226.548 67.3213 225.408 66.1816 224.002 66.1816C222.597 66.1816 221.457 67.3213 221.457 68.7271C221.457 70.1329 222.597 71.2725 224.002 71.2725Z" fill="white"/>
<path d="M213.819 71.2725C215.225 71.2725 216.364 70.1329 216.364 68.7271C216.364 67.3213 215.225 66.1816 213.819 66.1816C212.413 66.1816 211.273 67.3213 211.273 68.7271C211.273 70.1329 212.413 71.2725 213.819 71.2725Z" fill="white"/>
<path d="M203.639 71.2725C205.045 71.2725 206.185 70.1329 206.185 68.7271C206.185 67.3213 205.045 66.1816 203.639 66.1816C202.233 66.1816 201.094 67.3213 201.094 68.7271C201.094 70.1329 202.233 71.2725 203.639 71.2725Z" fill="white"/>
<path d="M68.4224 96.7259H18.1243C16.7159 96.7177 15.3348 96.3364 14.1217 95.6207C12.9087 94.9049 11.9071 93.8805 11.2189 92.6516C10.5307 91.4227 10.1806 90.0334 10.2042 88.6251C10.2279 87.2169 10.6244 85.8401 11.3534 84.635L35.637 45.0786C36.4458 43.7514 37.5824 42.6545 38.9376 41.8933C40.2927 41.1322 41.8209 40.7324 43.3752 40.7324C44.9295 40.7324 46.4576 41.1322 47.8128 41.8933C49.1679 42.6545 50.3045 43.7514 51.1134 45.0786L75.2952 84.635C76.0287 85.8475 76.4255 87.2337 76.4447 88.6506C76.464 90.0676 76.1049 91.464 75.4047 92.696C74.7044 93.9279 73.6882 94.9508 72.4609 95.6592C71.2336 96.3676 69.8395 96.7358 68.4224 96.7259Z" fill="#C67E3B"/>
<path d="M47.6541 61.091L46.1777 71.2728C46.0843 71.9763 45.7386 72.6219 45.2048 73.0895C44.671 73.5571 43.9855 73.8149 43.2759 73.8149C42.5663 73.8149 41.8808 73.5571 41.347 73.0895C40.8132 72.6219 40.4675 71.9763 40.3741 71.2728L38.8977 61.091C38.798 60.46 38.8368 59.8149 39.0113 59.2003C39.1859 58.5858 39.4921 58.0166 39.9086 57.5323C40.3252 57.0479 40.8421 56.66 41.4236 56.3954C42.005 56.1309 42.6371 55.996 43.2759 56.0001C43.9147 55.996 44.5468 56.1309 45.1283 56.3954C45.7097 56.66 46.2267 57.0479 46.6432 57.5323C47.0597 58.0166 47.3659 58.5858 47.5405 59.2003C47.715 59.8149 47.7538 60.46 47.6541 61.091Z" fill="white"/>
<path d="M43.2745 89.09C46.0861 89.09 48.3654 86.8107 48.3654 83.9991C48.3654 81.1875 46.0861 78.9082 43.2745 78.9082C40.4629 78.9082 38.1836 81.1875 38.1836 83.9991C38.1836 86.8107 40.4629 89.09 43.2745 89.09Z" fill="white"/>
<path d="M261.879 218.908H211.581C210.173 218.899 208.792 218.518 207.579 217.802C206.366 217.087 205.364 216.062 204.676 214.833C203.988 213.604 203.638 212.215 203.661 210.807C203.685 209.399 204.081 208.022 204.81 206.817L229.094 167.26C229.903 165.933 231.039 164.836 232.395 164.075C233.75 163.314 235.278 162.914 236.832 162.914C238.386 162.914 239.915 163.314 241.27 164.075C242.625 164.836 243.762 165.933 244.57 167.26L268.752 206.817C269.486 208.029 269.883 209.415 269.902 210.832C269.921 212.249 269.562 213.646 268.862 214.878C268.161 216.11 267.145 217.132 265.918 217.841C264.691 218.549 263.297 218.917 261.879 218.908Z" fill="#C67E3B"/>
<path d="M241.107 183.273L239.631 193.454C239.537 194.158 239.192 194.804 238.658 195.271C238.124 195.739 237.439 195.997 236.729 195.997C236.019 195.997 235.334 195.739 234.8 195.271C234.266 194.804 233.921 194.158 233.827 193.454L232.351 183.273C232.251 182.642 232.29 181.996 232.464 181.382C232.639 180.767 232.945 180.198 233.362 179.714C233.778 179.23 234.295 178.842 234.877 178.577C235.458 178.312 236.09 178.178 236.729 178.182C237.368 178.178 238 178.312 238.581 178.577C239.163 178.842 239.68 179.23 240.096 179.714C240.513 180.198 240.819 180.767 240.994 181.382C241.168 181.996 241.207 182.642 241.107 183.273Z" fill="white"/>
<path d="M236.728 211.272C239.539 211.272 241.819 208.992 241.819 206.181C241.819 203.369 239.539 201.09 236.728 201.09C233.916 201.09 231.637 203.369 231.637 206.181C231.637 208.992 233.916 211.272 236.728 211.272Z" fill="white"/>
<path d="M112.003 139.999H109.457V129.818C109.457 129.142 109.189 128.495 108.712 128.018C108.234 127.54 107.587 127.272 106.912 127.272C106.237 127.272 105.589 127.54 105.112 128.018C104.635 128.495 104.366 129.142 104.366 129.818V139.999H90.1883L99.1228 115.41C99.3305 114.781 99.2846 114.096 98.9949 113.5C98.7052 112.904 98.1945 112.444 97.5714 112.219C96.9483 111.993 96.2618 112.02 95.6579 112.293C95.054 112.565 94.5803 113.063 94.3374 113.679L84.1556 141.679C84.0166 142.064 83.9722 142.476 84.0262 142.881C84.0801 143.286 84.2308 143.672 84.4655 144.007C84.7002 144.341 85.012 144.614 85.3745 144.803C85.737 144.992 86.1396 145.09 86.5483 145.09H104.366V155.272C104.366 155.947 104.635 156.595 105.112 157.072C105.589 157.549 106.237 157.818 106.912 157.818C107.587 157.818 108.234 157.549 108.712 157.072C109.189 156.595 109.457 155.947 109.457 155.272V145.09H112.003C112.678 145.09 113.325 144.822 113.803 144.345C114.28 143.867 114.548 143.22 114.548 142.545C114.548 141.87 114.28 141.222 113.803 140.745C113.325 140.268 112.678 139.999 112.003 139.999ZM193.457 139.999H190.912V129.818C190.912 129.142 190.644 128.495 190.166 128.018C189.689 127.54 189.042 127.272 188.366 127.272C187.691 127.272 187.044 127.54 186.567 128.018C186.089 128.495 185.821 129.142 185.821 129.818V139.999H171.643L180.577 115.41C180.702 115.094 180.762 114.755 180.754 114.415C180.746 114.075 180.669 113.74 180.529 113.429C180.389 113.119 180.188 112.84 179.938 112.609C179.689 112.378 179.395 112.199 179.075 112.083C178.755 111.968 178.415 111.917 178.075 111.935C177.735 111.953 177.402 112.039 177.096 112.188C176.79 112.337 176.517 112.545 176.293 112.801C176.069 113.058 175.899 113.356 175.792 113.679L165.61 141.679C165.471 142.064 165.427 142.476 165.481 142.881C165.535 143.286 165.685 143.672 165.92 144.007C166.155 144.341 166.467 144.614 166.829 144.803C167.192 144.992 167.594 145.09 168.003 145.09H185.821V155.272C185.821 155.947 186.089 156.595 186.567 157.072C187.044 157.549 187.691 157.818 188.366 157.818C189.042 157.818 189.689 157.549 190.166 157.072C190.644 156.595 190.912 155.947 190.912 155.272V145.09H193.457C194.132 145.09 194.78 144.822 195.257 144.345C195.735 143.867 196.003 143.22 196.003 142.545C196.003 141.87 195.735 141.222 195.257 140.745C194.78 140.268 194.132 139.999 193.457 139.999ZM145.094 111.999H134.912C132.212 111.999 129.622 113.072 127.712 114.982C125.803 116.891 124.73 119.481 124.73 122.181V147.636C124.73 150.336 125.803 152.926 127.712 154.835C129.622 156.745 132.212 157.818 134.912 157.818H145.094C147.794 157.818 150.384 156.745 152.293 154.835C154.203 152.926 155.276 150.336 155.276 147.636V122.181C155.276 119.481 154.203 116.891 152.293 114.982C150.384 113.072 147.794 111.999 145.094 111.999ZM150.185 147.636C150.185 148.986 149.648 150.281 148.694 151.236C147.739 152.19 146.444 152.727 145.094 152.727H134.912C133.562 152.727 132.267 152.19 131.312 151.236C130.357 150.281 129.821 148.986 129.821 147.636V122.181C129.821 120.831 130.357 119.536 131.312 118.581C132.267 117.627 133.562 117.09 134.912 117.09H145.094C146.444 117.09 147.739 117.627 148.694 118.581C149.648 119.536 150.185 120.831 150.185 122.181V147.636Z" fill="#6CB57C"/>
<path d="M69.771 114.546L73.0801 111.262C73.5594 110.783 73.8287 110.133 73.8287 109.455C73.8287 108.777 73.5594 108.127 73.0801 107.647C72.6008 107.168 71.9507 106.899 71.2728 106.899C70.595 106.899 69.9449 107.168 69.4656 107.647L66.1819 110.956L62.8983 107.647C62.419 107.168 61.7689 106.899 61.091 106.899C60.4132 106.899 59.7631 107.168 59.2838 107.647C58.8044 108.127 58.5352 108.777 58.5352 109.455C58.5352 110.133 58.8044 110.783 59.2838 111.262L62.5928 114.546L59.2838 117.829C58.8044 118.309 58.5352 118.959 58.5352 119.636C58.5352 120.314 58.8044 120.964 59.2838 121.444C59.7631 121.923 60.4132 122.192 61.091 122.192C61.7689 122.192 62.419 121.923 62.8983 121.444L66.1819 118.135L69.4656 121.444C69.9449 121.923 70.595 122.192 71.2728 122.192C71.9507 122.192 72.6008 121.923 73.0801 121.444C73.5594 120.964 73.8287 120.314 73.8287 119.636C73.8287 118.959 73.5594 118.309 73.0801 117.829L69.771 114.546ZM204.68 175.636L207.989 172.353C208.469 171.874 208.738 171.223 208.738 170.546C208.738 169.868 208.469 169.218 207.989 168.738C207.51 168.259 206.86 167.99 206.182 167.99C205.504 167.99 204.854 168.259 204.375 168.738L201.091 172.047L197.807 168.738C197.328 168.259 196.678 167.99 196 167.99C195.322 167.99 194.672 168.259 194.193 168.738C193.714 169.218 193.444 169.868 193.444 170.546C193.444 171.223 193.714 171.874 194.193 172.353L197.502 175.636L194.193 178.92C193.714 179.399 193.444 180.05 193.444 180.727C193.444 181.405 193.714 182.055 194.193 182.535C194.672 183.014 195.322 183.283 196 183.283C196.678 183.283 197.328 183.014 197.807 182.535L201.091 179.226L204.375 182.535C204.854 183.014 205.504 183.283 206.182 183.283C206.86 183.283 207.51 183.014 207.989 182.535C208.469 182.055 208.738 181.405 208.738 180.727C208.738 180.05 208.469 179.399 207.989 178.92L204.68 175.636ZM217.407 94.1819L220.716 90.8983C221.196 90.419 221.465 89.7689 221.465 89.091C221.465 88.4132 221.196 87.7631 220.716 87.2838C220.237 86.8044 219.587 86.5352 218.909 86.5352C218.231 86.5352 217.581 86.8044 217.102 87.2838L213.818 90.5928L210.535 87.2838C210.055 86.8044 209.405 86.5352 208.727 86.5352C208.05 86.5352 207.399 86.8044 206.92 87.2838C206.441 87.7631 206.172 88.4132 206.172 89.091C206.172 89.7689 206.441 90.419 206.92 90.8983L210.229 94.1819L206.92 97.4656C206.441 97.9449 206.172 98.595 206.172 99.2728C206.172 99.9507 206.441 100.601 206.92 101.08C207.399 101.559 208.05 101.829 208.727 101.829C209.405 101.829 210.055 101.559 210.535 101.08L213.818 97.771L217.102 101.08C217.581 101.559 218.231 101.829 218.909 101.829C219.587 101.829 220.237 101.559 220.716 101.08C221.196 100.601 221.465 99.9507 221.465 99.2728C221.465 98.595 221.196 97.9449 220.716 97.4656L217.407 94.1819Z" fill="#51362D"/>
<path d="M63.6392 175.636C65.045 175.636 66.1847 174.496 66.1847 173.09C66.1847 171.685 65.045 170.545 63.6392 170.545C62.2334 170.545 61.0938 171.685 61.0938 173.09C61.0938 174.496 62.2334 175.636 63.6392 175.636Z" fill="#C67E3B"/>
<path d="M104.366 99.2725C105.772 99.2725 106.911 98.1329 106.911 96.7271C106.911 95.3213 105.772 94.1816 104.366 94.1816C102.96 94.1816 101.82 95.3213 101.82 96.7271C101.82 98.1329 102.96 99.2725 104.366 99.2725Z" fill="#C67E3B"/>
<path d="M213.823 132.362C215.229 132.362 216.368 131.223 216.368 129.817C216.368 128.411 215.229 127.271 213.823 127.271C212.417 127.271 211.277 128.411 211.277 129.817C211.277 131.223 212.417 132.362 213.823 132.362Z" fill="#C67E3B"/>
<path d="M134.913 178.183C136.318 178.183 137.458 177.043 137.458 175.637C137.458 174.231 136.318 173.092 134.913 173.092C133.507 173.092 132.367 174.231 132.367 175.637C132.367 177.043 133.507 178.183 134.913 178.183Z" fill="#C67E3B"/>
<path d="M180.729 104.364C182.135 104.364 183.275 103.225 183.275 101.819C183.275 100.413 182.135 99.2734 180.729 99.2734C179.323 99.2734 178.184 100.413 178.184 101.819C178.184 103.225 179.323 104.364 180.729 104.364Z" fill="#C67E3B"/>
</svg>
