<svg width="37" height="37" viewBox="0 0 37 37" fill="none" xmlns="http://www.w3.org/2000/svg">
<g clip-path="url(#clip0_355_13999)">
<path d="M14.8179 28.767V18.8207H12.1123V15.2395H14.8179V12.1807C14.8179 9.77713 16.4161 7.56982 20.0987 7.56982C21.5897 7.56982 22.6922 7.70877 22.6922 7.70877L22.6053 11.053C22.6053 11.053 21.4809 11.0423 20.2539 11.0423C18.9259 11.0423 18.7132 11.6372 18.7132 12.6246V15.2395H22.7109L22.537 18.8207H18.7132V28.767H14.8179" fill="#111111"/>
</g>
<defs>
<clipPath id="clip0_355_13999">
<rect width="10.5986" height="21.1972" fill="white" transform="translate(12.1123 7.56982)"/>
</clipPath>
</defs>
</svg>
