<svg width="33" height="32" viewBox="0 0 33 32" fill="none" xmlns="http://www.w3.org/2000/svg">
<g clip-path="url(#clip0_2706_13951)">
<path d="M13.8842 25.3327V16.5737H11.5016V13.4201H13.8842V10.7265C13.8842 8.60981 15.2916 6.66602 18.5346 6.66602C19.8476 6.66602 20.8185 6.78838 20.8185 6.78838L20.742 9.73334C20.742 9.73334 19.7518 9.72397 18.6713 9.72397C17.5018 9.72397 17.3145 10.2479 17.3145 11.1174V13.4201H20.835L20.6818 16.5737H17.3145V25.3327H13.8842Z" fill="white"/>
</g>
<defs>
<clipPath id="clip0_2706_13951">
<rect width="9.33333" height="18.6667" fill="white" transform="translate(11.5016 6.66602)"/>
</clipPath>
</defs>
</svg>
