<svg width="20" height="15" viewBox="0 0 20 15" fill="none" xmlns="http://www.w3.org/2000/svg">
<mask id="mask0_355_14665" style="mask-type:luminance" maskUnits="userSpaceOnUse" x="0" y="0" width="20" height="15">
<rect width="20" height="15" fill="white"/>
</mask>
<g mask="url(#mask0_355_14665)">
<path fill-rule="evenodd" clip-rule="evenodd" d="M0 0H20V15H0V0Z" fill="#F7FCFF"/>
<path fill-rule="evenodd" clip-rule="evenodd" d="M0 0V15H20V0H0Z" fill="#E31D1C"/>
<mask id="mask1_355_14665" style="mask-type:luminance" maskUnits="userSpaceOnUse" x="0" y="0" width="20" height="15">
<path fill-rule="evenodd" clip-rule="evenodd" d="M0 0V15H20V0H0Z" fill="white"/>
</mask>
<g mask="url(#mask1_355_14665)">
<path fill-rule="evenodd" clip-rule="evenodd" d="M10.0387 9.98753L6.81943 12.0344L7.89924 8.45122L5.60303 6.11018L8.76877 6.04103L10.1694 2.50363L11.4457 6.08775L14.6038 6.14288L12.2305 8.52683L13.3388 11.9356L10.0387 9.98753Z" fill="#FFD221"/>
</g>
</g>
</svg>
