<svg width="40" height="40" viewBox="0 0 40 40" fill="none" xmlns="http://www.w3.org/2000/svg">
<path d="M15.1658 12.5V11.5C15.1658 9.2875 15.1658 7.5 19.4325 7.5H21.5658C25.8325 7.5 25.8325 9.2875 25.8325 11.5V12.5M15.1658 32.5H25.8325C31.1925 32.5 32.1525 30.4875 32.4325 28.0375L33.4325 18.0375C33.7925 14.9875 32.8591 12.5 27.1658 12.5H13.8325C8.13912 12.5 7.20578 14.9875 7.56578 18.0375L8.56578 28.0375C8.84578 30.4875 9.80578 32.5 15.1658 32.5Z" stroke="#414142" stroke-width="1.5" stroke-miterlimit="10" stroke-linecap="round" stroke-linejoin="round"/>
<path d="M23.1675 22.525V21.25C23.1675 20 23.1675 20 21.8341 20H19.1675C17.8341 20 17.8341 20 17.8341 21.25V22.5375M23.1675 22.525C23.1675 23.8875 23.1541 25 20.5008 25C17.8608 25 17.8341 23.9 17.8341 22.5375M23.1675 22.525C26.8531 22.0948 30.3623 20.7961 33.3675 18.75M17.8341 22.5375C14.3808 22.175 10.9941 21.0125 7.99414 19.0875" stroke="#414142" stroke-width="1.5" stroke-miterlimit="10" stroke-linecap="round" stroke-linejoin="round"/>
</svg>
