<svg width="40" height="46" viewBox="0 0 40 46" fill="none" xmlns="http://www.w3.org/2000/svg">
<path d="M14.1667 10.5V14.25M25.8333 10.5V14.25M7.60417 19.3625H32.3958M33.125 18.625V29.25C33.125 33 30.9375 35.5 25.8333 35.5H14.1667C9.0625 35.5 6.875 33 6.875 29.25V18.625C6.875 14.875 9.0625 12.375 14.1667 12.375H25.8333C30.9375 12.375 33.125 14.875 33.125 18.625Z" stroke="#414142" stroke-width="1.5" stroke-miterlimit="10" stroke-linecap="round" stroke-linejoin="round"/>
<path d="M25.3888 25.125H25.402M25.3888 28.875H25.402M19.993 25.125H20.0076M19.993 28.875H20.0076M14.5957 25.125H14.6103M14.5957 28.875H14.6103" stroke="#414142" stroke-width="2" stroke-linecap="round" stroke-linejoin="round"/>
</svg>
