<svg width="37" height="38" viewBox="0 0 37 38" fill="none" xmlns="http://www.w3.org/2000/svg">
<g clip-path="url(#clip0_98_19663)">
<path d="M12.1691 29.515V14.1917H6.97538V29.515H12.1691ZM9.57293 12.0983C11.3841 12.0983 12.5115 10.9217 12.5115 9.45128C12.4777 7.9477 11.3842 6.80371 9.6073 6.80371C7.83072 6.80371 6.66895 7.94772 6.66895 9.45128C6.66895 10.9218 7.79603 12.0983 9.53903 12.0983H9.57277H9.57293ZM15.0439 29.515H20.2377V20.9577C20.2377 20.4998 20.2714 20.0423 20.4086 19.7149C20.784 18.7999 21.6386 17.8522 23.0733 17.8522C24.9528 17.8522 25.7046 19.2574 25.7046 21.3173V29.5149H30.8981V20.7287C30.8981 16.022 28.3357 13.832 24.9186 13.832C22.1167 13.832 20.8865 15.3678 20.2031 16.4138H20.2378V14.1914H15.044C15.1122 15.6293 15.044 29.5147 15.044 29.5147L15.0439 29.515Z" fill="#414142"/>
</g>
<defs>
<clipPath id="clip0_98_19663">
<rect width="24.2254" height="22.7113" fill="white" transform="translate(6.66895 6.80371)"/>
</clipPath>
</defs>
</svg>
