<svg width="33" height="32" viewBox="0 0 33 32" fill="none" xmlns="http://www.w3.org/2000/svg">
<path d="M11.6251 10.8751L11.6251 22.1251C11.6255 22.239 11.6569 22.3507 11.716 22.448C11.7751 22.5454 11.8596 22.6248 11.9605 22.6777C12.0613 22.7306 12.1747 22.755 12.2884 22.7483C12.4021 22.7416 12.5118 22.7039 12.6057 22.6395L20.7307 17.0145C21.0676 16.7814 21.0676 16.2201 20.7307 15.9864L12.6057 10.3614C12.512 10.2963 12.4023 10.2581 12.2884 10.251C12.1745 10.2439 12.0608 10.2681 11.9597 10.3211C11.8587 10.374 11.774 10.4537 11.715 10.5513C11.656 10.649 11.6249 10.761 11.6251 10.8751Z" fill="white"/>
</svg>
