<svg width="1920" height="590" viewBox="0 0 1920 590" fill="none" xmlns="http://www.w3.org/2000/svg">
<mask id="mask0_25_3442" style="mask-type:alpha" maskUnits="userSpaceOnUse" x="0" y="0" width="1920" height="590">
<rect width="1920" height="590" fill="#D9D9D9"/>
</mask>
<g mask="url(#mask0_25_3442)">
<path d="M-817.503 41.7159C-768.53 27.2064 -608.712 51.4987 -463.247 4.45336C-285.721 -52.9611 -142.021 -10.216 -92.0251 151.173C-59.0996 257.459 -72.0039 329.95 64.2745 350.086C209.857 371.597 270.42 238.863 413.182 223.619C553.93 208.591 656.093 222.423 796.363 409.676C933.828 593.186 1199.08 577.115 1306.83 420.166C1444.49 219.673 1444.61 122.641 1627.85 58.8377C1774.45 7.79468 1951.94 52.9847 2022.36 81.9601" stroke="#DFEFF9" stroke-width="69"/>
</g>
</svg>
