<svg width="79" height="33" viewBox="0 0 79 33" fill="none" xmlns="http://www.w3.org/2000/svg">
<path d="M2.53964 24.1739L2.96604 23.9547L9.89374 20.3925L10.4611 20.1008L10.6959 20.6939C11.0794 21.6627 11.6311 22.3599 12.3316 22.8193C13.034 23.2801 13.929 23.5298 15.0434 23.5298C15.9492 23.5298 16.5815 23.4125 16.99 23.2202C17.3687 23.042 17.5392 22.8112 17.5983 22.518C17.6333 22.3286 17.6008 22.2071 17.5316 22.1041C17.4494 21.982 17.2755 21.829 16.9274 21.6724L16.914 21.6664L16.901 21.6598C16.563 21.4867 16.2134 21.3372 15.8548 21.2123L15.8408 21.2074L15.8271 21.2019C15.2848 20.9813 14.1726 20.6539 13.4006 20.4266C13.2331 20.3773 13.0816 20.3327 12.9554 20.295L12.9436 20.2914L12.9319 20.2874C10.3778 19.4023 8.49147 18.142 7.35205 16.4684C6.20516 14.7839 5.86435 12.7535 6.26384 10.4376C6.67627 7.86935 8.07971 5.5654 10.1726 4.02082C12.2914 2.41329 14.8606 1.62331 17.8469 1.62486L2.53964 24.1739ZM2.53964 24.1739L2.67612 24.6335M2.53964 24.1739L2.67612 24.6335M2.67612 24.6335C3.37219 26.9777 4.71188 28.8585 6.69404 30.1469C8.66855 31.4304 11.2392 32.0997 14.3625 32.1044H14.3634C17.704 32.1044 20.5237 31.3877 22.6462 29.9194C24.7818 28.4421 26.1606 26.2385 26.6648 23.3781L26.6649 23.3781L26.6659 23.3716C27.1647 20.3405 26.6054 17.9012 24.7982 16.3182C23.154 14.8307 21.7482 14.1981 19.4315 13.4258L19.4311 13.4257C17.6379 12.8295 16.4853 12.3252 15.9433 11.9988C15.7081 11.857 15.5887 11.7195 15.5304 11.6031C15.4758 11.494 15.4519 11.3587 15.4897 11.1689C15.5592 10.8376 15.7181 10.6187 15.972 10.4662C16.2485 10.3002 16.6817 10.1879 17.3264 10.1879C18.1471 10.1879 18.8047 10.3921 19.3261 10.7662C19.8497 11.1418 20.2791 11.7198 20.5881 12.5386L20.8204 13.1542L21.4011 12.8448L28.1692 9.23869L28.634 8.99101M2.67612 24.6335L28.634 8.99101M28.634 8.99101L28.4307 8.50512M28.634 8.99101L28.4307 8.50512M28.4307 8.50512C27.5105 6.30602 26.1293 4.57776 24.3289 3.40201M28.4307 8.50512L24.3289 3.40201M24.3289 3.40201C22.5294 2.22682 20.3437 1.6249 17.8472 1.62486L24.3289 3.40201Z" fill="#3B91CF" stroke="#3B91CF" stroke-width="1.15654"/>
<path d="M51.0897 2.94569L51.2084 2.26767H50.5201H29.2975H28.8118L28.7279 2.74604L27.3655 10.5134L27.2465 11.1916H27.9351H33.8547L30.4096 30.7758L30.2902 31.4542H30.9791H38.987H39.4724L39.5565 30.9761L43.0369 11.1916H49.16H49.6458L49.7296 10.713L51.0897 2.94569Z" fill="#3B91CF" stroke="#3B91CF" stroke-width="1.15654"/>
<path d="M68.8498 16.6938C70.6381 15.3862 71.7793 13.5591 72.2455 11.2458L72.2455 11.2458L72.2474 11.2356C72.7166 8.66983 72.1298 6.50778 70.4043 4.795C68.6893 3.09255 66.1989 2.26548 63.0577 2.26548H52.325H51.8394L51.7554 2.74369L46.8308 30.7737L46.7117 31.452H47.4004H59.2527C65.7293 31.452 70.2217 28.1665 70.9572 23.1127C71.1896 21.6537 71.0892 20.3254 70.623 19.149C70.2504 18.2088 69.6541 17.3909 68.8498 16.6938ZM57.3025 23.4094L57.8132 20.5649L61.152 20.6007C61.6125 20.6694 61.819 20.818 61.9167 20.9586C62.0188 21.1055 62.0928 21.373 62.0096 21.8694C61.7803 22.8255 61.0358 23.4094 59.9743 23.4094H57.3025ZM61.4907 12.8762L59.1461 12.9078L59.6159 10.3064L61.7762 10.2988C61.7766 10.2988 61.7769 10.2988 61.7773 10.2988C62.2802 10.299 62.6127 10.4229 62.7944 10.5911C62.9495 10.7346 63.0837 10.993 63.0074 11.5102C62.9291 11.9472 62.7605 12.2425 62.5327 12.4467C62.3044 12.6513 61.9706 12.8051 61.4907 12.8762Z" fill="#3B91CF" stroke="#3B91CF" stroke-width="1.15654"/>
<path d="M1.15097 23.2481L1.57736 23.0289L8.50507 19.4667L9.07238 19.175L9.30718 19.7681C9.69068 20.7369 10.2425 21.4341 10.9429 21.8935C11.6454 22.3543 12.5403 22.604 13.6547 22.604C14.5606 22.604 15.1928 22.4867 15.6013 22.2945C15.9801 22.1162 16.1506 21.8855 16.2096 21.5923C16.2446 21.4028 16.2122 21.2814 16.1429 21.1783C16.0607 21.0562 15.8869 20.9032 15.5387 20.7467L15.5254 20.7407L15.5123 20.734C15.1743 20.5609 14.8247 20.4114 14.4661 20.2865L14.4522 20.2817L14.4385 20.2761C13.8961 20.0555 12.784 19.7281 12.012 19.5009C11.8444 19.4515 11.6929 19.4069 11.5667 19.3692L11.5549 19.3656L11.5432 19.3616C8.98911 18.4765 7.1028 17.2162 5.96338 15.5426C4.81649 13.8581 4.47567 11.8277 4.87517 9.51179C5.2876 6.94357 6.69103 4.63962 8.78389 3.09504C10.9027 1.48751 13.472 0.69753 16.4582 0.699074L1.15097 23.2481ZM1.15097 23.2481L1.28745 23.7078M1.15097 23.2481L1.28745 23.7078M1.28745 23.7078C1.98352 26.052 3.32321 27.9328 5.30536 29.2212C7.27988 30.5046 9.85053 31.1739 12.9738 31.1787H12.9747C16.3153 31.1787 19.135 30.4619 21.2575 28.9936C23.3931 27.5163 24.7719 25.3127 25.2762 22.4523L25.2762 22.4523L25.2773 22.4458C25.7761 19.4147 25.2167 16.9755 23.4096 15.3924C21.7653 13.905 20.3595 13.2723 18.0428 12.5001L18.0424 12.4999C16.2492 11.9037 15.0966 11.3994 14.5546 11.073C14.3194 10.9313 14.2 10.7937 14.1417 10.6773C14.0871 10.5682 14.0632 10.433 14.101 10.2431C14.1705 9.91178 14.3294 9.69296 14.5834 9.54044C14.8598 9.37441 15.2931 9.26214 15.9378 9.26214C16.7584 9.26214 17.416 9.46628 17.9375 9.84041C18.461 10.2161 18.8904 10.7941 19.1995 11.6129L19.4318 12.2284L20.0124 11.919L26.7805 8.31291L27.2454 8.06523M1.28745 23.7078L27.2454 8.06523M27.2454 8.06523L27.042 7.57934M27.2454 8.06523L27.042 7.57934M27.042 7.57934C26.1218 5.38023 24.7406 3.65197 22.9402 2.47623M27.042 7.57934L22.9402 2.47623M22.9402 2.47623C21.1407 1.30104 18.955 0.699124 16.4585 0.699074L22.9402 2.47623Z" fill="white" stroke="#11235F" stroke-width="1.15654"/>
<path d="M49.701 2.01991L49.8197 1.34189H49.1314H27.9088H27.4231L27.3392 1.82026L25.9768 9.58762L25.8579 10.2658H26.5464H32.466L29.0209 29.85L28.9015 30.5285H29.5904H37.5983H38.0837L38.1678 30.0504L41.6482 10.2658H47.7713H48.2571L48.3409 9.78726L49.701 2.01991Z" fill="white" stroke="#11235F" stroke-width="1.15654"/>
<path d="M67.4611 15.7681C69.2494 14.4604 70.3906 12.6333 70.8568 10.32L70.8569 10.32L70.8587 10.3098C71.3279 7.74405 70.7411 5.58199 69.0157 3.86922C67.3006 2.16677 64.8103 1.3397 61.669 1.3397H50.9363H50.4508L50.3667 1.81791L45.4422 29.8479L45.323 30.5263H46.0117H57.864C64.3406 30.5263 68.833 27.2407 69.5686 22.1869C69.801 20.728 69.7006 19.3997 69.2344 18.2233C68.8617 17.283 68.2654 16.4651 67.4611 15.7681ZM55.9138 22.4836L56.4246 19.6391L59.7634 19.6749C60.2238 19.7437 60.4303 19.8922 60.528 20.0328C60.6301 20.1797 60.7042 20.4472 60.6209 20.9437C60.3917 21.8997 59.6471 22.4836 58.5857 22.4836H55.9138ZM60.102 11.9504L57.7574 11.982L58.2272 9.38061L60.3876 9.37305C60.3879 9.37305 60.3883 9.37305 60.3886 9.37305C60.8915 9.37322 61.224 9.49709 61.4058 9.6653C61.5608 9.80881 61.695 10.0672 61.6187 10.5844C61.5404 11.0214 61.3719 11.3168 61.144 11.5209C60.9157 11.7255 60.5819 11.8793 60.102 11.9504Z" fill="white" stroke="#11235F" stroke-width="1.15654"/>
<path d="M25.7621 7.54504L20.0201 10.6045C19.667 9.89886 19.2001 9.3229 18.6117 8.90071C17.8621 8.36291 16.9583 8.10559 15.9378 8.10559C15.1807 8.10559 14.5126 8.23387 13.9879 8.54897C13.4413 8.87726 13.0995 9.37954 12.9683 10.0093L12.9675 10.0133C12.8856 10.4207 12.9219 10.8243 13.1076 11.1952C13.2899 11.5591 13.5915 11.8429 13.9577 12.0636L13.9578 12.0636C14.614 12.4589 15.867 12.9954 17.6775 13.5974C19.9248 14.3465 21.1602 14.9163 22.637 16.2531L22.6369 16.2532L22.6444 16.2597C24.0396 17.4797 24.5988 19.4422 24.1366 22.2547C23.6805 24.8377 22.4573 26.7573 20.5996 28.0424C18.7281 29.337 16.1621 30.022 12.9756 30.0221C10.0108 30.0176 7.6754 29.3823 5.93567 28.2515C4.33039 27.208 3.19697 25.7202 2.54232 23.8332L8.49189 20.774C8.93582 21.6525 9.53966 22.3562 10.3086 22.8606C11.238 23.4702 12.3659 23.7606 13.6547 23.7606C14.6318 23.7606 15.4614 23.6385 16.0938 23.3409C16.7546 23.03 17.2042 22.5215 17.3446 21.8146L17.3446 21.8146L17.3458 21.8086C17.4301 21.3591 17.3631 20.9203 17.1026 20.5329C16.857 20.1678 16.4752 19.9015 16.0266 19.698C15.6495 19.5056 15.2598 19.339 14.8603 19.1991C14.2521 18.9538 13.0633 18.6043 12.3049 18.3813C12.1535 18.3368 12.0193 18.2973 11.9103 18.2648C9.50455 17.4293 7.87061 16.2889 6.91938 14.8917C5.97465 13.5042 5.65485 11.792 6.01542 9.70525L6.01546 9.70525L6.01658 9.69827C6.38054 7.42667 7.62195 5.38883 9.47354 4.02347L9.47358 4.02351L9.48002 4.01862C11.3698 2.58382 13.6846 1.85413 16.4579 1.85562H16.4582C18.7658 1.85562 20.724 2.41024 22.3078 3.44458C23.7624 4.39449 24.9289 5.76696 25.7621 7.54504Z" fill="white" stroke="#D3D3D3" stroke-width="1.15654"/>
<path d="M37.1129 29.3719H30.2793L33.7244 9.78771L33.8438 9.10925H33.1549H27.2349L28.3945 2.49844H48.4431L47.2855 9.10925H41.1628H40.6774L40.5933 9.58734L37.1129 29.3719Z" fill="white" stroke="#D3D3D3" stroke-width="1.15654"/>
<path d="M66.1737 15.2372L65.4143 15.6973L66.1421 16.2058C67.1238 16.8916 67.7858 17.7071 68.1592 18.6494C68.5337 19.5945 68.6337 20.7071 68.4259 22.0085L68.4258 22.0085L68.4246 22.0166C67.7982 26.3331 63.9596 29.3697 57.864 29.3697H46.7004L51.4218 2.49624H61.669C64.6158 2.49624 66.7702 3.26981 68.2009 4.69003C69.6202 6.09886 70.1301 7.85819 69.722 10.0966C69.2593 12.3865 68.0712 14.0875 66.1737 15.2372ZM60.4038 18.6351V18.5252L59.8317 18.519L55.948 18.4774L55.4591 18.4722L55.3726 18.9534L54.6533 22.9597L54.5311 23.6402H55.2224H58.5857C60.1599 23.6402 61.3976 22.7086 61.7511 21.1899L61.7549 21.1737L61.7577 21.1573C61.8712 20.5009 61.8255 19.873 61.4777 19.3726C61.2191 19.0007 60.8424 18.7687 60.4038 18.6351ZM57.7417 8.22576L57.2602 8.22744L57.1746 8.70126L56.4946 12.467L56.3699 13.1574L57.0715 13.148L60.1548 13.1063L60.1906 13.1058L60.2261 13.101C60.8844 13.0101 61.4655 12.7858 61.9158 12.3822C62.3709 11.9745 62.6447 11.4266 62.759 10.778L62.7602 10.7709L62.7613 10.7638C62.8816 9.96491 62.696 9.28361 62.1914 8.81653C61.7128 8.37362 61.0453 8.21651 60.3876 8.2165L60.3856 8.21651L57.7417 8.22576Z" fill="white" stroke="#D3D3D3" stroke-width="1.15654"/>
<path d="M75.5339 1.27735C74.9559 1.2761 74.3904 1.45505 73.9092 1.79157C73.428 2.12808 73.0526 2.60703 72.8306 3.16779C72.6085 3.72855 72.5498 4.34593 72.6618 4.94177C72.7739 5.53761 73.0516 6.08512 73.46 6.51503C73.8683 6.94494 74.3889 7.23792 74.9557 7.35687C75.5226 7.47583 76.1103 7.4154 76.6445 7.18327C77.1787 6.95113 77.6353 6.55772 77.9566 6.05281C78.2779 5.5479 78.4494 4.95419 78.4494 4.34684C78.4494 3.53385 78.1424 2.75408 77.5958 2.17862C77.0492 1.60316 76.3077 1.27903 75.5339 1.27735ZM75.5339 6.90263C75.0564 6.90263 74.5896 6.75385 74.1925 6.47511C73.7955 6.19636 73.486 5.80017 73.3033 5.33664C73.1205 4.8731 73.0727 4.36304 73.1659 3.87096C73.2591 3.37887 73.489 2.92687 73.8267 2.57209C74.1643 2.21732 74.5945 1.97572 75.0629 1.87784C75.5313 1.77996 76.0167 1.8302 76.4579 2.0222C76.8991 2.2142 77.2762 2.53934 77.5415 2.95651C77.8068 3.37368 77.9484 3.86414 77.9484 4.36586C77.9484 5.03865 77.694 5.68389 77.2412 6.15963C76.7884 6.63536 76.1743 6.90263 75.5339 6.90263Z" fill="#0B2D72"/>
<path d="M74.7839 2.94466C75.0438 2.90526 75.306 2.88619 75.5686 2.88759C75.8635 2.8567 76.1596 2.93279 76.4076 3.10321C76.4913 3.16837 76.5575 3.25519 76.5999 3.35521C76.6422 3.45523 76.6591 3.56505 76.6491 3.67399C76.6409 3.81552 76.5929 3.95132 76.5113 4.06421C76.4296 4.1771 76.3179 4.26201 76.1903 4.30818C76.2832 4.35695 76.3635 4.42853 76.4244 4.51685C76.4854 4.60517 76.5252 4.70763 76.5404 4.81553C76.6189 5.13263 76.6973 5.48144 76.7456 5.58925H76.142C76.0598 5.38545 75.999 5.17278 75.9609 4.95506C75.8885 4.61259 75.7799 4.51746 75.5324 4.51746H75.3634V5.58925H74.7598L74.7839 2.94466ZM75.3875 4.11792H75.6169C75.9066 4.11792 76.0817 3.95937 76.0817 3.71838C76.0817 3.47738 75.9247 3.34421 75.6531 3.34421C75.5652 3.32871 75.4754 3.32871 75.3875 3.34421V4.11792Z" fill="#0B2D72"/>
</svg>
