<svg width="244" height="320" viewBox="0 0 244 320" fill="none" xmlns="http://www.w3.org/2000/svg">
<mask id="mask0_19_3578" style="mask-type:alpha" maskUnits="userSpaceOnUse" x="0" y="0" width="244" height="320">
<rect width="244" height="320" fill="#D9D9D9"/>
</mask>
<g mask="url(#mask0_19_3578)">
<circle cx="160.5" cy="160.5" r="125.5" stroke="#FFE6A7" stroke-width="70"/>
</g>
</svg>
