<svg width="60" height="60" viewBox="0 0 60 60" fill="none" xmlns="http://www.w3.org/2000/svg">
<path d="M31.6173 2.59853C32.9962 1.72829 34.803 1.98797 35.8808 3.21149C36.727 4.17209 38.0502 4.56065 39.2815 4.21001C40.8496 3.76349 42.5101 4.52177 43.1995 5.99933C43.7408 7.15949 44.9008 7.90493 46.181 7.91549C47.8114 7.92881 49.191 9.12413 49.4362 10.7362C49.6288 12.0018 50.5318 13.044 51.7572 13.4147C53.3179 13.8869 54.3046 15.4224 54.0859 17.0382C53.914 18.3069 54.4869 19.5612 55.5582 20.2622C56.9226 21.155 57.4369 22.9062 56.7717 24.395C56.2495 25.5638 56.4457 26.9288 57.2761 27.903C58.3338 29.1441 58.3338 30.9693 57.2761 32.2103C56.4457 33.1847 56.2495 34.5496 56.7717 35.7184C57.4369 37.2071 56.9227 38.9585 55.5582 39.8512C54.4869 40.5521 53.914 41.8065 54.0859 43.0751C54.3048 44.6909 53.3179 46.2264 51.7572 46.6986C50.5318 47.0693 49.6287 48.1115 49.4362 49.3772C49.191 50.9891 47.8114 52.1844 46.181 52.1979C44.9008 52.2083 43.7408 52.9539 43.1995 54.114C42.51 55.5916 40.8496 56.3499 39.2815 55.9034C38.0503 55.5527 36.7272 55.9413 35.8808 56.9019C34.803 58.1254 32.9962 58.3852 31.6173 57.5148C30.5347 56.8316 29.1558 56.8316 28.0731 57.5148C26.6942 58.3851 24.8875 58.1253 23.8096 56.9019C22.9634 55.9413 21.6403 55.5527 20.409 55.9034C18.8408 56.3499 17.1804 55.5916 16.491 54.114C15.9496 52.9539 14.7896 52.2084 13.5094 52.1979C11.879 52.1846 10.4995 50.9892 10.2542 49.3772C10.0616 48.1115 9.15859 47.0693 7.93327 46.6986C6.37255 46.2264 5.38579 44.6909 5.60455 43.0751C5.77639 41.8065 5.20351 40.5521 4.13227 39.8512C2.76787 38.9584 2.25355 37.2071 2.91871 35.7184C3.44095 34.5496 3.24475 33.1846 2.41435 32.2103C1.35667 30.9693 1.35667 29.144 2.41435 27.903C3.24475 26.9286 3.44095 25.5638 2.91871 24.395C2.25355 22.9062 2.76775 21.1548 4.13227 20.2622C5.20351 19.5612 5.77639 18.3069 5.60455 17.0382C5.38567 15.4224 6.37255 13.8869 7.93327 13.4147C9.15859 13.044 10.0617 12.0018 10.2542 10.7362C10.4995 9.12425 11.879 7.92893 13.5094 7.91549C14.7896 7.90505 15.9496 7.15949 16.491 5.99933C17.1805 4.52177 18.8408 3.76349 20.409 4.21001C21.6402 4.56065 22.9634 4.17209 23.8096 3.21149C24.8875 1.98797 26.6942 1.72829 28.0731 2.59853C29.1558 3.28181 30.5347 3.28181 31.6173 2.59853Z" fill="#C92027"/>
</svg>
