<svg width="11" height="9" viewBox="0 0 11 9" fill="none" xmlns="http://www.w3.org/2000/svg">
<path d="M10.4497 0.500002L0.549387 0.500001C0.449152 0.500307 0.350899 0.527161 0.265207 0.577675C0.179515 0.628188 0.109626 0.700447 0.0630652 0.786674C0.016505 0.872901 -0.00496608 0.969831 0.000964815 1.06703C0.00689571 1.16423 0.0400035 1.25802 0.0967242 1.3383L5.04686 8.28401C5.25202 8.57199 5.74593 8.57199 5.95164 8.28401L10.9018 1.3383C10.9591 1.25818 10.9927 1.16435 10.9989 1.06699C11.0052 0.969628 10.9839 0.872465 10.9373 0.786055C10.8906 0.699646 10.8206 0.627294 10.7346 0.576862C10.6486 0.526431 10.5501 0.499848 10.4497 0.500002Z" fill="white"/>
</svg>
