<svg width="33" height="33" viewBox="0 0 33 33" fill="none" xmlns="http://www.w3.org/2000/svg">
<path d="M16.5 2.5C8.7 2.5 2.5 8.7 2.5 16.5C2.5 24.3 8.7 30.5 16.5 30.5C24.3 30.5 30.5 24.3 30.5 16.5C30.5 8.7 24.3 2.5 16.5 2.5ZM16.5 28.5C9.9 28.5 4.5 23.1 4.5 16.5C4.5 9.9 9.9 4.5 16.5 4.5C23.1 4.5 28.5 9.9 28.5 16.5C28.5 23.1 23.1 28.5 16.5 28.5Z" fill="white"/>
<path d="M21.9 23.5L16.5 18.1L11.1 23.5L9.5 21.9L14.9 16.5L9.5 11.1L11.1 9.5L16.5 14.9L21.9 9.5L23.5 11.1L18.1 16.5L23.5 21.9L21.9 23.5Z" fill="white"/>
</svg>
