<svg width="40" height="40" viewBox="0 0 40 40" fill="none" xmlns="http://www.w3.org/2000/svg">
<path d="M20.5 27.5C21.163 27.5 21.7989 27.7634 22.2678 28.2322C22.7366 28.7011 23 29.337 23 30C23 30.663 22.7366 31.2989 22.2678 31.7678C21.7989 32.2366 21.163 32.5 20.5 32.5C19.837 32.5 19.2011 32.2366 18.7322 31.7678C18.2634 31.2989 18 30.663 18 30C18 29.337 18.2634 28.7011 18.7322 28.2322C19.2011 27.7634 19.837 27.5 20.5 27.5ZM20.5 27.5L20.5 12.5M20.5 12.5C19.837 12.5 19.2011 12.2366 18.7322 11.7678C18.2634 11.2989 18 10.663 18 10C18 9.33696 18.2634 8.70107 18.7322 8.23223C19.2011 7.76339 19.837 7.5 20.5 7.5C21.163 7.5 21.7989 7.76339 22.2678 8.23223C22.7366 8.70107 23 9.33696 23 10C23 10.663 22.7366 11.2989 22.2678 11.7678C21.7989 12.2366 21.163 12.5 20.5 12.5ZM28 30C28 30.663 28.2634 31.2989 28.7322 31.7678C29.2011 32.2366 29.837 32.5 30.5 32.5C31.163 32.5 31.7989 32.2366 32.2678 31.7678C32.7366 31.2989 33 30.663 33 30C33 29.337 32.7366 28.7011 32.2678 28.2322C31.7989 27.7634 31.163 27.5 30.5 27.5C29.837 27.5 29.2011 27.7634 28.7322 28.2322C28.2634 28.7011 28 29.337 28 30ZM8 30C8 30.663 8.26339 31.2989 8.73223 31.7678C9.20107 32.2366 9.83696 32.5 10.5 32.5C11.163 32.5 11.7989 32.2366 12.2678 31.7678C12.7366 31.2989 13 30.663 13 30C13 29.337 12.7366 28.7011 12.2678 28.2322C11.7989 27.7634 11.163 27.5 10.5 27.5C9.83696 27.5 9.20107 27.7634 8.73223 28.2322C8.26339 28.7011 8 29.337 8 30Z" stroke="#414142" stroke-width="1.5" stroke-linecap="round" stroke-linejoin="round"/>
<path d="M30.5 27.5L30.5 22.5C30.5 20 29.25 18.75 26.75 18.75L14.25 18.75C11.75 18.75 10.5 20 10.5 22.5L10.5 27.5" stroke="#414142" stroke-width="1.5" stroke-linecap="round" stroke-linejoin="round"/>
</svg>
