<svg width="20" height="21" viewBox="0 0 20 21" fill="none" xmlns="http://www.w3.org/2000/svg">
<g clip-path="url(#clip0_112_20161)">
<path d="M9.96402 20.6913L9.38312 20.1934C8.5823 19.5229 1.58984 13.4839 1.58984 9.06656C1.58984 4.44164 5.3391 0.692383 9.96402 0.692383C14.5889 0.692383 18.3382 4.44164 18.3382 9.06656C18.3382 13.4839 11.3457 19.5229 10.5482 20.1967L9.96402 20.6913ZM9.96402 2.50312C6.34086 2.50723 3.40473 5.44336 3.40062 9.06652C3.40062 11.8416 7.70266 16.2747 9.96402 18.3037C12.2254 16.2739 16.5274 11.8382 16.5274 9.06652C16.5233 5.44336 13.5872 2.50727 9.96402 2.50312Z" fill="#414142"/>
<path d="M9.96398 12.386C8.1307 12.386 6.64453 10.8998 6.64453 9.06652C6.64453 7.23324 8.1307 5.74707 9.96398 5.74707C11.7973 5.74707 13.2834 7.23324 13.2834 9.06652C13.2834 10.8998 11.7973 12.386 9.96398 12.386ZM9.96398 7.40676C9.04734 7.40676 8.30426 8.14984 8.30426 9.06648C8.30426 9.98313 9.04734 10.7262 9.96398 10.7262C10.8806 10.7262 11.6237 9.98313 11.6237 9.06648C11.6237 8.14984 10.8807 7.40676 9.96398 7.40676Z" fill="#414142"/>
</g>
<defs>
<clipPath id="clip0_112_20161">
<rect width="20" height="20" fill="white" transform="translate(0 0.68457)"/>
</clipPath>
</defs>
</svg>
