<svg width="29" height="29" viewBox="0 0 29 29" fill="none" xmlns="http://www.w3.org/2000/svg">
<g clip-path="url(#clip0_3150_20745)">
<path d="M14.5 0C8.50425 0 3.625 4.91308 3.625 10.9535C3.625 19.5363 13.4778 28.3983 13.897 28.7704C14.0628 28.9188 14.2773 29.0009 14.4998 29.0011C14.7222 29.0014 14.9369 28.9197 15.103 28.7716C15.5223 28.3983 25.375 19.5363 25.375 10.9535C25.375 4.91308 20.4958 0 14.5 0ZM14.5 16.9167C11.1686 16.9167 8.45833 14.2064 8.45833 10.875C8.45833 7.54363 11.1686 4.83333 14.5 4.83333C17.8314 4.83333 20.5417 7.54363 20.5417 10.875C20.5417 14.2064 17.8314 16.9167 14.5 16.9167Z" fill="#ED1C24"/>
</g>
<defs>
<clipPath id="clip0_3150_20745">
<rect width="29" height="29" fill="white"/>
</clipPath>
</defs>
</svg>
