<svg width="24" height="24" viewBox="0 0 24 24" fill="none" xmlns="http://www.w3.org/2000/svg">
<g clip-path="url(#clip0_1865_12902)">
<path d="M24 0H0V2.66667H24V0ZM24 21.3333H9.33333V24H24V21.3333ZM24 10.6667H0V13.3333H24V10.6667Z" fill="white"/>
</g>
<defs>
<clipPath id="clip0_1865_12902">
<rect width="24" height="24" fill="white"/>
</clipPath>
</defs>
</svg>
