<svg width="21" height="21" viewBox="0 0 21 21" fill="none" xmlns="http://www.w3.org/2000/svg">
<path d="M11.986 10.5031L6.21516 4.95525C6.05627 4.80285 5.96885 4.5991 5.96885 4.38184C5.96885 4.16447 6.05627 3.96083 6.21516 3.8082L6.72083 3.32233C6.87948 3.16945 7.09156 3.0853 7.31755 3.0853C7.54355 3.0853 7.75537 3.16945 7.91414 3.32233L14.7852 9.92755C14.9446 10.0807 15.0319 10.2853 15.0312 10.5028C15.0319 10.7212 14.9447 10.9256 14.7852 11.0788L7.92054 17.6776C7.76177 17.8305 7.54995 17.9147 7.32382 17.9147C7.09783 17.9147 6.886 17.8305 6.7271 17.6776L6.22156 17.1918C5.8926 16.8755 5.8926 16.3607 6.22156 16.0446L11.986 10.5031Z" fill="#0068FF"/>
</svg>
