<svg width="80" height="80" viewBox="0 0 80 80" fill="none" xmlns="http://www.w3.org/2000/svg">
<path fill-rule="evenodd" clip-rule="evenodd" d="M51.3672 24.7L36.1005 40L51.3672 55.3L46.6672 60L26.6672 40L46.6672 20L51.3672 24.7Z" fill="#414142"/>
</svg>
