<svg width="64" height="64" viewBox="0 0 64 64" fill="none" xmlns="http://www.w3.org/2000/svg">
<path fill-rule="evenodd" clip-rule="evenodd" d="M41.0937 44.24L28.8804 32L41.0937 19.76L37.3337 16L21.3337 32L37.3337 48L41.0937 44.24Z" fill="#00AEEF"/>
</svg>
