<svg width="11" height="22" viewBox="0 0 11 22" fill="none" xmlns="http://www.w3.org/2000/svg">
<g id="facebook logo" clip-path="url(#clip0_355_14001)">
<path id="Vector" d="M2.81788 21.767V11.8207H0.112305V8.23952H2.81788V5.18075C2.81788 2.77713 4.41608 0.569824 8.09866 0.569824C9.58968 0.569824 10.6922 0.708772 10.6922 0.708772L10.6053 4.05297C10.6053 4.05297 9.48093 4.04233 8.25392 4.04233C6.92593 4.04233 6.71316 4.63723 6.71316 5.62462V8.23952H10.7109L10.537 11.8207H6.71316V21.767H2.81788Z" fill="#111111"/>
</g>
<defs>
<clipPath id="clip0_355_14001">
<rect width="10.5986" height="21.1972" fill="white" transform="translate(0.112305 0.569824)"/>
</clipPath>
</defs>
</svg>
