<svg width="25" height="28" viewBox="0 0 25 28" fill="none" xmlns="http://www.w3.org/2000/svg">
<g id="instagram logo" clip-path="url(#clip0_355_13989)">
<path id="Vector" d="M12.837 8.04888C9.39785 8.04888 6.62383 10.7796 6.62383 14.165C6.62383 17.5504 9.39785 20.281 12.837 20.281C16.2761 20.281 19.0501 17.5504 19.0501 14.165C19.0501 10.7796 16.2761 8.04888 12.837 8.04888ZM12.837 18.1412C10.6145 18.1412 8.79762 16.358 8.79762 14.165C8.79762 11.9719 10.6091 10.1887 12.837 10.1887C15.0649 10.1887 16.8763 11.9719 16.8763 14.165C16.8763 16.358 15.0594 18.1412 12.837 18.1412ZM20.7535 7.79871C20.7535 8.59183 20.1046 9.22526 19.3043 9.22526C18.4986 9.22526 17.8551 8.5865 17.8551 7.79871C17.8551 7.01091 18.504 6.37215 19.3043 6.37215C20.1046 6.37215 20.7535 7.01091 20.7535 7.79871ZM24.8686 9.24655C24.7766 7.33561 24.3332 5.64291 22.9111 4.2483C21.4943 2.85368 19.7747 2.4172 17.8335 2.32139C15.8327 2.2096 9.83585 2.2096 7.8351 2.32139C5.89923 2.41188 4.17966 2.84836 2.75751 4.24297C1.33535 5.63759 0.897345 7.33029 0.800011 9.24123C0.686455 11.2107 0.686455 17.1139 0.800011 19.0834C0.891938 20.9943 1.33535 22.687 2.75751 24.0816C4.17966 25.4762 5.89382 25.9127 7.8351 26.0085C9.83585 26.1203 15.8327 26.1203 17.8335 26.0085C19.7747 25.918 21.4943 25.4816 22.9111 24.0816C24.3278 22.687 24.7712 20.9943 24.8686 19.0834C24.9821 17.1139 24.9821 11.216 24.8686 9.24655ZM22.2838 21.1966C21.862 22.2399 21.0455 23.0436 19.9802 23.4642C18.385 24.0869 14.5998 23.9432 12.837 23.9432C11.0742 23.9432 7.28354 24.0816 5.69375 23.4642C4.63389 23.049 3.81737 22.2452 3.39018 21.1966C2.75751 19.6263 2.90351 15.9002 2.90351 14.165C2.90351 12.4297 2.76291 8.69829 3.39018 7.13334C3.81196 6.09004 4.62848 5.28627 5.69375 4.86576C7.28895 4.24297 11.0742 4.38669 12.837 4.38669C14.5998 4.38669 18.3904 4.24829 19.9802 4.86576C21.0401 5.28095 21.8566 6.08471 22.2838 7.13334C22.9165 8.70361 22.7705 12.4297 22.7705 14.165C22.7705 15.9002 22.9165 19.6316 22.2838 21.1966Z" fill="#111111"/>
</g>
<defs>
<clipPath id="clip0_355_13989">
<rect width="24.2254" height="27.2535" fill="white" transform="translate(0.71875 0.542236)"/>
</clipPath>
</defs>
</svg>
