<svg width="51" height="50" viewBox="0 0 51 50" fill="none" xmlns="http://www.w3.org/2000/svg">
<path d="M25.75 8C35.15 8 42.75 15.6 42.75 25C42.75 34.4 35.15 42 25.75 42C16.35 42 8.75 34.4 8.75 25C8.75 15.6 16.35 8 25.75 8ZM25.75 40C34.05 40 40.75 33.3 40.75 25C40.75 16.7 34.05 10 25.75 10C17.45 10 10.75 16.7 10.75 25C10.75 33.3 17.45 40 25.75 40Z" fill="#FA8925"/>
<path d="M25.4504 15.2992L35.1504 24.9992L25.4504 34.6992L24.0504 33.2992L32.3504 24.9992L24.0504 16.6992L25.4504 15.2992Z" fill="#FA8925"/>
<path d="M33.75 26L16.75 26L16.75 24L33.75 24L33.75 26Z" fill="#FA8925"/>
</svg>
