<svg width="61" height="60" viewBox="0 0 61 60" fill="none" xmlns="http://www.w3.org/2000/svg">
<g clip-path="url(#clip0_58_51145)">
<mask id="mask0_58_51145" style="mask-type:luminance" maskUnits="userSpaceOnUse" x="0" y="0" width="61" height="60">
<path d="M0.5 29.9958C0.5 46.5651 13.9349 60 30.4958 60C47.0567 60 60.5 46.5651 60.5 29.9958C60.5 13.4266 47.0651 0 30.4958 0C13.9266 0 0.5 13.4349 0.5 29.9958Z" fill="white"/>
</mask>
<g mask="url(#mask0_58_51145)">
<path d="M60.5 0H0.5V60H60.5V0Z" fill="url(#paint0_linear_58_51145)"/>
<path d="M60.5 0H0.5V60H60.5V0Z" fill="url(#paint1_linear_58_51145)"/>
</g>
<mask id="mask1_58_51145" style="mask-type:luminance" maskUnits="userSpaceOnUse" x="2" y="1" width="57" height="58">
<path d="M2.26172 29.996C2.26172 45.5925 14.8986 58.2377 30.4951 58.2377C46.0916 58.2377 58.7284 45.5925 58.7284 29.996C58.7284 14.3995 46.0916 1.7627 30.4951 1.7627C14.8986 1.7627 2.26172 14.4078 2.26172 29.996Z" fill="white"/>
</mask>
<g mask="url(#mask1_58_51145)">
<path d="M58.703 0.410399L0.90625 1.80273L2.29858 59.5995L60.0953 58.2071L58.703 0.410399Z" fill="url(#paint2_linear_58_51145)"/>
</g>
<g clip-path="url(#clip1_58_51145)">
<path fill-rule="evenodd" clip-rule="evenodd" d="M39.0012 45.2963V26.2347C39.0012 24.7556 37.8835 23.4832 36.225 22.9027C35.8013 22.7516 35.594 22.521 35.594 22.354V16.4932H25.3994V22.354C25.3994 22.521 25.2011 22.7516 24.7594 22.9027C23.1099 23.4912 21.9922 24.7635 21.9922 26.2347V45.2963C21.9922 46.8709 23.5876 47.9922 25.3904 47.9922H35.594C37.3967 47.9922 38.9922 46.8629 38.9922 45.2963M25.3904 44.9942V26.2347C25.3904 26.0677 25.5887 25.8371 26.0213 25.686C27.6709 25.1055 28.7886 23.8252 28.7886 22.354V19.4991H32.1868V22.354C32.1868 23.8252 33.3045 25.1055 34.945 25.686C35.3867 25.8451 35.585 26.0677 35.585 26.2347V44.9942H25.3994H25.3904Z" fill="#01B4BC"/>
<path fill-rule="evenodd" clip-rule="evenodd" d="M27.1013 16.501V15.2525C27.1013 15.1093 27.2275 14.998 27.3807 14.998H33.6183C33.7715 14.998 33.8977 15.1093 33.8977 15.2525V16.501H27.1013ZM23.7031 19.499H37.3049V15.2525C37.3049 13.4553 35.6554 12 33.6183 12H27.3807C25.3526 12 23.7031 13.4553 23.7031 15.2525V19.499Z" fill="#01B4BC"/>
<path d="M31.4806 31.6582H29.5156V38.3143H31.4806V31.6582Z" fill="#01B4BC"/>
<path d="M34.275 34.1152H26.7305V35.8488H34.275V34.1152Z" fill="#01B4BC"/>
</g>
</g>
<defs>
<linearGradient id="paint0_linear_58_51145" x1="25.0761" y1="58.2995" x2="25.0761" y2="-1.56697" gradientUnits="userSpaceOnUse">
<stop stop-color="#A6772E"/>
<stop offset="0.09" stop-color="#D8B96E"/>
<stop offset="0.14" stop-color="#EED68A"/>
<stop offset="0.26" stop-color="#FCF8DA"/>
<stop offset="0.36" stop-color="#EED68A"/>
<stop offset="0.49" stop-color="#A6772E"/>
<stop offset="0.57" stop-color="#D8B96E"/>
<stop offset="0.61" stop-color="#EED68A"/>
<stop offset="0.74" stop-color="#FCF8DA"/>
<stop offset="0.84" stop-color="#EED68A"/>
<stop offset="1" stop-color="#A6772E"/>
</linearGradient>
<linearGradient id="paint1_linear_58_51145" x1="25.1984" y1="59.0296" x2="25.1984" y2="-1.06449" gradientUnits="userSpaceOnUse">
<stop stop-color="#A6772E"/>
<stop offset="0.09" stop-color="#D8B96E"/>
<stop offset="0.14" stop-color="#EED68A"/>
<stop offset="0.26" stop-color="#FCF8DA"/>
<stop offset="0.36" stop-color="#EED68A"/>
<stop offset="0.49" stop-color="#A6772E"/>
<stop offset="0.57" stop-color="#D8B96E"/>
<stop offset="0.61" stop-color="#EED68A"/>
<stop offset="0.74" stop-color="#FCF8DA"/>
<stop offset="0.84" stop-color="#EED68A"/>
<stop offset="1" stop-color="#A6772E"/>
</linearGradient>
<linearGradient id="paint2_linear_58_51145" x1="38.253" y1="126.937" x2="35.637" y2="18.3428" gradientUnits="userSpaceOnUse">
<stop stop-color="#9CF3F3"/>
<stop offset="0.66" stop-color="#E0F5FB"/>
<stop offset="1" stop-color="white"/>
</linearGradient>
<clipPath id="clip0_58_51145">
<rect width="60" height="60" fill="white" transform="translate(0.5)"/>
</clipPath>
<clipPath id="clip1_58_51145">
<rect width="17" height="36" fill="white" transform="translate(22 12)"/>
</clipPath>
</defs>
</svg>
