<svg width="60" height="60" viewBox="0 0 60 60" fill="none" xmlns="http://www.w3.org/2000/svg">
<g clip-path="url(#clip0_58_51110)">
<mask id="mask0_58_51110" style="mask-type:luminance" maskUnits="userSpaceOnUse" x="0" y="0" width="61" height="60">
<path d="M0 29.9958C0 46.5651 13.4266 60 30.0042 60C46.5817 60 60.0083 46.5651 60.0083 29.9958C60.0083 13.4266 46.5734 0 30.0042 0C13.4349 0 0 13.4349 0 29.9958Z" fill="white"/>
</mask>
<g mask="url(#mask0_58_51110)">
<path d="M60 0H0V60H60V0Z" fill="url(#paint0_linear_58_51110)"/>
</g>
<mask id="mask1_58_51110" style="mask-type:luminance" maskUnits="userSpaceOnUse" x="1" y="1" width="58" height="58">
<path d="M1.76172 29.996C1.76172 45.5925 14.4069 58.2377 30.0034 58.2377C45.5999 58.2377 58.2367 45.5925 58.2367 29.996C58.2367 14.3995 45.5916 1.7627 30.0034 1.7627C14.4152 1.7627 1.76172 14.4078 1.76172 29.996Z" fill="white"/>
</mask>
<g mask="url(#mask1_58_51110)">
<path d="M58.203 0.410399L0.40625 1.80273L1.79858 59.5995L59.5953 58.2071L58.203 0.410399Z" fill="url(#paint1_linear_58_51110)"/>
</g>
<path d="M37.5873 30.4369C38.2608 31.9998 38.6764 33.3965 38.6764 34.4607C38.6764 39.7482 34.3699 44.0464 29.0824 44.0464C23.7949 44.0464 19.4967 39.7482 19.4967 34.4607C19.4967 30.362 25.6904 21.2918 29.0824 16.7941C30.5456 18.7395 32.5326 21.5329 34.3201 24.4094L36.1657 22.4391C33.5053 18.2157 30.6787 14.5909 30.0967 13.8593C30.0302 13.7762 29.9637 13.7097 29.8805 13.6432C29.3152 13.2026 28.5005 13.294 28.0598 13.8593C26.9209 15.3059 16.8945 28.1839 16.8945 34.4607C16.8945 41.1782 22.3566 46.6403 29.0741 46.6403C35.7916 46.6403 41.262 41.1699 41.2537 34.4607C41.2537 32.8063 40.5553 30.6946 39.5078 28.4499C38.876 29.09 38.1693 29.8133 37.5624 30.4369" fill="#01B4BC"/>
<path d="M29.0798 41.4519C28.3648 41.4021 27.8244 40.7868 27.8743 40.0635C27.9159 39.4151 28.4313 38.8996 29.0798 38.8581C31.5074 38.8581 33.4777 36.8877 33.486 34.4601C33.5359 33.7451 34.1511 33.1964 34.8744 33.2463C35.5229 33.2879 36.0383 33.8033 36.0799 34.4601C36.0799 38.3177 32.9456 41.4519 29.0798 41.4519Z" fill="#01B4BC"/>
<path d="M34.4776 30.9187C34.1368 30.9187 33.8042 30.8023 33.5216 30.5695L30.4289 27.9507C29.8053 27.4186 29.7305 26.4875 30.2543 25.864C30.778 25.2405 31.7175 25.1656 32.3327 25.6894L34.303 27.3604L40.1393 20.5183C40.6713 19.8947 41.6025 19.8199 42.2177 20.352C42.8412 20.8841 42.916 21.8152 42.384 22.4304L35.5917 30.3949C35.3007 30.7358 34.885 30.9104 34.4693 30.9104" fill="#01B4BC"/>
</g>
<defs>
<linearGradient id="paint0_linear_58_51110" x1="24.4619" y1="59.3489" x2="24.4619" y2="-0.74524" gradientUnits="userSpaceOnUse">
<stop stop-color="#A6772E"/>
<stop offset="0.09" stop-color="#D8B96E"/>
<stop offset="0.14" stop-color="#EED68A"/>
<stop offset="0.26" stop-color="#FCF8DA"/>
<stop offset="0.36" stop-color="#EED68A"/>
<stop offset="0.49" stop-color="#A6772E"/>
<stop offset="0.57" stop-color="#D8B96E"/>
<stop offset="0.61" stop-color="#EED68A"/>
<stop offset="0.74" stop-color="#FCF8DA"/>
<stop offset="0.84" stop-color="#EED68A"/>
<stop offset="1" stop-color="#A6772E"/>
</linearGradient>
<linearGradient id="paint1_linear_58_51110" x1="37.753" y1="126.937" x2="35.137" y2="18.3428" gradientUnits="userSpaceOnUse">
<stop stop-color="#9CF3F3"/>
<stop offset="0.66" stop-color="#E0F5FB"/>
<stop offset="1" stop-color="white"/>
</linearGradient>
<clipPath id="clip0_58_51110">
<rect width="60" height="60" fill="white"/>
</clipPath>
</defs>
</svg>
