<svg width="60" height="60" viewBox="0 0 60 60" fill="none" xmlns="http://www.w3.org/2000/svg">
<g clip-path="url(#clip0_58_50994)">
<mask id="mask0_58_50994" style="mask-type:luminance" maskUnits="userSpaceOnUse" x="0" y="0" width="60" height="60">
<path d="M0 29.9958C0 46.5651 13.4349 60 29.9958 60C46.5567 60 60 46.5651 60 29.9958C60 13.4266 46.5651 0 29.9958 0C13.4266 0 0 13.4349 0 29.9958Z" fill="white"/>
</mask>
<g mask="url(#mask0_58_50994)">
<path d="M60 0H0V60H60V0Z" fill="url(#paint0_linear_58_50994)"/>
</g>
<mask id="mask1_58_50994" style="mask-type:luminance" maskUnits="userSpaceOnUse" x="1" y="1" width="58" height="58">
<path d="M1.76172 29.996C1.76172 45.5925 14.3986 58.2377 29.9951 58.2377C45.5916 58.2377 58.2284 45.5925 58.2284 29.996C58.2284 14.3995 45.5916 1.7627 29.9951 1.7627C14.3986 1.7627 1.76172 14.4078 1.76172 29.996Z" fill="white"/>
</mask>
<g mask="url(#mask1_58_50994)">
<path d="M58.203 0.410399L0.40625 1.80273L1.79858 59.5995L59.5953 58.2071L58.203 0.410399Z" fill="url(#paint1_linear_58_50994)"/>
</g>
<g clip-path="url(#clip1_58_50994)">
<path d="M37.9109 12C37.7052 12 37.5407 12.1805 37.5407 12.3887V12.8469C37.5407 13.0551 37.7052 13.2356 37.9109 13.2356C38.1165 13.2356 38.2811 13.069 38.2811 12.8469V12.3887C38.2811 12.1805 38.1165 12 37.9109 12ZM30 13.0274C29.8218 13.2634 29.4105 13.8049 28.862 14.5962C28.862 14.5962 28.862 14.6101 28.8483 14.624C28.2039 15.5542 27.4087 16.7343 26.5998 18.0671C26.5039 18.2337 26.4079 18.3864 26.2982 18.553C24.5021 21.5658 22.7198 25.2032 22.4045 27.8828V27.8966C22.4045 27.9799 22.3907 28.0494 22.377 28.1327C22.377 28.1465 22.377 28.1743 22.377 28.1882C22.377 28.2576 22.377 28.3132 22.3633 28.3826C22.3633 28.3965 22.3633 28.4242 22.3633 28.4381C22.3633 28.4381 22.3633 28.4381 22.3633 28.452C22.3633 28.5353 22.3633 28.6047 22.3633 28.688C22.3633 28.7991 22.3633 28.8963 22.3633 29.0073C22.3633 29.2156 22.377 29.4238 22.3907 29.6321C22.4045 29.9375 22.4319 30.2291 22.473 30.5067C22.5004 30.7011 22.5278 30.8816 22.5553 31.0621C22.569 31.1454 22.5827 31.2426 22.6101 31.3259C22.6512 31.5064 22.6924 31.673 22.7335 31.8396C22.7609 31.9229 22.7746 32.0062 22.8021 32.0895C22.8432 32.2561 22.898 32.4088 22.9529 32.5615C23.0351 32.7836 23.1174 33.0058 23.2134 33.2279C23.2819 33.3668 23.3368 33.5056 23.4053 33.6444C23.4739 33.7833 23.5424 33.9082 23.611 34.0332C23.7892 34.3525 23.9949 34.6302 24.2005 34.8939C24.2416 34.9495 24.2828 35.005 24.3239 35.0467C24.4062 35.1438 24.5021 35.2549 24.5844 35.3521C24.7215 35.4909 24.8586 35.6298 24.9957 35.7686C25.0368 35.8103 25.0917 35.8519 25.1328 35.8936C25.1877 35.9352 25.2288 35.9769 25.2836 36.0185C25.5304 36.2129 25.7772 36.3934 26.0377 36.56C26.449 36.8238 26.874 37.032 27.3128 37.1847C27.3128 37.1847 27.4225 37.2264 27.4773 37.2403C27.587 37.2819 27.6967 37.3097 27.8063 37.3513C27.916 37.3791 28.0257 37.4207 28.1354 37.4485C28.5604 37.5596 28.9991 37.629 29.4105 37.6707C29.5201 37.6707 29.6161 37.6845 29.7121 37.6845C29.8081 37.6845 29.9177 37.6845 30.0137 37.6845C30.0823 37.6845 30.1371 37.6845 30.2057 37.6845C30.2468 37.6845 30.2742 37.6845 30.3153 37.6845C30.3428 37.6845 30.3702 37.6845 30.3839 37.6845C30.4387 37.6845 30.4936 37.6845 30.5484 37.6845C30.5484 37.6845 30.5621 37.6845 30.5758 37.6845C32.3719 37.5318 34.5244 36.6572 35.9777 34.6579C33.976 34.4913 32.3719 32.7559 32.3719 30.6178C32.3719 28.3826 34.1268 26.5499 36.2793 26.5499C36.6358 26.5499 36.9923 26.6194 37.3488 26.7165C36.8689 24.6757 35.7995 22.3155 34.593 20.1219C33.4139 17.9977 32.1251 16.0262 31.1654 14.6518C31.1654 14.6518 31.1654 14.624 31.1517 14.624C30.6033 13.8465 30.2057 13.3051 30.0274 13.0551L30 13.0274ZM36.7318 13.2356C36.5261 13.2356 36.3616 13.4022 36.3616 13.6244C36.3616 13.8326 36.5261 14.0131 36.7318 14.0131H37.1705C37.3762 14.0131 37.5407 13.8465 37.5407 13.6244C37.5407 13.4161 37.3762 13.2356 37.1705 13.2356H36.7318ZM38.665 13.2356C38.4593 13.2356 38.2948 13.4022 38.2948 13.6244C38.2948 13.8326 38.4593 14.0131 38.665 14.0131H39.1037C39.3093 14.0131 39.4739 13.8465 39.4739 13.6244C39.4739 13.4161 39.3093 13.2356 39.1037 13.2356H38.665ZM37.9109 13.9992C37.7052 13.9992 37.5407 14.1797 37.5407 14.388V14.8461C37.5407 15.0544 37.7052 15.2349 37.9109 15.2349C38.1165 15.2349 38.2811 15.0683 38.2811 14.8461V14.388C38.2811 14.1797 38.1165 13.9992 37.9109 13.9992ZM32.2485 14.8878C32.7421 15.6236 33.2905 16.4566 33.8663 17.3729C34.168 17.8727 34.4833 18.3864 34.7849 18.914C34.8123 18.9695 34.8535 19.039 34.8946 19.0945C34.9083 19.1223 34.922 19.15 34.9357 19.1639C35.1688 19.5804 35.4019 19.9969 35.635 20.4273C39.4876 22.5793 41.9006 26.7721 41.9006 31.3259C41.9006 38.1566 36.5673 43.71 30 43.71C23.4327 43.71 18.0994 38.1843 18.0994 31.3536C18.0994 26.786 20.5261 22.5931 24.3787 20.4412C24.8038 19.6498 25.2425 18.8862 25.6812 18.1504C26.4079 16.9425 27.1208 15.8319 27.7515 14.9017C19.9092 16.0679 14 23.0235 14 31.3536C14 40.5445 21.1568 48 30 48C38.8432 48 46 40.5584 46 31.3536C46 23.0235 40.0908 16.0679 32.2622 14.9017L32.2485 14.8878ZM21.9109 17.8033C22.1165 17.8033 22.2811 17.9699 22.2948 18.1782V18.6363C22.2948 18.8446 22.1302 19.0251 21.9246 19.0251C21.7189 19.0251 21.5544 18.8585 21.5544 18.6363V18.1782C21.5544 17.9699 21.7189 17.7894 21.9246 17.7894L21.9109 17.8033ZM20.7318 19.039H21.1705C21.3762 19.039 21.5407 19.2056 21.5407 19.4277C21.5407 19.6359 21.3762 19.8164 21.1705 19.8164H20.7318C20.5261 19.8164 20.3616 19.6498 20.3616 19.4277C20.3616 19.2194 20.5261 19.039 20.7318 19.039ZM22.665 19.039H23.1037C23.3093 19.039 23.4739 19.2056 23.4739 19.4277C23.4739 19.6359 23.3093 19.8164 23.1037 19.8164H22.665C22.4593 19.8164 22.2948 19.6498 22.2948 19.4277C22.2948 19.2194 22.4593 19.039 22.665 19.039ZM21.9109 19.8025C22.1165 19.8025 22.2811 19.9691 22.2948 20.1774V20.6356C22.2948 20.8438 22.1302 21.0243 21.9246 21.0243C21.7189 21.0243 21.5544 20.8577 21.5544 20.6356V20.1774C21.5544 19.9691 21.7189 19.7887 21.9246 19.7887L21.9109 19.8025ZM33.1945 22.4126C33.4002 22.4126 33.5647 22.5793 33.5784 22.7875V23.2457C33.5784 23.4539 33.4139 23.6344 33.2082 23.6344C33.0026 23.6344 32.838 23.4678 32.838 23.2457V22.7875C32.838 22.5793 33.0026 22.3988 33.2082 22.3988L33.1945 22.4126ZM32.0017 23.6483H32.4404C32.6461 23.6483 32.8106 23.8149 32.8243 24.0231C32.8243 24.2314 32.6598 24.4119 32.4679 24.4258C32.4679 24.4258 32.4542 24.4258 32.4404 24.4258H32.0017C31.7961 24.4258 31.6178 24.2592 31.6178 24.0509C31.6178 23.8427 31.7686 23.6622 31.9743 23.6483C31.9743 23.6483 31.988 23.6483 32.0017 23.6483ZM33.9349 23.6483H34.3736C34.5793 23.6483 34.7438 23.8149 34.7575 24.0231C34.7575 24.2314 34.593 24.4119 34.401 24.4258C34.401 24.4258 34.3873 24.4258 34.3736 24.4258H33.9349C33.7292 24.4258 33.551 24.2592 33.551 24.0509C33.551 23.8427 33.7018 23.6622 33.9075 23.6483C33.9075 23.6483 33.9212 23.6483 33.9349 23.6483ZM33.1945 24.4119C33.4002 24.4119 33.5647 24.5785 33.5784 24.7867V25.2449C33.5784 25.4531 33.4139 25.6336 33.2082 25.6336C33.0026 25.6336 32.838 25.467 32.838 25.2449V24.7867C32.838 24.5785 33.0026 24.398 33.2082 24.398L33.1945 24.4119ZM36.2519 27.258C34.497 27.258 33.0848 28.7297 33.0848 30.5484C33.0848 32.3671 34.497 33.8388 36.2519 33.8388C36.3753 33.8388 36.4987 33.8388 36.6221 33.811C38.2125 33.6167 39.4053 32.2144 39.419 30.5484C39.419 29.3128 38.7609 28.1882 37.7052 27.6329C37.2528 27.3968 36.7592 27.2719 36.2519 27.258ZM24.2142 27.9244C24.4199 27.9244 24.5844 28.1188 24.5707 28.327C24.5021 29.5766 24.6667 30.6178 24.9546 31.4786C25.2562 32.3255 25.6812 33.0058 26.2022 33.5334C26.353 33.6861 26.353 33.9221 26.2022 34.0748C26.0651 34.2275 25.8183 34.2275 25.6812 34.0748C25.0917 33.4778 24.5844 32.7003 24.2554 31.7285C23.9263 30.7705 23.7618 29.6182 23.8303 28.2854C23.8303 28.091 23.9949 27.9244 24.1731 27.9105C24.1731 27.9105 24.2005 27.9105 24.2142 27.9105V27.9244ZM37.623 29.3822C37.8286 29.3822 37.9931 29.5488 38.0069 29.757C38.0069 29.8681 37.9657 29.9653 37.8972 30.0486L36.2793 31.7285C36.2108 31.8535 36.0874 31.9229 35.9503 31.9229C35.8132 31.9229 35.6898 31.8535 35.6213 31.7285L34.7438 30.8261C34.593 30.6734 34.593 30.4373 34.7438 30.2846C34.8123 30.2152 34.9083 30.1735 35.0043 30.1735C35.1003 30.1735 35.1962 30.2152 35.2648 30.2846L35.9366 30.9927L37.3488 29.521C37.4173 29.4516 37.5133 29.4099 37.6093 29.4099L37.623 29.3822ZM27.7789 34.6718C27.7789 34.6718 27.8749 34.6718 27.9297 34.6996C28.2314 34.8245 28.5467 34.9217 28.8483 34.9911C29.054 35.0328 29.1774 35.241 29.1362 35.4493C29.0951 35.6575 28.8895 35.7964 28.6975 35.7408C28.3548 35.6575 28.012 35.5465 27.6692 35.4076C27.4773 35.3243 27.3813 35.1022 27.4636 34.9078C27.5184 34.7551 27.6555 34.6579 27.8063 34.6579L27.7789 34.6718Z" fill="#F39B9B"/>
</g>
</g>
<defs>
<linearGradient id="paint0_linear_58_50994" x1="24.5761" y1="58.2995" x2="24.5761" y2="-1.56697" gradientUnits="userSpaceOnUse">
<stop stop-color="#A6772E"/>
<stop offset="0.09" stop-color="#D8B96E"/>
<stop offset="0.14" stop-color="#EED68A"/>
<stop offset="0.26" stop-color="#FCF8DA"/>
<stop offset="0.36" stop-color="#EED68A"/>
<stop offset="0.49" stop-color="#A6772E"/>
<stop offset="0.57" stop-color="#D8B96E"/>
<stop offset="0.61" stop-color="#EED68A"/>
<stop offset="0.74" stop-color="#FCF8DA"/>
<stop offset="0.84" stop-color="#EED68A"/>
<stop offset="1" stop-color="#A6772E"/>
</linearGradient>
<linearGradient id="paint1_linear_58_50994" x1="38.054" y1="127.293" x2="35.428" y2="18.2859" gradientUnits="userSpaceOnUse">
<stop stop-color="#F39D9C"/>
<stop offset="0.66" stop-color="#FBE0E0"/>
<stop offset="1" stop-color="white"/>
</linearGradient>
<clipPath id="clip0_58_50994">
<rect width="60" height="60" fill="white"/>
</clipPath>
<clipPath id="clip1_58_50994">
<rect width="32" height="36" fill="white" transform="translate(14 12)"/>
</clipPath>
</defs>
</svg>
