<svg width="60" height="60" viewBox="0 0 60 60" fill="none" xmlns="http://www.w3.org/2000/svg">
<g clip-path="url(#clip0_58_51107)">
<mask id="mask0_58_51107" style="mask-type:luminance" maskUnits="userSpaceOnUse" x="0" y="0" width="60" height="61">
<path d="M0 30.0042C0 46.5734 13.4266 60.0083 29.9958 60.0083C46.5651 60.0083 60 46.5734 60 30.0042C60 13.4349 46.5734 0 29.9958 0C13.4183 0 0 13.4349 0 30.0042Z" fill="white"/>
</mask>
<g mask="url(#mask0_58_51107)">
<path d="M60 0H0V60H60V0Z" fill="url(#paint0_linear_58_51107)"/>
</g>
<mask id="mask1_58_51107" style="mask-type:luminance" maskUnits="userSpaceOnUse" x="1" y="1" width="58" height="58">
<path d="M1.76172 30.0043C1.76172 45.6009 14.3986 58.2377 29.9951 58.2377C45.5916 58.2377 58.2367 45.5925 58.2367 30.0043C58.2367 14.4162 45.5916 1.7627 29.9951 1.7627C14.3986 1.7627 1.76172 14.4078 1.76172 30.0043Z" fill="white"/>
</mask>
<g mask="url(#mask1_58_51107)">
<path d="M58.203 0.410399L0.40625 1.80273L1.79858 59.5995L59.5953 58.2071L58.203 0.410399Z" fill="url(#paint1_linear_58_51107)"/>
</g>
<path d="M15.7475 26.1468C15.8555 26.1468 15.9802 26.1385 16.1216 26.1136C17.1275 25.9473 18.6406 25.8641 20.6359 25.8641C26.2394 25.8641 26.1645 26.6623 28.8083 26.6623C35.559 26.6623 38.6101 19.9864 38.9427 19.2215C39.666 19.2963 40.1731 19.3545 40.2895 19.3711C41.495 19.4958 42.3679 20.2025 42.8834 21.4745C43.033 21.832 43.4404 22.0066 43.7979 21.8569C44.1554 21.7156 44.33 21.2999 44.1803 20.9424C43.2741 18.731 41.653 18.1075 40.4392 17.9744C40.2646 17.9578 39.3667 17.8664 38.4023 17.75C37.0638 15.8461 33.2478 11.1738 28.1099 11.1738C20.9518 11.1738 13.6192 22.1645 14.3424 25.066C14.5087 25.7394 15.0408 26.1385 15.7558 26.1385M15.814 23.794C16.7285 20.5849 22.4732 12.5705 28.1183 12.5705C31.7929 12.5705 34.8108 15.497 36.432 17.4756C36.0745 17.4174 35.7087 17.3592 35.3512 17.2844C35.0103 17.2179 34.6445 17.1514 34.2704 17.0932L31.5851 14.4079C31.3107 14.1335 30.8701 14.1335 30.5957 14.4079C30.3214 14.6822 30.3214 15.1228 30.5957 15.3972L32.0673 16.8687C31.6017 16.8438 31.1195 16.8438 30.629 16.8521L28.1848 14.4079C27.9104 14.1335 27.4698 14.1335 27.1954 14.4079C26.9211 14.6822 26.9211 15.1228 27.1954 15.3972L28.7833 16.9934C28.2596 17.0516 27.7275 17.1348 27.1871 17.2511L25.4828 15.5468C25.2085 15.2725 24.7678 15.2725 24.4935 15.5468C24.2191 15.8212 24.2191 16.2618 24.4935 16.5362L25.6075 17.6502C23.7868 18.1989 21.9079 19.0718 20.054 20.402C19.738 20.6265 19.6715 21.0671 19.896 21.3831C20.1205 21.699 20.5611 21.7655 20.877 21.541C22.3319 20.4935 23.8034 19.7619 25.25 19.2464L24.3189 20.5683C24.0944 20.8842 24.1692 21.3249 24.4852 21.5493C24.8011 21.7655 25.2334 21.699 25.4579 21.3831L27.3866 18.6478C28.0102 18.5148 28.6171 18.4234 29.2157 18.3569L27.1123 21.1669C26.8795 21.4745 26.946 21.9151 27.2536 22.1479C27.5612 22.3807 28.0019 22.3142 28.2346 22.0066L31.0364 18.2571C31.5934 18.2571 32.1338 18.2737 32.6492 18.3153L30.5209 21.1669C30.2881 21.4745 30.3546 21.9151 30.6622 22.1479C30.9699 22.3807 31.4105 22.3142 31.6433 22.0066L34.2538 18.5148C34.5364 18.5647 34.8108 18.6063 35.0768 18.6645C35.8749 18.8308 36.6814 18.9555 37.4878 19.0552C36.7645 20.5018 33.996 25.2656 28.8249 25.2656C26.4139 25.2656 26.3973 24.4758 20.6276 24.4674C18.5824 24.4674 17.0028 24.5589 15.9137 24.7335C15.8639 24.7418 15.814 24.7501 15.7724 24.7501C15.7475 24.7501 15.7308 24.7501 15.7225 24.7501C15.6976 24.6753 15.656 24.4092 15.8306 23.8023" fill="#01B4BC"/>
<path d="M48.6017 21.6489C47.496 21.6489 47.8036 22.2891 44.3284 25.7559C43.0315 27.0528 41.6099 28.3914 39.9554 29.4139C32.6394 33.9698 35.7653 42.5912 36.0812 43.3893C35.8235 43.5971 35.5658 43.805 35.3081 44.0128C35.0503 44.1292 34.0776 45.5841 31.6999 44.5948C31.3508 44.4451 30.9351 44.6114 30.7854 44.9689C30.6358 45.3264 30.802 45.7337 31.1595 45.8834C31.9078 46.1993 32.5812 46.324 33.1881 46.324C34.8342 46.324 35.6905 45.4428 36.1893 45.1019C36.6216 44.7527 37.0623 44.3952 37.5029 44.0461C43.6218 45.0936 49.8072 43.6803 51.6528 37.6196C53.1909 32.5731 51.7942 24.8996 50.0649 22.5551C49.616 21.9482 49.1255 21.6406 48.6017 21.6406M50.3226 37.2039C48.8428 42.0508 44.0957 43.3477 39.0908 42.8406C40.0219 42.1755 40.0219 42.2254 40.8949 41.5852H44.6942C45.0767 41.5852 45.3926 41.2693 45.3926 40.8868C45.3926 40.5044 45.0767 40.1885 44.6942 40.1885H42.6075C42.9567 39.8726 43.2975 39.5317 43.6384 39.1742H47.0969C47.4877 39.1742 47.7953 38.8666 47.7953 38.4759C47.7953 38.0851 47.4793 37.7775 47.0969 37.7775H44.8522C45.1764 37.3618 45.4924 36.9295 45.8 36.464H48.2026C48.5934 36.464 48.901 36.148 48.901 35.7656C48.901 35.3832 48.5851 35.0673 48.2026 35.0673H46.623C47.5209 33.3962 48.2276 31.4508 48.6017 29.1978C48.6599 28.8154 48.4105 28.4579 48.028 28.3914C47.6373 28.3332 47.2881 28.5826 47.2216 28.965C46.9306 30.7358 46.4069 32.2905 45.7501 33.6789L45.4757 32.0826C45.4092 31.7002 45.0517 31.4508 44.6693 31.509C44.2869 31.5755 44.0375 31.9413 44.0957 32.3154L44.6693 35.6076C44.3284 36.1397 43.9626 36.6385 43.5885 37.1041L43.0814 33.629C43.0232 33.2466 42.674 32.9805 42.2916 33.0387C41.9092 33.0969 41.6431 33.4544 41.7013 33.8285L42.3747 38.4592C41.984 38.85 41.5849 39.2158 41.1859 39.5567L40.6787 36.0316C40.6205 35.6492 40.263 35.3915 39.8889 35.4414C39.5065 35.4996 39.2405 35.8487 39.2987 36.2312L39.9222 40.546C39.0659 41.1612 38.725 41.3192 37.2452 42.4498C36.6466 40.7039 34.8841 34.1943 40.7037 30.5695C42.4745 29.4638 43.971 28.0671 45.3178 26.712C45.9579 26.0718 48.3772 23.5278 48.6017 23.0124C48.6599 23.0456 48.8844 23.187 49.2003 23.7606C50.5471 26.1716 51.6694 32.7477 50.3226 37.1706" fill="#01B4BC"/>
<path d="M8.45474 31.5093C7.98086 34.4107 7.19106 43.3064 14.8812 45.6592C16.3361 46.1081 18.0488 46.3326 19.9859 46.3326C24.5916 46.3326 30.1618 44.9691 30.7854 43.0154C30.8768 42.7244 31.0015 41.9845 30.1119 41.3444C28.4658 40.1638 24.6831 36.5224 23.0869 33.9618C21.1248 30.8026 18.0654 29.1315 14.2577 29.1315C11.6223 29.1315 9.50227 29.9296 9.11153 30.0793C8.76235 29.6387 8.55451 29.3809 8.25521 29.0235C7.49035 28.0757 7.37396 26.9617 7.90604 25.698C8.05569 25.3405 7.88941 24.9331 7.53192 24.7835C7.17443 24.6338 6.76706 24.8001 6.61741 25.1576C5.68628 27.3607 6.40126 28.9486 7.16612 29.8964C7.37396 30.1541 7.86447 30.761 8.45474 31.5093ZM14.2494 30.5282C17.5998 30.5282 20.1688 31.9333 21.8897 34.6934C23.5109 37.2956 27.41 41.1199 29.2889 42.475C29.3886 42.5415 29.4302 42.5914 29.4385 42.5997C29.1725 43.3895 24.9658 44.9276 19.9775 44.9276C12.6116 44.9276 8.75404 41.3111 9.62698 33.0722C9.84313 33.3798 10.0593 33.6874 10.2671 33.995C10.4583 34.286 10.6745 34.5853 10.899 34.8929V38.6923C10.899 39.0747 11.2066 39.3906 11.5973 39.3906C11.9881 39.3906 12.2957 39.0747 12.2957 38.6923V36.6056C12.6116 36.9547 12.9525 37.2956 13.3099 37.6365V41.095C13.3099 41.4774 13.6259 41.7933 14.0083 41.7933C14.3907 41.7933 14.7066 41.4774 14.7066 41.095V38.8419C15.1223 39.1662 15.5546 39.4821 16.0202 39.7897V42.2007C16.0202 42.5831 16.3278 42.899 16.7186 42.899C17.1093 42.899 17.4169 42.5831 17.4169 42.2007V40.6211C19.0963 41.519 21.0417 42.2339 23.2864 42.5997C23.6771 42.6579 24.0346 42.3919 24.0928 42.0261C24.1593 41.6437 23.9016 41.2862 23.5192 41.2197C21.7484 40.9287 20.1937 40.4049 18.8053 39.7481L20.3932 39.4738C20.7757 39.4073 21.0251 39.0498 20.9669 38.6674C20.9087 38.2849 20.5429 38.0355 20.1604 38.0937L16.8682 38.6674C16.3361 38.3265 15.8373 37.9607 15.3717 37.5866L18.8469 37.0794C19.2293 37.0212 19.4953 36.6721 19.4371 36.2896C19.3873 35.9072 19.0298 35.6412 18.6473 35.6994L14.0166 36.3728C13.6176 35.982 13.2601 35.583 12.9192 35.1839L16.4442 34.6768C16.8266 34.6186 17.0927 34.2611 17.0345 33.8787C16.9763 33.4962 16.6188 33.2302 16.2447 33.2884L11.9299 33.9119C11.7636 33.6791 11.5973 33.4463 11.456 33.2302C11.007 32.5485 10.5249 31.8834 10.026 31.2432C10.766 30.9938 12.3705 30.5365 14.2577 30.5365" fill="#01B4BC"/>
</g>
<defs>
<linearGradient id="paint0_linear_58_51107" x1="24.7975" y1="58.5785" x2="24.7975" y2="-1.51559" gradientUnits="userSpaceOnUse">
<stop stop-color="#A6772E"/>
<stop offset="0.09" stop-color="#D8B96E"/>
<stop offset="0.14" stop-color="#EED68A"/>
<stop offset="0.26" stop-color="#FCF8DA"/>
<stop offset="0.36" stop-color="#EED68A"/>
<stop offset="0.49" stop-color="#A6772E"/>
<stop offset="0.57" stop-color="#D8B96E"/>
<stop offset="0.61" stop-color="#EED68A"/>
<stop offset="0.74" stop-color="#FCF8DA"/>
<stop offset="0.84" stop-color="#EED68A"/>
<stop offset="1" stop-color="#A6772E"/>
</linearGradient>
<linearGradient id="paint1_linear_58_51107" x1="37.753" y1="126.937" x2="35.137" y2="18.3428" gradientUnits="userSpaceOnUse">
<stop stop-color="#9CF3F3"/>
<stop offset="0.66" stop-color="#E0F5FB"/>
<stop offset="1" stop-color="white"/>
</linearGradient>
<clipPath id="clip0_58_51107">
<rect width="60" height="60" fill="white"/>
</clipPath>
</defs>
</svg>
