<svg width="61" height="60" viewBox="0 0 61 60" fill="none" xmlns="http://www.w3.org/2000/svg">
<g clip-path="url(#clip0_58_51159)">
<mask id="mask0_58_51159" style="mask-type:luminance" maskUnits="userSpaceOnUse" x="0" y="0" width="61" height="60">
<path d="M0.5 29.9958C0.5 46.5651 13.9349 60 30.4958 60C47.0567 60 60.5 46.5651 60.5 29.9958C60.5 13.4266 47.0651 0 30.4958 0C13.9266 0 0.5 13.4349 0.5 29.9958Z" fill="white"/>
</mask>
<g mask="url(#mask0_58_51159)">
<path d="M60.5 0H0.5V60H60.5V0Z" fill="#BC0117"/>
<path d="M60.5 0H0.5V60H60.5V0Z" fill="url(#paint0_linear_58_51159)"/>
</g>
<mask id="mask1_58_51159" style="mask-type:luminance" maskUnits="userSpaceOnUse" x="2" y="1" width="57" height="58">
<path d="M2.26172 29.996C2.26172 45.5925 14.8986 58.2377 30.4951 58.2377C46.0916 58.2377 58.7284 45.5925 58.7284 29.996C58.7284 14.3995 46.0916 1.7627 30.4951 1.7627C14.8986 1.7627 2.26172 14.4078 2.26172 29.996Z" fill="white"/>
</mask>
<g mask="url(#mask1_58_51159)">
<path d="M58.703 0.410399L0.90625 1.80273L2.29858 59.5995L60.0953 58.2071L58.703 0.410399Z" fill="url(#paint1_linear_58_51159)"/>
</g>
<g clip-path="url(#clip1_58_51159)">
<path d="M39.87 30.5404C40.68 32.4204 41.18 34.1004 41.18 35.3804C41.18 41.7404 36 46.9104 29.64 46.9104C23.28 46.9104 18.12 41.7304 18.12 35.3704C18.12 30.4404 25.57 19.5304 29.65 14.1204C31.41 16.4604 33.8 19.8204 35.95 23.2804L38.17 20.9104C34.97 15.8304 31.57 11.4704 30.88 10.5904C30.8 10.4904 30.72 10.4104 30.62 10.3304C29.94 9.80042 28.96 9.91042 28.43 10.5904C27.06 12.3404 15 27.8204 15 35.3704C15 43.4504 21.57 50.0204 29.65 50.0204C37.73 50.0204 44.31 43.4404 44.3 35.3704C44.3 33.3804 43.46 30.8404 42.2 28.1404C41.44 28.9104 40.59 29.7804 39.86 30.5304" fill="#01B4BC"/>
<path d="M29.6492 43.7898C28.7892 43.7298 28.1392 42.9898 28.1992 42.1198C28.2492 41.3398 28.8692 40.7198 29.6492 40.6698C32.5692 40.6698 34.9392 38.2998 34.9492 35.3798C35.0092 34.5198 35.7492 33.8598 36.6192 33.9198C37.3992 33.9698 38.0192 34.5898 38.0692 35.3798C38.0692 40.0198 34.2992 43.7898 29.6492 43.7898Z" fill="#01B4BC"/>
<path d="M36.1392 31.1203C35.7292 31.1203 35.3292 30.9803 34.9892 30.7003L31.2692 27.5503C30.5192 26.9103 30.4292 25.7903 31.0592 25.0403C31.6892 24.2903 32.8192 24.2003 33.5592 24.8303L35.9292 26.8403L42.9492 18.6103C43.5892 17.8603 44.7092 17.7703 45.4492 18.4103C46.1992 19.0503 46.2892 20.1703 45.6492 20.9103L37.4792 30.4903C37.1292 30.9003 36.6292 31.1103 36.1292 31.1103" fill="#01B4BC"/>
</g>
</g>
<defs>
<linearGradient id="paint0_linear_58_51159" x1="25.1984" y1="59.0296" x2="25.1984" y2="-1.06449" gradientUnits="userSpaceOnUse">
<stop stop-color="#A6772E"/>
<stop offset="0.09" stop-color="#D8B96E"/>
<stop offset="0.14" stop-color="#EED68A"/>
<stop offset="0.26" stop-color="#FCF8DA"/>
<stop offset="0.36" stop-color="#EED68A"/>
<stop offset="0.49" stop-color="#A6772E"/>
<stop offset="0.57" stop-color="#D8B96E"/>
<stop offset="0.61" stop-color="#EED68A"/>
<stop offset="0.74" stop-color="#FCF8DA"/>
<stop offset="0.84" stop-color="#EED68A"/>
<stop offset="1" stop-color="#A6772E"/>
</linearGradient>
<linearGradient id="paint1_linear_58_51159" x1="38.253" y1="126.937" x2="35.637" y2="18.3428" gradientUnits="userSpaceOnUse">
<stop stop-color="#9CF3F3"/>
<stop offset="0.66" stop-color="#E0F5FB"/>
<stop offset="1" stop-color="white"/>
</linearGradient>
<clipPath id="clip0_58_51159">
<rect width="60" height="60" fill="white" transform="translate(0.5)"/>
</clipPath>
<clipPath id="clip1_58_51159">
<rect width="31.08" height="40.03" fill="white" transform="translate(15 10)"/>
</clipPath>
</defs>
</svg>
