<svg width="124" height="51" viewBox="0 0 124 51" fill="none" xmlns="http://www.w3.org/2000/svg">
<g clip-path="url(#clip0_355_21064)">
<path d="M120.982 12.7524C120.394 12.7524 119.82 12.9268 119.331 13.2533C118.843 13.5799 118.462 14.0441 118.237 14.5871C118.013 15.1301 117.954 15.7276 118.069 16.3039C118.184 16.8802 118.467 17.4095 118.883 17.8247C119.299 18.2399 119.829 18.5225 120.405 18.6366C120.982 18.7507 121.579 18.6912 122.122 18.4657C122.665 18.2402 123.128 17.8588 123.454 17.3697C123.78 16.8807 123.953 16.3059 123.952 15.7183C123.951 14.9313 123.638 14.1769 123.081 13.6208C122.524 13.0648 121.769 12.7524 120.982 12.7524ZM120.982 18.1973C120.493 18.1973 120.015 18.0523 119.608 17.7806C119.201 17.5089 118.884 17.1227 118.696 16.6708C118.509 16.2189 118.46 15.7216 118.555 15.2417C118.65 14.7618 118.885 14.3209 119.231 13.9746C119.576 13.6284 120.017 13.3923 120.497 13.2963C120.976 13.2004 121.474 13.2487 121.926 13.4353C122.378 13.6219 122.765 13.9384 123.037 14.3447C123.31 14.7511 123.456 15.229 123.457 15.7183C123.457 16.0436 123.394 16.3659 123.27 16.6666C123.145 16.9674 122.963 17.2407 122.733 17.4709C122.504 17.7012 122.231 17.8839 121.93 18.0085C121.63 18.1332 121.307 18.1973 120.982 18.1973Z" fill="#231F20"/>
<path d="M120.227 14.3662C120.49 14.3237 120.757 14.3041 121.024 14.3076C121.324 14.2779 121.625 14.3528 121.876 14.5195C121.958 14.5847 122.024 14.6687 122.067 14.7644C122.11 14.86 122.13 14.9646 122.124 15.0694C122.123 15.2103 122.079 15.3475 121.999 15.4632C121.918 15.5789 121.805 15.6679 121.673 15.7184C121.766 15.7659 121.847 15.8347 121.908 15.9194C121.969 16.004 122.009 16.102 122.025 16.2052C122.106 16.5072 122.187 16.8543 122.237 16.9534H121.624C121.545 16.7552 121.484 16.55 121.444 16.3404C121.371 16.0069 121.259 15.9213 120.993 15.9168H120.813V16.9534H120.227V14.3662ZM120.817 15.4976H121.056C121.353 15.4976 121.507 15.3488 121.507 15.119C121.507 14.8891 121.34 14.7539 121.056 14.7539C120.964 14.7495 120.871 14.7571 120.781 14.7764L120.817 15.4976Z" fill="#231F20"/>
<path d="M56.239 35.7402C55.3123 34.8475 54.5751 33.777 54.0716 32.5929C53.5681 31.4088 53.3086 30.1352 53.3086 28.8485C53.3086 27.5617 53.5681 26.2882 54.0716 25.104C54.5751 23.9199 55.3123 22.8494 56.239 21.9567C57.1569 21.0361 58.2481 20.3063 59.4495 19.8097C60.651 19.313 61.9389 19.0592 63.2389 19.063C65.4948 19.058 67.6858 19.8175 69.4546 21.2175C69.6729 21.3823 69.8552 21.5902 69.9901 21.8282C70.125 22.0662 70.2096 22.3293 70.2388 22.6013C70.2821 22.8733 70.268 23.1514 70.1973 23.4177C70.1267 23.684 70.0011 23.9325 69.8287 24.1473C69.4975 24.5751 69.0123 24.8566 68.4765 24.9316C68.2079 24.9698 67.9342 24.9494 67.6742 24.8715C67.4143 24.7937 67.1744 24.6604 66.971 24.4809C65.8438 23.6545 64.4788 23.2164 63.0812 23.2323C62.353 23.2363 61.6332 23.3872 60.9648 23.6761C60.2964 23.965 59.6932 24.3859 59.1914 24.9136C58.651 25.4171 58.22 26.0266 57.9254 26.7039C57.6307 27.3813 57.4787 28.112 57.4787 28.8507C57.4787 29.5894 57.6307 30.3201 57.9254 30.9975C58.22 31.6748 58.651 32.2843 59.1914 32.7879C59.6947 33.3122 60.2986 33.7298 60.9669 34.0156C61.6352 34.3013 62.3543 34.4494 63.0812 34.4511C64.4847 34.4693 65.8561 34.0312 66.989 33.2025C67.194 33.0337 67.433 32.9112 67.6898 32.8435C67.9465 32.7758 68.2149 32.7645 68.4765 32.8104C68.748 32.8418 69.0106 32.9269 69.249 33.0607C69.4873 33.1946 69.6966 33.3746 69.8647 33.5902C70.0349 33.7983 70.1594 34.0399 70.23 34.2993C70.3007 34.5586 70.316 34.83 70.2749 35.0956C70.2009 35.6531 69.9212 36.1627 69.4906 36.5245C67.6931 37.8606 65.5147 38.5856 63.275 38.5933C61.9703 38.6177 60.6742 38.3774 59.4649 37.887C58.2557 37.3967 57.1583 36.6664 56.239 35.7402Z" fill="#231F20"/>
<path d="M73.998 35.7632C72.2753 33.8743 71.3203 31.41 71.3203 28.8535C71.3203 26.297 72.2753 23.8326 73.998 21.9437C74.8321 21.0164 75.8558 20.2793 76.9998 19.7823C78.1438 19.2854 79.3812 19.0402 80.6283 19.0635C82.4993 19.0721 84.3192 19.675 85.8252 20.7853C85.9409 20.313 86.1952 19.8861 86.5554 19.5593C86.9276 19.2301 87.4109 19.0545 87.9076 19.068C88.1733 19.0692 88.4359 19.1254 88.6787 19.2333C88.9216 19.3411 89.1394 19.4982 89.3184 19.6946C89.5125 19.8902 89.6658 20.1224 89.7695 20.3777C89.8732 20.6331 89.9251 20.9064 89.9224 21.182V36.5475C89.9267 36.8199 89.8754 37.0904 89.7716 37.3423C89.6677 37.5941 89.5135 37.8222 89.3184 38.0124C89.1371 38.2042 88.9183 38.3568 88.6757 38.4607C88.433 38.5646 88.1716 38.6176 87.9076 38.6164C87.4167 38.6384 86.9349 38.4779 86.5554 38.1656C86.1882 37.8499 85.9283 37.4277 85.8117 36.9577C84.2994 38.0503 82.4805 38.6371 80.6147 38.6344C79.3707 38.6563 78.1365 38.4113 76.9951 37.9161C75.8537 37.4208 74.8318 36.6867 73.998 35.7632ZM75.5034 28.8625C75.4602 30.3192 75.9708 31.7382 76.9322 32.8334C77.3885 33.3548 77.9544 33.7687 78.5896 34.0453C79.2247 34.322 79.9133 34.4546 80.6057 34.4336C81.3039 34.4528 81.9979 34.3196 82.6393 34.0433C83.2807 33.7669 83.8542 33.3541 84.3198 32.8334C85.3021 31.7571 85.8289 30.3417 85.7892 28.885C85.8237 27.4137 85.2911 25.9855 84.3017 24.896C83.8431 24.3689 83.2745 23.9489 82.6359 23.6654C81.9973 23.3819 81.3043 23.2419 80.6057 23.2554C79.9149 23.2396 79.2291 23.3764 78.5973 23.6561C77.9654 23.9358 77.403 24.3515 76.9503 24.8735C75.9804 25.972 75.4633 27.3976 75.5034 28.8625Z" fill="#231F20"/>
<path d="M96.7862 21.4167C97.4597 20.6614 98.3033 20.0774 99.2472 19.7129C100.146 19.3147 101.117 19.1031 102.1 19.0909C102.787 19.0435 103.465 19.2595 103.998 19.6949C104.193 19.8772 104.348 20.0987 104.452 20.3449C104.556 20.5911 104.607 20.8565 104.602 21.1237C104.605 21.3959 104.553 21.6659 104.449 21.9176C104.345 22.1692 104.192 22.3974 103.998 22.5886C103.811 22.7897 103.584 22.9494 103.332 23.0574C103.08 23.1653 102.808 23.219 102.533 23.2151C100.108 23.2151 98.1925 25.1833 96.7862 29.1197V36.5478C96.7896 36.8222 96.7356 37.0942 96.6277 37.3464C96.5198 37.5987 96.3604 37.8256 96.1597 38.0127C95.9619 38.209 95.7268 38.3636 95.4682 38.4673C95.2096 38.571 94.9328 38.6218 94.6543 38.6167C94.3805 38.6203 94.1088 38.5694 93.8549 38.467C93.601 38.3645 93.37 38.2126 93.1754 38.0201C92.9808 37.8276 92.8264 37.5983 92.7212 37.3455C92.6161 37.0927 92.5622 36.8216 92.5628 36.5478V21.1417C92.5577 20.8719 92.6088 20.6039 92.7128 20.3548C92.8168 20.1058 92.9714 19.881 93.1668 19.6949C93.3631 19.5028 93.5958 19.352 93.8512 19.2514C94.1067 19.1507 94.3798 19.1023 94.6543 19.1089C95.2137 19.0982 95.7547 19.3088 96.1597 19.6949C96.3608 19.8778 96.5207 20.1014 96.6287 20.3509C96.7367 20.6003 96.7904 20.8699 96.7862 21.1417V21.4167Z" fill="#231F20"/>
<path d="M123.306 28.3349C123.317 28.5935 123.272 28.8513 123.174 29.0909C123.076 29.3304 122.927 29.546 122.738 29.7231C122.324 30.0879 121.784 30.2771 121.233 30.2505H108.797C108.958 31.2298 109.423 32.1335 110.127 32.8332C110.961 33.7978 112.182 34.3747 113.782 34.573C115.242 34.8008 116.734 34.4569 117.947 33.613C118.149 33.404 118.392 33.2401 118.662 33.1321C118.932 33.0241 119.221 32.9744 119.511 32.9864C119.761 32.9618 120.012 32.9949 120.247 33.0833C120.481 33.1716 120.692 33.3127 120.863 33.4958C121.594 34.3071 121.594 35.15 120.863 36.0379C118.985 37.7589 116.509 38.6777 113.963 38.5981C112.689 38.6209 111.425 38.3786 110.25 37.8866C109.075 37.3947 108.016 36.6638 107.139 35.7404C105.344 33.8952 104.34 31.4227 104.34 28.8487C104.34 26.2747 105.344 23.8022 107.139 21.957C107.983 21.0324 109.014 20.2968 110.163 19.7981C111.311 19.2994 112.553 19.049 113.805 19.0633C115.017 19.0337 116.223 19.2448 117.354 19.6842C118.484 20.1236 119.516 20.7827 120.39 21.6234C122.175 23.3309 123.221 25.6682 123.306 28.1365V28.3349ZM113.882 22.7818C112.538 22.7963 111.246 23.2975 110.244 24.1926C109.419 24.9056 108.844 25.8645 108.603 26.9286H119.669C119.329 25.8661 118.665 24.9364 117.771 24.2692C116.664 23.3765 115.302 22.856 113.882 22.7818Z" fill="#231F20"/>
<path fill-rule="evenodd" clip-rule="evenodd" d="M68.2228 43.9256C68.3986 43.9256 68.5789 43.9662 68.7546 43.9707C69.7913 44.0248 70.828 44.1104 71.8602 44.1104C72.5844 44.0954 73.307 44.0351 74.0237 43.9302C74.2942 43.8986 74.6457 43.8265 74.6818 43.4794C74.7179 43.1324 74.3933 43.0061 74.1499 42.8574C73.1534 42.3299 72.0742 41.9763 70.9587 41.8117C69.6797 41.5288 68.3855 41.3196 67.0824 41.1852C64.7417 40.9385 62.3752 41.1717 60.1276 41.8703C59.1365 42.1943 58.1853 42.6298 57.2925 43.1684C56.041 43.9162 54.9391 44.8898 54.0427 46.0396C53.7948 46.3596 53.592 46.7067 53.3531 47.0447C53.3215 47.0853 53.3531 47.1529 53.3125 47.2385C53.7343 47.1598 54.1602 47.1041 54.5881 47.0718C55.3315 47.0259 56.0774 47.0364 56.8192 47.1033C58.8836 47.3738 60.8217 48.14 62.7779 48.8026C63.8777 49.1767 64.9595 49.6049 66.0683 49.9384C67.3399 50.3048 68.6636 50.4571 69.9851 50.3892C72.6186 50.2447 75.2089 49.6581 77.6476 48.6538C79.0253 48.1295 80.3592 47.4964 81.6366 46.7608C82.2676 46.3912 82.8987 46.0171 83.4891 45.5889C84.003 45.2193 84.4627 44.773 84.9405 44.3538C84.9856 44.3178 84.9946 44.2412 85.0216 44.1826C84.954 44.1555 84.8774 44.0879 84.8233 44.1059C84.3706 44.2002 83.926 44.3298 83.4936 44.4936C80.8603 45.7351 77.9397 46.2398 75.0424 45.9539C73.3238 45.7889 71.6342 45.3994 70.0167 44.7956C69.4307 44.5747 68.8583 44.3133 68.2814 44.0699C68.2513 44.0512 68.224 44.0285 68.2002 44.0023C68.2002 44.0023 68.2183 43.9482 68.2228 43.9256Z" fill="#8DC63F"/>
<path d="M36.9464 17.0576H32.5607L31.168 22.5025H35.6212C39.0107 22.5025 40.2052 21.0331 40.2052 19.0859C40.2142 17.3731 38.2625 17.0576 36.9464 17.0576Z" fill="#8DC63F"/>
<path d="M35.6204 27.3159H29.9276L28.2148 34.0364H34.1149C38.1039 34.0364 38.9784 31.0119 38.9784 29.8626C38.9784 28.0326 37.225 27.3159 35.6204 27.3159Z" fill="#8DC63F"/>
<path d="M14.4361 0.583496C10.8498 0.583496 7.41044 2.00813 4.87457 4.544C2.3387 7.07987 0.914062 10.5192 0.914062 14.1055V50.3806H37.1936C38.9694 50.3806 40.7277 50.0308 42.3683 49.3513C44.0088 48.6717 45.4995 47.6757 46.7551 46.4201C48.0108 45.1644 49.0068 43.6738 49.6863 42.0332C50.3659 40.3926 50.7156 38.6343 50.7156 36.8585V0.583496H14.4361ZM16.9647 34.6545C15.928 38.657 10.4651 38.7111 10.4651 38.7111L16.0091 17.0037H7.11165C7.11165 17.0037 8.29708 12.537 11.8804 12.2079C13.8591 12.0276 26.953 12.2079 26.953 12.2079L25.6413 17.0037H21.4089L16.9647 34.6545ZM44.5812 29.0113C44.5812 34.1406 42.2689 38.8328 33.101 38.8328H21.5577L27.0927 17.0443L27.5434 15.2954L28.3637 12.2305H38.3836C42.1742 12.2305 45.9198 14.0604 45.9198 18.2748C45.9198 20.8214 44.4054 23.2058 42.314 24.5851C43.0274 25.0804 43.6063 25.7457 43.9982 26.5209C44.3901 27.296 44.5827 28.1566 44.5586 29.0248L44.5812 29.0113Z" fill="#8DC63F"/>
</g>
<defs>
<clipPath id="clip0_355_21064">
<rect width="123.064" height="49.8061" fill="white" transform="translate(0.882812 0.597168)"/>
</clipPath>
</defs>
</svg>
