<svg width="33" height="32" viewBox="0 0 33 32" fill="none" xmlns="http://www.w3.org/2000/svg">
<g clip-path="url(#clip0_2706_13947)">
<path d="M28.8376 8.93791C27.9389 9.31721 26.9856 9.56618 26.0095 9.67654C27.0262 9.096 27.8069 8.17669 28.1745 7.08134C27.208 7.62775 26.1505 8.01273 25.0478 8.21965C24.1496 7.30802 22.87 6.73828 21.4537 6.73828C18.7344 6.73828 16.5297 8.83859 16.5297 11.4291C16.5297 11.7968 16.5733 12.1547 16.6572 12.4982C12.565 12.3025 8.93688 10.435 6.50829 7.59695C6.08454 8.28976 5.84173 9.09564 5.84173 9.9552C5.84173 11.5827 6.71107 13.0184 8.0322 13.8597C7.25027 13.8363 6.48555 13.6351 5.80188 13.2729C5.8016 13.2925 5.8016 13.3122 5.8016 13.3319C5.8016 15.6047 7.49885 17.5006 9.75129 17.9316C9.02621 18.1194 8.26566 18.1469 7.52773 18.012C8.15426 19.8756 9.97273 21.2317 12.1273 21.2697C10.4421 22.5278 8.31898 23.2777 6.01216 23.2777C5.61466 23.2777 5.22279 23.2555 4.83757 23.2122C7.0166 24.5431 9.60476 25.3197 12.3854 25.3197C21.4423 25.3197 26.3948 18.1718 26.3948 11.9731C26.3948 11.7696 26.3901 11.5673 26.3806 11.3662C27.3445 10.7023 28.1766 9.88001 28.8376 8.93791Z" fill="white"/>
</g>
<defs>
<clipPath id="clip0_2706_13947">
<rect width="24" height="18.6667" fill="white" transform="translate(4.83757 6.66602)"/>
</clipPath>
</defs>
</svg>
