<svg width="27" height="27" viewBox="0 0 27 27" fill="none" xmlns="http://www.w3.org/2000/svg">
<path d="M11.8135 17.021L16.2029 14.4929L11.8135 11.9648V17.021Z" fill="#EB1C24"/>
<path d="M13.4941 0C6.04264 0 0 6.04264 0 13.4941C0 20.9455 6.04264 26.9881 13.4941 26.9881C20.9455 26.9881 26.9881 20.9455 26.9881 13.4941C26.9881 6.04264 20.9455 0 13.4941 0ZM21.9258 13.5079C21.9258 13.5079 21.9258 16.2445 21.5786 17.5641C21.3841 18.2865 20.8145 18.856 20.0922 19.0504C18.7726 19.3977 13.4941 19.3977 13.4941 19.3977C13.4941 19.3977 8.22932 19.3977 6.8959 19.0366C6.17359 18.8422 5.60406 18.2724 5.40948 17.5501C5.06213 16.2445 5.06213 13.4941 5.06213 13.4941C5.06213 13.4941 5.06213 10.7576 5.40948 9.43798C5.60386 8.71567 6.18738 8.13214 6.8959 7.93777C8.21553 7.59041 13.4941 7.59041 13.4941 7.59041C13.4941 7.59041 18.7726 7.59041 20.0922 7.95156C20.8145 8.14593 21.3841 8.71567 21.5786 9.43798C21.9398 10.7576 21.9258 13.5079 21.9258 13.5079V13.5079Z" fill="#EB1C24"/>
</svg>
