<svg width="17" height="17" viewBox="0 0 17 17" fill="none" xmlns="http://www.w3.org/2000/svg">
<path d="M15.4246 16.6744C15.8388 16.6744 16.1746 16.3387 16.1746 15.9244V9.17444C16.1746 8.76022 15.8388 8.42444 15.4246 8.42444C15.0104 8.42444 14.6746 8.76022 14.6746 9.17444V15.1744H8.67462C8.26041 15.1744 7.92462 15.5102 7.92462 15.9244C7.92462 16.3387 8.26041 16.6744 8.67462 16.6744H15.4246ZM0.0450483 1.60553L14.8943 16.4548L15.955 15.3941L1.10571 0.544865L0.0450483 1.60553Z" fill="#9F6C38"/>
</svg>
