<svg width="515" height="217" viewBox="0 0 515 217" fill="none" xmlns="http://www.w3.org/2000/svg">
<path d="M470.821 11L487 26.6363L461 32L470.821 11Z" fill="#DFD4BB"/>
<path d="M383.584 11L370 25.3538L402 29L383.584 11Z" fill="#DFD4BB"/>
<g filter="url(#filter0_d_665_6860)">
<path d="M506 168.632V48.3868C506 34.9175 492.87 24 476.671 24H90.8957C74.6968 24 61.5668 34.9175 61.5668 48.3868V77.2634L24 108.5L61.5668 139.737V168.613C61.5668 182.083 74.6968 193 90.8957 193H476.671C492.87 193.019 506 182.102 506 168.632Z" fill="white"/>
<path d="M62.0668 77.2634V77.4979L61.8865 77.6479L24.782 108.5L61.8865 139.352L62.0668 139.502V139.737V168.613C62.0668 181.724 74.8826 192.5 90.8958 192.5H476.671H476.672C492.684 192.519 505.5 181.743 505.5 168.632V48.3868C505.5 35.276 492.684 24.5 476.671 24.5H90.8958C74.8826 24.5 62.0668 35.276 62.0668 48.3868V77.2634Z" stroke="#D9D9D9"/>
</g>
<path d="M471 108.423V11H383V108.423C383 118.679 389.786 127 398.149 127H455.863C464.226 127 471 118.693 471 108.423Z" fill="#F3EDE0"/>
<g clip-path="url(#clip0_665_6860)">
<mask id="mask0_665_6860" style="mask-type:luminance" maskUnits="userSpaceOnUse" x="398" y="41" width="56" height="55">
<path d="M398.721 41H453.721V96H398.721V41Z" fill="white"/>
</mask>
<g mask="url(#mask0_665_6860)">
<path d="M429.671 54.013C429.671 55.9183 428.125 57.4648 426.219 57.4648C424.314 57.4648 422.768 55.9183 422.768 54.013C422.768 52.1085 424.314 50.5611 426.219 50.5611C428.125 50.5611 429.671 52.1085 429.671 54.013Z" stroke="#9F6C38" stroke-width="2" stroke-miterlimit="10" stroke-linecap="round" stroke-linejoin="round"/>
<path d="M422.768 67.8215C422.768 65.9171 424.314 64.3698 426.219 64.3698C428.125 64.3698 429.671 65.9171 429.671 67.8215C429.671 69.7269 428.125 71.2734 426.219 71.2734C424.314 71.2734 422.768 69.7269 422.768 67.8215Z" stroke="#9F6C38" stroke-width="2" stroke-miterlimit="10" stroke-linecap="round" stroke-linejoin="round"/>
<path d="M423.782 56.4547L419.319 60.918H409.826" stroke="#9F6C38" stroke-width="2" stroke-miterlimit="10" stroke-linecap="round" stroke-linejoin="round"/>
<path d="M428.664 65.3789L433.127 60.9156H442.62" stroke="#9F6C38" stroke-width="2" stroke-miterlimit="10" stroke-linecap="round" stroke-linejoin="round"/>
<path d="M402.921 60.918H400.332" stroke="#9F6C38" stroke-width="2" stroke-miterlimit="10" stroke-linecap="round" stroke-linejoin="round"/>
<path d="M452.11 60.918H449.521" stroke="#9F6C38" stroke-width="2" stroke-miterlimit="10" stroke-linecap="round" stroke-linejoin="round"/>
<path d="M409.748 44.4434L407.918 42.613" stroke="#9F6C38" stroke-width="2" stroke-miterlimit="10" stroke-linecap="round" stroke-linejoin="round"/>
<path d="M444.528 79.2227L442.697 77.3923" stroke="#9F6C38" stroke-width="2" stroke-miterlimit="10" stroke-linecap="round" stroke-linejoin="round"/>
<path d="M409.748 77.3923L407.918 79.2227" stroke="#9F6C38" stroke-width="2" stroke-miterlimit="10" stroke-linecap="round" stroke-linejoin="round"/>
<path d="M444.528 42.613L442.697 44.4434" stroke="#9F6C38" stroke-width="2" stroke-miterlimit="10" stroke-linecap="round" stroke-linejoin="round"/>
<path d="M426.222 82.3047H419.319V82.303C419.319 78.7847 417.847 75.4261 415.259 73.0409C411.911 70.0732 409.826 65.7359 409.826 60.9146C409.826 51.8657 417.174 44.5185 426.222 44.5185" stroke="#9F6C38" stroke-width="2" stroke-miterlimit="10" stroke-linecap="round" stroke-linejoin="round"/>
<path d="M426.221 82.3047H433.124V82.303C433.124 78.7847 434.597 75.4261 437.184 73.0409C440.532 70.0732 442.617 65.7359 442.617 60.9146C442.617 51.8657 435.27 44.5185 426.221 44.5185" stroke="#9F6C38" stroke-width="2" stroke-miterlimit="10" stroke-linecap="round" stroke-linejoin="round"/>
<path d="M433.126 82.3066H419.318V85.7585C419.318 89.571 422.409 92.6621 426.222 92.6621C430.035 92.6621 433.126 89.571 433.126 85.7585V82.3066Z" stroke="#9F6C38" stroke-width="2" stroke-miterlimit="10" stroke-linecap="round" stroke-linejoin="round"/>
<path d="M426.221 92.6628V94.3887" stroke="#9F6C38" stroke-width="2" stroke-miterlimit="10" stroke-linecap="round" stroke-linejoin="round"/>
<path d="M417.594 82.3047H434.853" stroke="#9F6C38" stroke-width="2" stroke-miterlimit="10" stroke-linecap="round" stroke-linejoin="round"/>
</g>
</g>
<defs>
<filter id="filter0_d_665_6860" x="0" y="0" width="530" height="217" filterUnits="userSpaceOnUse" color-interpolation-filters="sRGB">
<feFlood flood-opacity="0" result="BackgroundImageFix"/>
<feColorMatrix in="SourceAlpha" type="matrix" values="0 0 0 0 0 0 0 0 0 0 0 0 0 0 0 0 0 0 127 0" result="hardAlpha"/>
<feOffset/>
<feGaussianBlur stdDeviation="12"/>
<feComposite in2="hardAlpha" operator="out"/>
<feColorMatrix type="matrix" values="0 0 0 0 0 0 0 0 0 0 0 0 0 0 0 0 0 0 0.05 0"/>
<feBlend mode="normal" in2="BackgroundImageFix" result="effect1_dropShadow_665_6860"/>
<feBlend mode="normal" in="SourceGraphic" in2="effect1_dropShadow_665_6860" result="shape"/>
</filter>
<clipPath id="clip0_665_6860">
<rect width="55" height="55" fill="white" transform="translate(398.721 41)"/>
</clipPath>
</defs>
</svg>
