<svg width="17" height="16" viewBox="0 0 17 16" fill="none" xmlns="http://www.w3.org/2000/svg">
<mask id="mask0_60_2861" style="mask-type:alpha" maskUnits="userSpaceOnUse" x="0" y="0" width="17" height="16">
<rect x="0.5" width="16" height="16" fill="#D9D9D9"/>
</mask>
<g mask="url(#mask0_60_2861)">
<path d="M8.16711 14.5895C7.1919 14.5895 6.36263 14.2479 5.6793 13.5645C4.99596 12.8812 4.6543 12.0519 4.6543 11.0767V3.87158C4.6543 3.16998 4.90411 2.56937 5.40375 2.06975C5.90337 1.57012 6.50398 1.32031 7.20558 1.32031C7.90718 1.32031 8.50779 1.57012 9.00741 2.06975C9.50704 2.56937 9.75685 3.16998 9.75685 3.87158V10.3716C9.75685 10.8167 9.60316 11.193 9.29578 11.5003C8.98839 11.8077 8.61211 11.9613 8.16693 11.9613C7.72175 11.9613 7.34553 11.8077 7.03826 11.5003C6.73101 11.193 6.57738 10.8167 6.57738 10.3716V3.87158H7.37223V10.3716C7.37223 10.5968 7.44841 10.7856 7.60076 10.9379C7.75312 11.0903 7.9419 11.1665 8.16711 11.1665C8.39232 11.1665 8.58111 11.0903 8.73346 10.9379C8.88582 10.7856 8.962 10.5968 8.962 10.3716V3.87158C8.962 3.37978 8.79216 2.9641 8.45248 2.62453C8.1128 2.28495 7.69699 2.11516 7.20503 2.11516C6.71309 2.11516 6.29745 2.28495 5.95813 2.62453C5.61882 2.9641 5.44916 3.37978 5.44916 3.87158V11.0767C5.44916 11.8272 5.71455 12.4678 6.24531 12.9985C6.77608 13.5293 7.41668 13.7947 8.16711 13.7947C8.91755 13.7947 9.55815 13.5293 10.0889 12.9985C10.6197 12.4678 10.8851 11.8272 10.8851 11.0767V3.87158H11.6799V11.0767C11.6799 12.0519 11.3383 12.8812 10.6549 13.5645C9.9716 14.2479 9.14232 14.5895 8.16711 14.5895Z" fill="#8C8B8D"/>
</g>
</svg>
