<svg width="105" height="459" viewBox="0 0 105 459" fill="none" xmlns="http://www.w3.org/2000/svg">
<circle cx="95" cy="156" r="10" fill="#9F6C38"/>
<circle cx="12" cy="10" r="10" fill="#9F6C38"/>
<circle cx="10" cy="300" r="10" fill="#9F6C38"/>
<circle cx="90" cy="449" r="10" fill="#9F6C38"/>
<line x1="15.7411" y1="16.0158" x2="97.8243" y2="161.233" stroke="#9F6C38" stroke-width="4"/>
<line x1="7.7411" y1="301.016" x2="86.3779" y2="440.135" stroke="#9F6C38" stroke-width="4"/>
<line x1="98.9541" y1="158.083" x2="5.72679" y2="302.887" stroke="#9F6C38" stroke-width="4"/>
</svg>
