<svg width="80" height="80" viewBox="0 0 80 80" fill="none" xmlns="http://www.w3.org/2000/svg">
<path d="M45.3779 44.7559C54.9755 44.7559 62.7559 36.9755 62.7559 27.3779C62.7559 17.7804 54.9755 10 45.3779 10C35.7804 10 28 17.7804 28 27.3779C28 36.9755 35.7804 44.7559 45.3779 44.7559Z" stroke="#9F6C38" stroke-width="2" stroke-miterlimit="10" stroke-linecap="round" stroke-linejoin="round"/>
<path d="M48.3396 20.3204C47.8412 19.9478 46.2387 18.9598 43.9856 19.6386C41.4695 20.3965 40.8447 23.8391 42.5545 25.1802C43.5362 25.9502 45.0134 26.5834 47.0044 27.2871C51.4603 28.8622 49.8131 35.1461 45.2805 35.1764C43.5116 35.1882 42.6847 35.0759 41.1309 34.0594" stroke="#9F6C38" stroke-width="2" stroke-miterlimit="10" stroke-linecap="round" stroke-linejoin="round"/>
<path d="M45.2793 36.1074V37.4701" stroke="#9F6C38" stroke-width="2" stroke-miterlimit="10" stroke-linecap="round" stroke-linejoin="round"/>
<path d="M45.2793 17.2852V18.7646" stroke="#9F6C38" stroke-width="2" stroke-miterlimit="10" stroke-linecap="round" stroke-linejoin="round"/>
<path d="M39.7399 65.9236H55.8145V61.5271C55.8145 58.375 53.2635 55.8177 50.1115 55.8097L42.7913 55.7874L41.4768 54.5482C36.2252 49.5979 28.4646 48.6114 22.2013 51.9008C20.9452 52.5605 19.552 52.9166 18.1332 52.9166H11.752V72.2929H20.5151L36.0762 77.4316C36.5207 77.5783 36.9859 77.6532 37.454 77.6532H54.9182C56.0835 77.6532 57.2012 77.1902 58.0251 76.3663L76.0773 58.3141C78.1865 56.2049 78.1865 52.785 76.0773 50.6757C73.968 48.5664 70.5482 48.5664 68.4388 50.6757L56.0518 62.8525" stroke="#9F6C38" stroke-width="2" stroke-miterlimit="10" stroke-linecap="round" stroke-linejoin="round"/>
<path d="M11.7491 50.6582H2.34375V74.4545H11.7491V50.6582Z" stroke="#9F6C38" stroke-width="2" stroke-miterlimit="10" stroke-linecap="round" stroke-linejoin="round"/>
</svg>
