<svg width="30" height="30" viewBox="0 0 30 30" fill="none" xmlns="http://www.w3.org/2000/svg">
<circle cx="15" cy="15" r="14.5" fill="#9F6C38" stroke="#9F6C38"/>
<g clip-path="url(#clip0_354_6648)">
<path d="M24.8671 10.2698C24.7006 10.0789 24.4232 10.0302 24.2016 10.1532C24.1825 10.1638 24.1633 10.1742 24.1439 10.1844C24.335 9.8719 24.4837 9.53222 24.5841 9.17292C24.6424 8.96441 24.5699 8.74125 24.4 8.60693C24.2301 8.47265 23.9963 8.4535 23.8068 8.55827C23.2257 8.87979 22.6098 9.13378 21.9722 9.31522C21.2205 8.63229 20.2309 8.24609 19.2097 8.24609C16.9467 8.24609 15.1055 10.0872 15.1055 12.3503C15.1055 12.4297 15.1078 12.5091 15.1124 12.5883C12.5734 12.4126 10.27 11.1654 8.72065 9.10621C8.62729 8.9787 8.48109 8.8973 8.32009 8.88746C8.12687 8.8756 7.9421 8.96874 7.83672 9.1312C7.41486 9.78137 7.19185 10.5363 7.19185 11.3144C7.19185 12.0291 7.38267 12.7174 7.72761 13.3168C7.66158 13.3171 7.59501 13.3296 7.53135 13.3549C7.33197 13.4344 7.19905 13.6249 7.19328 13.8395C7.19231 13.8754 7.19181 13.9115 7.19181 13.9477C7.19181 15.2145 7.78043 16.3613 8.71893 17.1023C8.6602 17.2202 8.64595 17.3574 8.68265 17.4877C8.91473 18.3109 9.41744 19.0533 10.0981 19.578C10.3741 19.7908 10.6716 19.9645 10.9849 20.0972C9.88993 20.5725 8.70439 20.8198 7.4935 20.8198C7.4014 20.8198 7.30923 20.8184 7.21956 20.8157C6.97703 20.8091 6.75993 20.9642 6.68931 21.1962C6.61874 21.4282 6.71238 21.6787 6.91781 21.8075C8.60284 22.8644 10.5498 23.423 12.5481 23.423C15.3822 23.423 18.0466 22.3194 20.0506 20.3154C22.0546 18.3114 23.1583 15.6469 23.1583 12.8128C23.1583 12.7867 23.1582 12.7606 23.158 12.7344C23.809 12.2135 24.3914 11.6126 24.8919 10.945C25.044 10.7423 25.0336 10.4608 24.8671 10.2698ZM22.2918 12.0472C22.1473 12.1564 22.0709 12.3278 22.079 12.5013C22.0824 12.6049 22.0841 12.7097 22.0841 12.8129C22.0841 18.071 17.8063 22.3488 12.5482 22.3488C11.3978 22.3488 10.2665 22.1429 9.20409 21.7455C10.4902 21.5199 11.7199 21.0401 12.8264 20.3259C13.0262 20.197 13.1174 19.952 13.0506 19.7238C12.9838 19.4955 12.7749 19.3384 12.5371 19.3375C11.5168 19.3337 10.586 18.7959 10.0584 17.9623C10.2673 17.9574 10.4763 17.9364 10.6811 17.8995C10.9369 17.8535 11.123 17.6309 11.1231 17.371C11.1231 17.1111 10.9371 16.8885 10.6813 16.8423C9.54327 16.637 8.65902 15.7937 8.36833 14.7196C8.73662 14.8302 9.12105 14.8878 9.5099 14.8893H9.51197C9.75593 14.8893 9.96942 14.7248 10.0314 14.4887C10.0936 14.2519 9.98783 14.003 9.77413 13.8834C8.8439 13.3631 8.26606 12.3787 8.26606 11.3144C8.26606 11.0058 8.31386 10.7022 8.40672 10.4132C9.21459 11.3115 10.1881 12.0627 11.2603 12.6107C12.653 13.3223 14.1573 13.6834 15.7317 13.6839H15.7319C15.8953 13.6839 16.0498 13.6095 16.1518 13.4818C16.2538 13.354 16.292 13.1867 16.2556 13.0273C16.2053 12.8067 16.1797 12.579 16.1797 12.3502C16.1797 10.6795 17.539 9.32027 19.2097 9.32027C20.057 9.32027 20.8427 9.66113 21.4222 10.28C21.5552 10.4221 21.7546 10.4811 21.9435 10.4343C22.2257 10.3643 22.5045 10.2818 22.779 10.1872C22.6234 10.3398 22.45 10.476 22.261 10.5929C22.0623 10.7158 21.9658 10.953 22.0223 11.1797C22.0788 11.4064 22.2753 11.5705 22.5085 11.5857C22.6265 11.5934 22.7348 11.5961 22.8437 11.5943C22.6661 11.7524 22.4821 11.9036 22.2918 12.0472Z" fill="white"/>
</g>
<defs>
<clipPath id="clip0_354_6648">
<rect width="18.3333" height="18.3333" fill="white" transform="translate(6.66602 6.66797)"/>
</clipPath>
</defs>
</svg>
